EDI_NAICH_20161007
TableName	Actflag	Created	Changed	IssID	EffectiveDate	OldNAICS	NewNAICS	NAICSChID
NAICH	I	2016/02/20	2016/02/22	124596	2016/02/20		925110	29
NAICH	I	2016/02/20	2016/02/22	125297	2016/02/20		926110	30
NAICH	I	2016/02/20	2016/02/22	139096	2016/02/20		522110	31
NAICH	I	2016/02/20	2016/02/22	148278	2016/02/20		522120	33
NAICH	I	2016/02/20	2016/02/22	163338	2016/02/20		211111	35
NAICH	I	2016/02/20	2016/02/22	167261	2016/02/20		211111	36
NAICH	I	2016/02/20	2016/02/22	179847	2016/02/20		221310	85
NAICH	I	2016/02/27	2016/02/29	76004	2016/02/26		524210	116
NAICH	I	2016/02/27	2016/02/29	76075	2016/02/26		522298	121
NAICH	I	2016/03/01	2016/03/01	83534	2016/02/29		523910	150
NAICH	I	2016/03/01	2016/03/01	84700	2016/02/29		522390	154
NAICH	I	2016/03/09	2016/03/09	92285	2016/03/08		522110	194
NAICH	I	2016/03/19	2016/03/21	37990	2016/03/18		339112	281
NAICH	I	2016/03/19	2016/03/21	93670	2016/03/18		517911	283
NAICH	I	2016/03/19	2016/03/21	94050	2016/03/18		517911	291
NAICH	I	2016/03/19	2016/03/21	97212	2016/03/18		523910	302
NAICH	I	2016/03/21	2016/03/21	108689	2016/03/21		333992	304
NAICH	I	2016/03/21	2016/03/21	99217	2016/03/21		523910	312
NAICH	I	2016/03/21	2016/03/21	135837	2016/03/21		525910	314
NAICH	I	2016/03/21	2016/03/21	158108	2016/03/21		523991	318
NAICH	I	2016/03/28	2016/03/28	112901	2016/03/28		523991	354
NAICH	I	2016/03/28	2016/03/28	165391	2016/03/28		523991	355
NAICH	I	2016/03/28	2016/03/28	114563	2016/03/28		522320	359
NAICH	I	2016/04/02	2016/04/04	115745	2016/03/29		524113	427
NAICH	I	2016/04/02	2016/04/04	115962	2016/03/29		522298	433
NAICH	I	2016/04/07	2016/04/07	123920	2016/04/05		221122	459
NAICH	I	2016/04/07	2016/04/07	37463	2016/04/05		522110	461
NAICH	I	2016/04/07	2016/04/07	124366	2016/04/05		424410	468
NAICH	I	2016/04/07	2016/04/07	124418	2016/04/05		525990	470
NAICH	I	2016/04/14	2016/04/14	126447	2016/04/13		221210	482
NAICH	I	2016/04/14	2016/04/14	178855	2016/04/13		524210	488
NAICH	I	2016/04/14	2016/04/14	126634	2016/04/13		523991	506
NAICH	I	2016/04/15	2016/04/15	124519	2016/04/14		325612	515
NAICH	I	2016/04/15	2016/04/15	125040	2016/04/14		523991	520
NAICH	I	2016/04/15	2016/04/15	125672	2016/04/14		524210	530
NAICH	I	2016/04/20	2016/04/20	127881	2016/04/18		517210	536
NAICH	I	2016/04/20	2016/04/20	127204	2016/04/18		522291	541
NAICH	I	2016/04/20	2016/04/20	127215	2016/04/18		561990	550
NAICH	I	2016/04/22	2016/04/22	126943	2016/04/21		483211	557
NAICH	I	2016/04/22	2016/04/22	126942	2016/04/21		611310	580
NAICH	I	2016/04/25	2016/04/25	112940	2016/04/22		523991	597
NAICH	I	2016/04/25	2016/04/25	128703	2016/04/22		541214	602
NAICH	I	2016/04/26	2016/04/26	129110	2016/04/26		238210	605
NAICH	I	2016/04/26	2016/04/26	128910	2016/04/26		522298	614
NAICH	I	2016/04/26	2016/04/26	128899	2016/04/26		523991	617
NAICH	I	2016/04/26	2016/04/26	92313	2016/04/26		523991	620
NAICH	I	2016/04/26	2016/04/26	130249	2016/04/26		523991	623
NAICH	I	2016/04/26	2016/04/26	129097	2016/04/26		713940	628
NAICH	I	2016/04/30	2016/05/02	131108	2016/04/29		448140	636
NAICH	I	2016/04/30	2016/05/02	131344	2016/04/29		523991	646
NAICH	I	2016/04/30	2016/05/02	131414	2016/04/29		522291	650
NAICH	I	2016/05/03	2016/05/03	131774	2016/05/03		523991	662
NAICH	I	2016/05/03	2016/05/03	165394	2016/05/03		523991	667
NAICH	I	2016/05/09	2016/05/09	132911	2016/05/09		813410	697
NAICH	I	2016/05/16	2016/05/16	140356	2016/05/16		522298	737
NAICH	I	2016/05/16	2016/05/16	138347	2016/05/16		522390	738
NAICH	I	2016/05/16	2016/05/16	138881	2016/05/16		525910	742
NAICH	I	2016/05/16	2016/05/16	135817	2016/05/16		523910	754
NAICH	I	2016/05/16	2016/05/16	137289	2016/05/16		561499	759
NAICH	I	2016/05/16	2016/05/16	140364	2016/05/16		621112	762
NAICH	I	2016/05/16	2016/05/16	138608	2016/05/16		611110	764
NAICH	I	2016/05/16	2016/05/16	137330	2016/05/16		611310	765
NAICH	I	2016/05/18	2016/05/18	140458	2016/05/16		531210	785
NAICH	I	2016/05/18	2016/05/18	140655	2016/05/16		531210	786
NAICH	I	2016/05/21	2016/05/23	141782	2016/05/20		221210	809
NAICH	I	2016/05/21	2016/05/23	140738	2016/05/20		551112	814
NAICH	I	2016/05/21	2016/05/23	166153	2016/05/20		523991	815
NAICH	I	2016/05/21	2016/05/23	142550	2016/05/20		523991	816
NAICH	I	2016/05/21	2016/05/23	140843	2016/05/20		812990	819
NAICH	I	2016/05/21	2016/05/23	141941	2016/05/20		561990	821
NAICH	I	2016/05/21	2016/05/23	140854	2016/05/20		713940	822
NAICH	I	2016/05/21	2016/05/23	141268	2016/05/20		813910	830
NAICH	I	2016/05/21	2016/05/23	140785	2016/05/20		813110	831
NAICH	I	2016/05/21	2016/05/23	141984	2016/05/20		813110	832
NAICH	I	2016/05/21	2016/05/23	142248	2016/05/20		813110	833
NAICH	I	2016/05/21	2016/05/23	141351	2016/05/20		112990	836
NAICH	I	2016/05/24	2016/05/24	142670	2016/05/23		332994	837
NAICH	I	2016/05/24	2016/05/24	143009	2016/05/23		323111	846
NAICH	I	2016/05/24	2016/05/24	143016	2016/05/23		541614	852
NAICH	I	2016/05/24	2016/05/24	143322	2016/05/23		624410	853
NAICH	I	2016/06/01	2016/06/01	143941	2016/05/31		238330	858
NAICH	I	2016/06/01	2016/06/01	144573	2016/05/31		522320	861
NAICH	I	2016/06/01	2016/06/01	144615	2016/05/31		813110	862
NAICH	I	2016/06/01	2016/06/01	144804	2016/05/31		722511	864
NAICH	I	2016/06/01	2016/06/01	144850	2016/05/31		522320	866
NAICH	I	2016/06/01	2016/06/01	145003	2016/05/31		424330	867
NAICH	I	2016/06/04	2016/06/06	145726	2016/06/03		522120	873
NAICH	I	2016/06/07	2016/06/07	147977	2016/06/07		331210	885
NAICH	I	2016/06/07	2016/06/07	148852	2016/06/07		523930	888
NAICH	I	2016/06/07	2016/06/07	148251	2016/06/07		561499	891
NAICH	I	2016/06/20	2016/06/20	149767	2016/06/20		336390	893
NAICH	I	2016/06/20	2016/06/20	151054	2016/06/20		813110	907
NAICH	I	2016/06/20	2016/06/20	152813	2016/06/20		213112	908
NAICH	I	2016/06/20	2016/06/20	152739	2016/06/20		424450	910
NAICH	I	2016/06/20	2016/06/20	165470	2016/06/20		551112	911
NAICH	I	2016/06/22	2016/06/22	155949	2016/06/22		111339	915
NAICH	I	2016/06/22	2016/06/22	156005	2016/06/22		523930	916
NAICH	I	2016/06/22	2016/06/22	156024	2016/06/22		813110	919
NAICH	I	2016/06/22	2016/06/22	156099	2016/06/22		523110	924
NAICH	I	2016/06/22	2016/06/22	156113	2016/06/22		531311	926
NAICH	I	2016/06/28	2016/06/28	156618	2016/06/28		454390	927
NAICH	I	2016/06/28	2016/06/28	178815	2016/06/28		523991	930
NAICH	I	2016/06/28	2016/06/28	156425	2016/06/28		561110	931
NAICH	I	2016/06/28	2016/06/28	156271	2016/06/28		622110	932
NAICH	I	2016/06/28	2016/06/28	156527	2016/06/28		722511	933
NAICH	I	2016/06/28	2016/06/28	156222	2016/06/28		813110	934
NAICH	I	2016/06/28	2016/06/28	156409	2016/06/28		813110	935
NAICH	I	2016/07/01	2016/07/01	157143	2016/06/30		213112	936
NAICH	I	2016/07/01	2016/07/01	157903	2016/06/30		213112	937
NAICH	I	2016/07/01	2016/07/01	157727	2016/06/30		312120	938
NAICH	I	2016/07/01	2016/07/01	157665	2016/06/30		331524	940
NAICH	I	2016/07/01	2016/07/01	157729	2016/06/30		517919	941
NAICH	I	2016/07/01	2016/07/01	157919	2016/06/30		522110	945
NAICH	I	2016/07/01	2016/07/01	157556	2016/06/30		522110	946
NAICH	I	2016/07/01	2016/07/01	157697	2016/06/30		525910	947
NAICH	I	2016/07/01	2016/07/01	175609	2016/06/30		523991	948
NAICH	I	2016/07/02	2016/07/04	157950	2016/07/01		812220	950
NAICH	I	2016/07/02	2016/07/04	157963	2016/07/01		522110	951
NAICH	I	2016/07/02	2016/07/04	157993	2016/07/01		813990	952
NAICH	I	2016/07/02	2016/07/04	158760	2016/07/01		447190	953
NAICH	I	2016/07/02	2016/07/04	158209	2016/07/01		523991	954
NAICH	I	2016/07/02	2016/07/04	158541	2016/07/01		621410	958
NAICH	I	2016/07/02	2016/07/04	158774	2016/07/01		721110	960
NAICH	I	2016/07/05	2016/07/05	159844	2016/07/05		921190	962
NAICH	I	2016/07/05	2016/07/05	160726	2016/07/05		711510	964
NAICH	I	2016/07/12	2016/07/12	161916	2016/07/11		423840	969
NAICH	I	2016/07/12	2016/07/12	161924	2016/07/11		531312	970
NAICH	I	2016/07/12	2016/07/12	162065	2016/07/11		313310	971
NAICH	I	2016/07/12	2016/07/12	162109	2016/07/11		522110	975
NAICH	I	2016/07/12	2016/07/12	162189	2016/07/11		621999	978
NAICH	I	2016/07/12	2016/07/12	162296	2016/07/11		813110	979
NAICH	I	2016/07/12	2016/07/12	161200	2016/07/08		531210	981
NAICH	I	2016/07/12	2016/07/12	161274	2016/07/08		531120	982
NAICH	I	2016/07/12	2016/07/12	161645	2016/07/08		523920	983
NAICH	I	2016/07/12	2016/07/12	161647	2016/07/08		523991	984
NAICH	I	2016/07/12	2016/07/12	161682	2016/07/08		524210	986
NAICH	I	2016/07/12	2016/07/12	161722	2016/07/08		522110	987
NAICH	I	2016/07/12	2016/07/12	161778	2016/07/08		713910	988
NAICH	I	2016/07/18	2016/07/18	162459	2016/07/18		523991	990
NAICH	I	2016/07/18	2016/07/18	162616	2016/07/18		441110	994
NAICH	I	2016/07/18	2016/07/18	162627	2016/07/18		523991	995
NAICH	I	2016/07/21	2016/07/21	162849	2016/07/20		493120	1000
NAICH	I	2016/07/21	2016/07/21	162689	2016/07/20		522110	1001
NAICH	I	2016/07/21	2016/07/21	162694	2016/07/20		531110	1004
NAICH	I	2016/07/21	2016/07/21	162788	2016/07/20		525920	1006
NAICH	I	2016/07/21	2016/07/21	162769	2016/07/20		713940	1008
NAICH	I	2016/07/21	2016/07/21	162685	2016/07/20		813110	1009
NAICH	I	2016/07/21	2016/07/21	162746	2016/07/20		813110	1010
NAICH	I	2016/07/21	2016/07/21	162796	2016/07/20		813110	1011
NAICH	I	2016/07/21	2016/07/21	162858	2016/07/20		813110	1012
NAICH	I	2016/07/21	2016/07/21	163043	2016/07/20		813110	1014
NAICH	I	2016/07/23	2016/07/25	163098	2016/07/22		522110	1018
NAICH	I	2016/07/23	2016/07/25	70635	2016/07/22		522110	1019
NAICH	I	2016/07/23	2016/07/25	163367	2016/07/22		522110	1020
NAICH	I	2016/07/23	2016/07/25	163407	2016/07/22		531210	1023
NAICH	I	2016/07/23	2016/07/25	163439	2016/07/22		523910	1024
NAICH	I	2016/07/23	2016/07/25	163149	2016/07/22		621111	1025
NAICH	I	2016/07/23	2016/07/25	163369	2016/07/22		813110	1027
NAICH	I	2016/07/23	2016/07/25	163483	2016/07/22		813910	1028
NAICH	I	2016/07/26	2016/07/26	163622	2016/07/26		522110	1030
NAICH	I	2016/07/26	2016/07/26	163525	2016/07/26		522292	1032
NAICH	I	2016/07/26	2016/07/26	163562	2016/07/26		524210	1033
NAICH	I	2016/07/26	2016/07/26	163766	2016/07/26		531110	1035
NAICH	I	2016/07/26	2016/07/26	163056	2016/07/26		531210	1036
NAICH	I	2016/07/26	2016/07/26	163518	2016/07/26		525910	1037
NAICH	I	2016/07/26	2016/07/26	163812	2016/07/26		523991	1038
NAICH	I	2016/07/26	2016/07/26	163544	2016/07/26		523910	1039
NAICH	I	2016/07/26	2016/07/26	70393	2016/07/26		532310	1040
NAICH	I	2016/07/26	2016/07/26	163705	2016/07/26		488410	1041
NAICH	I	2016/07/26	2016/07/26	163636	2016/07/26		711310	1042
NAICH	I	2016/07/26	2016/07/26	163502	2016/07/26		621111	1043
NAICH	I	2016/07/26	2016/07/26	163650	2016/07/26		611110	1044
NAICH	I	2016/07/26	2016/07/26	163731	2016/07/26		813110	1047
NAICH	I	2016/07/30	2016/08/01	163849	2016/07/29		212210	1048
NAICH	I	2016/07/30	2016/08/01	164087	2016/07/29		493110	1049
NAICH	I	2016/07/30	2016/08/01	164141	2016/07/29		448110	1050
NAICH	I	2016/07/30	2016/08/01	164116	2016/07/29		445110	1051
NAICH	I	2016/07/30	2016/08/01	163870	2016/07/29		522110	1053
NAICH	I	2016/07/30	2016/08/01	163868	2016/07/29		522110	1054
NAICH	I	2016/07/30	2016/08/01	163855	2016/07/29		522110	1055
NAICH	I	2016/07/30	2016/08/01	163896	2016/07/29		531210	1057
NAICH	I	2016/07/30	2016/08/01	164107	2016/07/29		531210	1058
NAICH	I	2016/07/30	2016/08/01	164135	2016/07/29		531210	1059
NAICH	I	2016/07/30	2016/08/01	164017	2016/07/29		525920	1060
NAICH	I	2016/07/30	2016/08/01	164090	2016/07/29		523991	1062
NAICH	I	2016/07/30	2016/08/01	163909	2016/07/29		523910	1063
NAICH	I	2016/07/30	2016/08/01	164117	2016/07/29		561499	1064
NAICH	I	2016/07/30	2016/08/01	163915	2016/07/29		621999	1066
NAICH	I	2016/07/30	2016/08/01	163850	2016/07/29		813110	1067
NAICH	I	2016/07/30	2016/08/01	163854	2016/07/29		813110	1068
NAICH	I	2016/08/02	2016/08/02	164470	2016/08/02		424720	1072
NAICH	I	2016/08/02	2016/08/02	164200	2016/08/02		621999	1074
NAICH	I	2016/08/02	2016/08/02	164488	2016/08/02		531120	1076
NAICH	I	2016/08/02	2016/08/02	164374	2016/08/02		531110	1077
NAICH	I	2016/08/02	2016/08/02	164500	2016/08/02		561499	1079
NAICH	I	2016/08/02	2016/08/02	164328	2016/08/02		813110	1081
NAICH	I	2016/08/08	2016/08/08	164733	2016/08/05		326299	1083
NAICH	I	2016/08/08	2016/08/08	164791	2016/08/05		721110	1084
NAICH	I	2016/08/08	2016/08/08	164818	2016/08/05		524210	1086
NAICH	I	2016/08/08	2016/08/08	164950	2016/08/05		813110	1087
NAICH	I	2016/08/08	2016/08/08	71109	2016/08/05		522110	1088
NAICH	I	2016/08/08	2016/08/08	165112	2016/08/05		541611	1089
NAICH	I	2016/08/08	2016/08/08	165211	2016/08/05		721199	1091
NAICH	I	2016/08/08	2016/08/08	165302	2016/08/05		524128	1092
NAICH	I	2016/08/22	2016/08/22	165546	2016/08/22		327320	1094
NAICH	I	2016/08/22	2016/08/22	165676	2016/08/22		531110	1095
NAICH	I	2016/08/22	2016/08/22	165565	2016/08/22		531210	1096
NAICH	I	2016/08/22	2016/08/22	163221	2016/08/22		531210	1097
NAICH	I	2016/08/22	2016/08/22	165563	2016/08/22		523991	1098
NAICH	I	2016/08/22	2016/08/22	165573	2016/08/22		811111	1099
NAICH	I	2016/08/22	2016/08/22	165570	2016/08/22		813110	1100
NAICH	I	2016/08/22	2016/08/22	165448	2016/08/22		111411	1101
NAICH	I	2016/08/23	2016/08/23	165985	2016/08/23		524210	1102
NAICH	I	2016/08/23	2016/08/23	165405	2016/08/23		531210	1103
NAICH	I	2016/08/23	2016/08/23	163053	2016/08/23		711310	1104
NAICH	I	2016/08/27	2016/08/29	94520	2016/08/26		447190	1105
NAICH	I	2016/08/27	2016/08/29	29769	2016/08/26		561990	1111
NAICH	I	2016/08/27	2016/08/29	167285	2016/08/26		621111	1112
NAICH	I	2016/08/29	2016/08/29	168182	2016/08/29		813920	1116
NAICH	I	2016/08/29	2016/08/29	168189	2016/08/29		622110	1118
NAICH	I	2016/08/29	2016/08/29	168200	2016/08/29		525990	1119
NAICH	I	2016/08/29	2016/08/29	168319	2016/08/29		524210	1121
NAICH	I	2016/08/29	2016/08/29	168339	2016/08/29		524210	1122
NAICH	I	2016/08/29	2016/08/29	168594	2016/08/29		523130	1123
NAICH	I	2016/09/03	2016/09/05	168635	2016/09/02		551112	1129
NAICH	I	2016/09/03	2016/09/05	169786	2016/09/02		622110	1134
NAICH	I	2016/09/06	2016/09/06	171099	2016/09/06		311611	1146
NAICH	I	2016/09/06	2016/09/06	170173	2016/09/06		523120	1149
NAICH	I	2016/09/06	2016/09/06	170582	2016/09/06		531120	1150
NAICH	I	2016/09/06	2016/09/06	135624	2016/09/06		531110	1151
NAICH	I	2016/09/06	2016/09/06	171172	2016/09/06		721110	1152
NAICH	I	2016/09/06	2016/09/06	170126	2016/09/06		611110	1153
NAICH	I	2016/09/06	2016/09/06	171174	2016/09/06		611110	1154
NAICH	I	2016/09/12	2016/09/12	173306	2016/09/09		522110	1158
NAICH	I	2016/09/12	2016/09/12	171964	2016/09/09		522110	1159
NAICH	I	2016/09/12	2016/09/12	70965	2016/09/09		522110	1160
NAICH	I	2016/09/12	2016/09/12	172777	2016/09/09		531110	1162
NAICH	I	2016/09/12	2016/09/12	173707	2016/09/09		621999	1164
NAICH	I	2016/09/14	2016/09/14	175631	2016/09/12		325412	1166
NAICH	I	2016/09/14	2016/09/14	175759	2016/09/12		488190	1169
NAICH	I	2016/09/14	2016/09/14	177059	2016/09/12		221118	1170
NAICH	I	2016/09/14	2016/09/14	177060	2016/09/12		221118	1171
NAICH	I	2016/09/14	2016/09/14	176089	2016/09/12		221310	1172
NAICH	I	2016/09/14	2016/09/14	177161	2016/09/12		423450	1173
NAICH	I	2016/09/14	2016/09/14	175564	2016/09/12		423710	1174
NAICH	I	2016/09/14	2016/09/14	87145	2016/09/12		522110	1175
NAICH	I	2016/09/14	2016/09/14	177105	2016/09/12		522110	1176
NAICH	I	2016/09/14	2016/09/14	176919	2016/09/12		522298	1177
NAICH	I	2016/09/14	2016/09/14	177160	2016/09/12		523999	1178
NAICH	I	2016/09/14	2016/09/14	175916	2016/09/12		624310	1190
NAICH	I	2016/09/14	2016/09/14	175961	2016/09/12		813920	1191
NAICH	I	2016/09/14	2016/09/14	176777	2016/09/12		541611	1193
NAICH	I	2016/09/19	2016/09/19	177386	2016/09/19		424990	1194
NAICH	I	2016/09/19	2016/09/19	177414	2016/09/19		525910	1195
NAICH	I	2016/09/19	2016/09/19	177523	2016/09/19		561499	1197
NAICH	I	2016/09/19	2016/09/19	177846	2016/09/19		522120	1201
NAICH	I	2016/09/19	2016/09/19	177948	2016/09/19		522110	1202
NAICH	I	2016/09/19	2016/09/19	177957	2016/09/19		522110	1203
NAICH	I	2016/09/19	2016/09/19	178083	2016/09/19		522390	1204
NAICH	I	2016/09/19	2016/09/19	178084	2016/09/19		522120	1205
NAICH	I	2016/09/19	2016/09/19	178166	2016/09/19		531210	1207
NAICH	I	2016/09/19	2016/09/19	178168	2016/09/19		522110	1208
NAICH	I	2016/09/19	2016/09/19	178207	2016/09/19		522291	1209
NAICH	I	2016/09/19	2016/09/19	31582	2016/09/19		444190	1211
NAICH	I	2016/09/19	2016/09/19	178441	2016/09/19		311421	1214
NAICH	I	2016/09/19	2016/09/19	178447	2016/09/19		522110	1215
NAICH	I	2016/09/19	2016/09/19	178579	2016/09/19		541910	1218
NAICH	I	2016/09/19	2016/09/19	178592	2016/09/19		523120	1219
NAICH	I	2016/09/19	2016/09/19	178593	2016/09/19		531210	1220
NAICH	I	2016/09/19	2016/09/19	178617	2016/09/19		522291	1221
NAICH	I	2016/09/19	2016/09/19	178638	2016/09/19		221118	1222
NAICH	I	2016/09/19	2016/09/19	178648	2016/09/19		444130	1223
NAICH	I	2016/09/19	2016/09/19	178653	2016/09/19		541921	1224
NAICH	I	2016/09/19	2016/09/19	178662	2016/09/19		522110	1225
NAICH	I	2016/09/19	2016/09/19	178664	2016/09/19		522110	1226
NAICH	I	2016/09/19	2016/09/19	178672	2016/09/19		561499	1227
NAICH	I	2016/09/19	2016/09/19	178679	2016/09/19		522320	1228
NAICH	I	2016/09/19	2016/09/19	178681	2016/09/19		561450	1229
NAICH	I	2016/09/19	2016/09/19	163312	2016/09/19		561110	1230
NAICH	I	2016/09/19	2016/09/19	179156	2016/09/19		334413	1232
NAICH	I	2016/09/24	2016/09/26	179662	2016/09/23		524113	1325
NAICH	I	2016/09/24	2016/09/26	179830	2016/09/23		711212	1335
NAICH	I	2016/09/27	2016/09/27	172715	2016/09/27		238310	1385
NAICH	I	2016/09/27	2016/09/27	180056	2016/09/27		561990	1392
NAICH	I	2016/09/27	2016/09/27	180242	2016/09/27		541330	1410
EDI_ENDOFFILE
