EDI_BBE_20161007
tablename	ActFlag	Created	Changed	BbeId	SecId	Exchgcd	Curencd	BbgexhId	Bbgexhtk
BBE	I	2012/10/25	2012/10/25	369177	532556			BBG0000GNJ15	LLOYDS 5.25 02/21/17 144A
BBE	U	2012/10/25	2014/01/23	362855	843807			BBG00003J4W8	AIRFP 8.027 10/01/19 144A
BBE	I	2012/10/29	2012/10/29	431724	639134			BBG0009YHYM8	CLOML 2007-1X E
BBE	I	2013/07/26	2013/07/26	508556	106714			BBG0000025N9	AA 3.75 P12/31/49
BBE	I	2013/07/26	2013/07/26	508535	3932134			BBG003LY10Z5	ADK 10.875 P12/31/49 A
BBE	I	2016/08/20	2016/08/22	834603	4856347			BBG00DK5CKN4	BCV 5.375 P12/31/49 A
BBE	I	2015/11/05	2015/11/05	722795	4627483			BBG00B6W31K0	BRG 8.25 P12/31/49 A
BBE	I	2016/08/17	2016/08/17	834102	4831133			BBG00DB0YL13	BRG 7.625 P12/31/49 C
BBE	I	2012/10/25	2012/10/25	364621	277058			BBG000061GN3	NGGLN 6.625 06/01/18
BBE	I	2014/07/12	2014/07/12	599169	4288375			BBG006NB7N71	ENRJ 10 P12/31/49
BBE	I	2013/07/26	2013/07/26	509167	2814682			BBG001S4BMK5	EPM 8.5 P12/31/49 +A
BBE	U	2013/07/26	2014/07/12	509284	4034391			BBG004J5RPK2	GGN 5 P12/31/49
BBE	U	2013/07/26	2016/06/28	509278	4063354			BBG004QJBBT3	GLU 3.8 P12/31/49 A
BBE	I	2013/07/26	2013/07/26	509285	2784852			BBG001R39SV6	GST 8.625 P12/31/49 A
BBE	I	2013/11/13	2013/11/13	533368	4134330			BBG005HJTXN9	GST 10.75 P12/31/49 B
BBE	U	2014/06/14	2015/08/26	592323	4269194			BBG006K5HVS5	ICC 9.875 P12/31/49 A
BBE	I	2012/10/26	2012/10/26	409105	956413			BBG00007S3H8	LEH 0 04/29/10 INDU
BBE	I	2016/05/06	2016/05/06	769186	4755556			BBG00CSP1NV1	MNHBRG 6 04/22/26
BBE	I	2013/07/26	2013/07/26	509518	4047326			BBG004K939C3	LTS 8 P12/31/49 A
BBE	I	2013/07/26	2013/07/26	509775	107296			BBG000001R98	PCG 6 P12/31/49 A
BBE	I	2013/07/26	2013/07/26	509774	87425			BBG000001RB5	PCG 5.5 P12/31/49 B
BBE	I	2013/07/26	2013/07/26	509772	107287			BBG000001RD3	PCG 5 P12/31/49 C
BBE	I	2013/07/26	2013/07/26	509773	107295			BBG000001RC4	PCG 5 P12/31/49 D
BBE	U	2013/07/26	2014/02/14	509771	107291			BBG000001RF1	PCG 5 P12/31/49 A
BBE	I	2013/07/26	2013/07/26	509770	107285			BBG000001RG0	PCG 4.8 P12/31/49 G
BBE	I	2013/07/26	2013/07/26	509769	107282			BBG000001RQ9	PCG 4.5 P12/31/49 H
BBE	I	2013/07/26	2013/07/26	509768	107280			BBG000001RV3	PCG 4.36 P12/31/49 I
BBE	I	2014/04/15	2014/04/15	576374	4223073			BBG00664KTB3	PW 7.75 P12/31/49 A
BBE	I	2014/01/06	2014/01/06	545293	4161866			BBG005PCN2C1	RLGT 9.75 P12/31/49 A
BBE	I	2013/07/26	2013/07/26	510023	88327			BBG000001Y93	EIX 4.08 P12/31/49
BBE	I	2013/07/26	2013/07/26	510022	88329			BBG000001YB0	EIX 4.24 P12/31/49
BBE	I	2013/07/26	2013/07/26	510021	88330			BBG000001YC9	EIX 4.32 P12/31/49
BBE	I	2013/07/26	2013/07/26	510020	88331			BBG000001YD8	EIX 4.78 P12/31/49
BBE	I	2014/11/26	2014/11/26	637929	4371260			BBG007BTZPK2	YUMA 9.25 P12/31/49 A
BBE	I	2012/10/25	2012/10/25	373504	138242			BBG00043GXW3	DB 7.9 01/15/27 144A
BBE	I	2012/10/26	2012/10/26	421924	139420			BBG0008MH9N9	GRAN 2003-1 1A3
BBE	I	2012/10/26	2012/10/26	421925	139427			BBG0008MH9R5	GRAN 2003-1 1B
BBE	I	2012/10/26	2012/10/26	421926	140995			BBG0008MHB18	GRAN 2003-1 1C
BBE	I	2012/10/26	2012/10/26	416383	154062			BBG0001NK7J9	PERMA 4 3A
BBE	I	2012/10/26	2012/10/26	416384	154065			BBG0001NK7M5	PERMA 4 3B
BBE	I	2012/10/26	2012/10/26	416385	154067			BBG0001NK816	PERMA 4 3M
BBE	I	2012/10/26	2012/10/26	416386	154069			BBG0001NK843	PERMA 4 3C
BBE	I	2012/10/26	2012/10/26	416038	165024			BBG0001L31L2	PERMA 5 3C
BBE	I	2012/10/26	2012/10/26	416035	165034			BBG0001L3196	PERMA 5 2C
BBE	I	2012/10/25	2012/10/25	378771	182803			BBG00091HQJ1	AFOUR 2003-X A1
BBE	I	2012/10/29	2012/10/29	427324	235753			BBG0009PVWN4	PERMA 7 1B
BBE	I	2012/10/29	2012/10/29	427328	235802			BBG0009PVX34	PERMA 7 2C
BBE	I	2012/10/29	2012/10/29	427327	235808			BBG0009PVX07	PERMA 7 2B
BBE	I	2012/10/29	2012/10/29	427325	235810			BBG0009PVWT8	PERMA 7 1C
BBE	I	2012/10/26	2012/10/26	422154	255625			BBG0008Q6QZ1	PERMA 8 2B
BBE	I	2012/10/26	2012/10/26	422155	255636			BBG0008Q6R98	PERMA 8 2C
BBE	I	2012/10/26	2012/10/26	422156	255644			BBG0008Q6RH9	PERMA 8 3A
BBE	I	2012/10/29	2012/10/29	425721	265300			BBG0009JJ8V6	PCDO 2004-4X A1L
BBE	I	2012/10/29	2012/10/29	425722	265303			BBG0009JJ8Y3	PCDO 2004-4X A2L
BBE	I	2012/10/29	2012/10/29	425723	265305			BBG0009JJ917	PCDO 2004-4X A3L
BBE	I	2012/10/29	2012/10/29	425724	265307			BBG0009JJ935	PCDO 2004-4X B1L
BBE	I	2012/10/26	2012/10/26	416040	265336			BBG0001L4S50	ORCHD 2005-2X A1
BBE	I	2012/10/26	2012/10/26	416041	265337			BBG0001L4SH7	ORCHD 2005-2X A2
BBE	I	2012/10/26	2012/10/26	416042	265339			BBG0001L4SY8	ORCHD 2005-2X A3
BBE	I	2012/10/26	2012/10/26	416043	265341			BBG0001L4T12	ORCHD 2005-2X B
BBE	I	2012/10/25	2012/10/25	390772	266666			BBG000VVWLH6	CMSPK 2005-IX A
BBE	I	2012/10/25	2012/10/25	390773	266667			BBG000VVWLW9	CMSPK 2005-IX B
BBE	I	2012/10/25	2012/10/25	390774	266669			BBG000VVWM11	CMSPK 2005-IX C
BBE	I	2012/10/26	2012/10/26	422157	269696			BBG0008Q6RM3	PERMA 8 3B
BBE	I	2012/10/26	2012/10/26	422158	269697			BBG0008Q6RX1	PERMA 8 3C
BBE	I	2012/10/29	2012/10/29	423953	272924			BBG00096B4H7	UBS V0 06/01/20 DPNT
BBE	U	2012/10/11	2012/10/13	269958	273401			BBG0007ZJJC9	UBS V0 03/08/17 EMTN
BBE	I	2012/10/29	2012/10/29	424648	277035			BBG0009CDKT3	MCLO 2005-1X C
BBE	I	2012/10/26	2012/10/26	422107	299540			BBG0008PQ845	LEOP III-A A1
BBE	I	2012/10/26	2012/10/26	422108	299545			BBG0008PQ872	LEOP III-A A2
BBE	I	2012/10/26	2012/10/26	422109	299547			BBG0008PQ8G2	LEOP III-A B
BBE	I	2012/10/26	2012/10/26	422110	299548			BBG0008PQ8P2	LEOP III-A C1
BBE	I	2012/10/25	2012/10/25	382454	300768			BBG0009S41D7	ENDVR 2005-1X A1
BBE	I	2012/10/25	2012/10/25	382455	300776			BBG0009S41H3	ENDVR 2005-1X A2
BBE	I	2012/10/25	2012/10/25	382456	300785			BBG0009S41L8	ENDVR 2005-1X B
BBE	I	2012/10/25	2012/10/25	382457	300790			BBG0009S41P4	ENDVR 2005-1X C
BBE	I	2012/10/29	2012/10/29	427788	301698			BBG0009QXQQ0	LNR 2005-1X A
BBE	I	2012/10/29	2012/10/29	429086	301745			BBG0009T14T5	TBRNA 2005-3X A1C
BBE	I	2012/10/29	2012/10/29	433336	320054			BBG000B152V0	RAFF 2005-1X A1A
BBE	I	2012/10/29	2012/10/29	433337	320060			BBG000B152Y7	RAFF 2005-1X A1B
BBE	I	2012/10/29	2012/10/29	433338	320064			BBG000B15302	RAFF 2005-1X A2
BBE	I	2012/10/29	2012/10/29	433339	320066			BBG000B15320	RAFF 2005-1X B
BBE	I	2012/10/29	2012/10/29	433340	320069			BBG000B15348	RAFF 2005-1X C
BBE	I	2012/10/25	2012/10/25	383408	326317			BBG0009V6DP9	AMBSD 2005-1X A1
BBE	I	2012/10/25	2012/10/25	383409	326320			BBG0009V6DS6	AMBSD 2005-1X A2
BBE	I	2012/10/25	2012/10/25	383410	326322			BBG0009V6DX0	AMBSD 2005-1X B
BBE	I	2012/10/25	2012/10/25	383411	326328			BBG0009V6F01	AMBSD 2005-1X C
BBE	I	2012/10/25	2012/10/25	383412	326333			BBG0009V6F29	AMBSD 2005-1X D
BBE	I	2012/10/25	2012/10/25	387746	328137			BBG000B426D8	ABSCF 2X A1
BBE	I	2012/10/25	2012/10/25	387747	328143			BBG000B426H4	ABSCF 2X A2
BBE	I	2012/10/25	2012/10/25	387748	328148			BBG000B426L9	ABSCF 2X A3
BBE	I	2012/10/25	2012/10/25	387749	328152			BBG000B426N7	ABSCF 2X B
BBE	I	2012/10/25	2012/10/25	387750	328156			BBG000B426S2	ABSCF 2X C1
BBE	I	2012/10/25	2012/10/25	387753	328161			BBG000B42700	ABSCF 2X C2
BBE	I	2012/10/25	2012/10/25	387751	328165			BBG000B426W7	ABSCF 2X COM1
BBE	I	2012/10/25	2012/10/25	387752	328167			BBG000B426Y5	ABSCF 2X COM2
BBE	I	2012/10/25	2012/10/25	383470	329659			BBG0009VCG39	ADROC 2005-2X A2
BBE	I	2012/10/25	2012/10/25	383471	329660			BBG0009VCG57	ADROC 2005-2X B
BBE	I	2012/10/25	2012/10/25	383472	329661			BBG0009VCG84	ADROC 2005-2X C
BBE	I	2012/10/25	2012/10/25	383473	329662			BBG0009VCGB0	ADROC 2005-2X D
BBE	I	2012/10/29	2012/10/29	424160	333750			BBG00098CM37	SCF 5A A1
BBE	I	2012/10/25	2012/10/25	390607	338045			BBG000VT7DY8	GSTR 2005-5X A1
BBE	I	2012/10/25	2012/10/25	390608	338048			BBG000VT7FG3	GSTR 2005-5X A2
BBE	I	2012/10/25	2012/10/25	390609	338049			BBG000VT7FP3	GSTR 2005-5X A3
BBE	I	2012/10/25	2012/10/25	390612	338946			BBG000VT7GF2	GSTR 2005-5X IN
BBE	I	2012/10/25	2012/10/25	384071	340593			BBG0009WKST4	BRHEA 2005-3 A13
BBE	I	2012/10/25	2012/10/25	384072	340600			BBG0009WKSX9	BRHEA 2005-3 A14
BBE	I	2012/10/25	2012/10/25	384073	340602			BBG0009WKSZ7	BRHEA 2005-3 A15
BBE	I	2012/10/25	2012/10/25	384074	340605			BBG0009WKT21	BRHEA 2005-3 A16
BBE	I	2012/10/29	2012/10/29	430800	342781			BBG0009WVPK7	TRAP 2005-9A A1
BBE	I	2012/10/29	2012/10/29	430802	342835			BBG0009WVPW4	TRAP 2005-9A A3
BBE	I	2012/10/29	2012/10/29	430803	342866			BBG0009WVPY2	TRAP 2005-9A B1
BBE	I	2012/10/29	2012/10/29	430804	342911			BBG0009WVQ07	TRAP 2005-9A B2
BBE	I	2012/10/29	2012/10/29	430762	343440			BBG0009WSYT3	TABS 2005-4A A
BBE	I	2012/10/29	2012/10/29	430763	343443			BBG0009WSZ01	TABS 2005-4A B
BBE	I	2012/10/29	2012/10/29	430765	343454			BBG0009WSZ83	TABS 2005-4A D
BBE	I	2012/10/29	2012/10/29	430766	343459			BBG0009WSZC8	TABS 2005-4A E
BBE	I	2012/10/29	2012/10/29	433128	348899			BBG000B0VKR8	PERMA 9A 1C
BBE	I	2012/10/29	2012/10/29	433130	348909			BBG000B0VLP8	PERMA 9A 2B
BBE	I	2012/10/25	2012/10/25	385047	349213			BBG0009YLMT2	GENKR 2005-1X A1A
BBE	I	2012/10/25	2012/10/25	385048	349217			BBG0009YLMX7	GENKR 2005-1X A2
BBE	I	2012/10/25	2012/10/25	385049	349222			BBG0009YLN01	GENKR 2005-1X B
BBE	I	2012/10/25	2012/10/25	385050	349225			BBG0009YLN38	GENKR 2005-1X C
BBE	I	2012/10/29	2012/10/29	431681	350728			BBG0009YF9J9	LNGSH 2006-1X A1
BBE	I	2012/10/29	2012/10/29	431682	350731			BBG0009YF9L6	LNGSH 2006-1X A2
BBE	I	2012/10/29	2012/10/29	431683	350735			BBG0009YF9P2	LNGSH 2006-1X B
BBE	I	2012/10/29	2012/10/29	431684	350745			BBG0009YF9S9	LNGSH 2006-1X C
BBE	I	2012/10/29	2012/10/29	431685	350750			BBG0009YF9V5	LNGSH 2006-1X D
BBE	I	2012/10/25	2012/10/25	379824	350782			BBG0009F7D28	GSTR 2004-4X A1
BBE	I	2012/10/25	2012/10/25	379825	350783			BBG0009F7D73	GSTR 2004-4X A2A
BBE	I	2012/10/25	2012/10/25	379826	350787			BBG0009F7DC7	GSTR 2004-4X A2B
BBE	I	2012/10/25	2012/10/25	379827	350791			BBG0009F7DF4	GSTR 2004-4X B
BBE	I	2012/10/25	2012/10/25	379828	350795			BBG0009F7DN5	GSTR 2004-4X C1A
BBE	I	2012/10/25	2012/10/25	379829	350797			BBG0009F7DR1	GSTR 2004-4X C1B
BBE	I	2012/10/26	2012/10/26	416441	351085			BBG0001NVTM5	GUGH 2005-1X A
BBE	I	2012/10/26	2012/10/26	416442	351091			BBG0001NVV22	GUGH 2005-1X B
BBE	I	2012/10/25	2012/10/25	383179	351117			BBG0009TF438	CARL 2005-7A A1
BBE	I	2012/10/25	2012/10/25	383182	351132			BBG0009TF4C8	CARL 2005-7A A3
BBE	I	2012/10/25	2012/10/25	384775	351251			BBG0009XYB32	ARES 2005-2RX A
BBE	I	2012/10/25	2012/10/25	384776	351259			BBG0009XYB50	ARES 2005-2RX B
BBE	I	2012/10/25	2012/10/25	384777	351266			BBG0009XYB78	ARES 2005-2RX C
BBE	I	2012/10/25	2012/10/25	384778	351273			BBG0009XYBB3	ARES 2005-2RX D1
BBE	I	2012/10/25	2012/10/25	384779	351284			BBG0009XYBD1	ARES 2005-2RX D2
BBE	I	2012/10/25	2012/10/25	385084	351441			BBG0009YMXV4	CBCL 15A D
BBE	I	2012/10/25	2012/10/25	382458	351852			BBG0009S41S1	ENDVR 2005-1X S1
BBE	I	2012/10/25	2012/10/25	382459	351856			BBG0009S41V7	ENDVR 2005-1X S2
BBE	I	2012/10/25	2012/10/25	380246	352714			BBG0009H07Y9	BRHEA 2005-2 A10
BBE	I	2012/10/25	2012/10/25	380247	352718			BBG0009H0813	BRHEA 2005-2 A11
BBE	I	2012/10/25	2012/10/25	380248	352727			BBG0009H0840	BRHEA 2005-2 A12
BBE	I	2012/10/25	2012/10/25	390630	353803			BBG000VTKQ74	FTDRB 2005-1X A1LB
BBE	I	2012/10/25	2012/10/25	390631	353808			BBG000VTKR90	FTDRB 2005-1X A2L
BBE	I	2012/10/25	2012/10/25	390632	353810			BBG000VTKRF3	FTDRB 2005-1X A3L
BBE	I	2012/10/25	2012/10/25	390633	353812			BBG000VTKRT8	FTDRB 2005-1X B1L
BBE	I	2012/10/25	2012/10/25	390634	353818			BBG000VTKRY2	FTDRB 2005-1X X
BBE	I	2012/10/25	2012/10/25	382851	353832			BBG0009SZ2P8	ALESC 8A A1A
BBE	I	2012/10/25	2012/10/25	382852	353839			BBG0009SZ2S5	ALESC 8A A1B
BBE	I	2012/10/25	2012/10/25	382853	353845			BBG0009SZ2V1	ALESC 8A A2
BBE	I	2012/10/25	2012/10/25	382854	353850			BBG0009SZ2X9	ALESC 8A B1
BBE	I	2012/10/25	2012/10/25	382855	353854			BBG0009SZ2Z7	ALESC 8A B2
BBE	I	2012/10/25	2012/10/25	382857	353865			BBG0009SZ394	ALESC 8A C2
BBE	I	2012/10/25	2012/10/25	382858	353869			BBG0009SZ3C0	ALESC 8A C3
BBE	I	2012/10/25	2012/10/25	382423	353918			BBG0009S1630	DUANE 2005-1A Z4
BBE	I	2012/10/29	2012/10/29	429810	353973			BBG0009V9797	HEREF 2005-1X A1
BBE	I	2012/10/29	2012/10/29	429811	353982			BBG0009V97D2	HEREF 2005-1X A2
BBE	I	2012/10/29	2012/10/29	429812	353986			BBG0009V97G9	HEREF 2005-1X B
BBE	I	2012/10/29	2012/10/29	429813	353990			BBG0009V97K4	HEREF 2005-1X C
BBE	I	2012/10/29	2012/10/29	429814	353997			BBG0009V97N1	HEREF 2005-1X D
BBE	I	2012/10/29	2012/10/29	432000	354533			BBG0009YXW62	LHILL 2006-1X A1SU
BBE	I	2012/10/29	2012/10/29	431984	354534			BBG0009YXS25	LHILL 2006-1A A1SU
BBE	I	2012/10/29	2012/10/29	432001	354535			BBG0009YXW80	LHILL 2006-1X A1S
BBE	I	2012/10/29	2012/10/29	432003	354539			BBG0009YXWG1	LHILL 2006-1X A2
BBE	I	2012/10/29	2012/10/29	432004	354541			BBG0009YXWK6	LHILL 2006-1X A3
BBE	I	2012/10/29	2012/10/29	433127	354548			BBG000B0VKM3	PERMA 9A 1B
BBE	I	2012/10/29	2012/10/29	432504	355050			BBG0009ZPC26	STCLO 2006-4A A1
BBE	I	2012/10/29	2012/10/29	430696	355183			BBG0009WRK32	PCDO 2005-5A COM2
BBE	I	2012/10/25	2012/10/25	372639	357125			BBG0001LZ8G8	CSTRA 2004-1X SUB
BBE	I	2012/10/25	2012/10/25	380860	357492			BBG0009LBV66	CHAT 2004-1X A1
BBE	I	2012/10/25	2012/10/25	380861	357493			BBG0009LBV93	CHAT 2004-1X A2
BBE	I	2012/10/29	2012/10/29	432005	357528			BBG0009YXWM4	LHILL 2006-1X B
BBE	I	2012/10/29	2012/10/29	432006	357532			BBG0009YXWP1	LHILL 2006-1X C
BBE	I	2012/10/25	2012/10/25	383402	357615			BBG0009V6D24	AMBSD 2005-1A A1
BBE	I	2012/10/25	2012/10/25	383403	357618			BBG0009V6D88	AMBSD 2005-1A A2
BBE	I	2012/10/25	2012/10/25	383406	357620			BBG0009V6DH8	AMBSD 2005-1A D
BBE	I	2012/10/25	2012/10/25	383404	357621			BBG0009V6DC3	AMBSD 2005-1A B
BBE	I	2012/10/25	2012/10/25	383405	357628			BBG0009V6DF0	AMBSD 2005-1A C
BBE	I	2012/10/29	2012/10/29	426632	358363			BBG0009NBRV3	NYLIM 2004-1X A
BBE	I	2012/10/29	2012/10/29	426633	358365			BBG0009NBRX1	NYLIM 2004-1X B
BBE	I	2012/10/29	2012/10/29	426634	358367			BBG0009NBRZ9	NYLIM 2004-1X C
BBE	I	2012/10/29	2012/10/29	426635	358369			BBG0009NBS50	NYLIM 2004-1X D
BBE	I	2012/10/29	2012/10/29	426636	358370			BBG0009NBSD1	NYLIM 2004-1X SUBS
BBE	I	2012/10/29	2012/10/29	432933	358697			BBG000B0C324	NEPTN 2006-3X A1
BBE	I	2012/10/29	2012/10/29	432934	358701			BBG000B0C342	NEPTN 2006-3X A2
BBE	I	2012/10/29	2012/10/29	432935	358708			BBG000B0C3B4	NEPTN 2006-3X A3
BBE	I	2012/10/29	2012/10/29	432936	358714			BBG000B0C3D2	NEPTN 2006-3X B
BBE	I	2012/10/25	2012/10/25	382966	358753			BBG0009T20H5	DUKEF 2005-9A COM1
BBE	I	2012/10/29	2012/10/29	431788	358768			BBG0009YLWK9	MNPT 2006-1A A1
BBE	I	2012/10/29	2012/10/29	431789	358779			BBG0009YLWR2	MNPT 2006-1A A2
BBE	I	2012/10/25	2012/10/25	382320	358784			BBG0009RR420	FCF 2005-1X A2
BBE	I	2012/10/29	2012/10/29	431791	358790			BBG0009YLWX5	MNPT 2006-1A C
BBE	I	2012/10/25	2012/10/25	382321	358791			BBG0009RR457	FCF 2005-1X A3
BBE	I	2012/10/25	2012/10/25	382322	358797			BBG0009RR484	FCF 2005-1X B
BBE	I	2012/10/29	2012/10/29	431794	358809			BBG0009YLX54	MNPT 2006-1A F
BBE	I	2012/10/29	2012/10/29	431795	358812			BBG0009YLX90	MNPT 2006-1A G
BBE	I	2012/10/25	2012/10/25	382323	358813			BBG0009RR4F6	FCF 2005-2X A2
BBE	I	2012/10/25	2012/10/25	382324	358816			BBG0009RR4H4	FCF 2005-2X A3
BBE	I	2012/10/25	2012/10/25	382325	358818			BBG0009RR4L9	FCF 2005-2X B
BBE	I	2012/10/29	2012/10/29	432937	358891			BBG000B0C3H8	NEPTN 2006-3X C
BBE	I	2012/10/29	2012/10/29	432938	358900			BBG000B0C3K4	NEPTN 2006-3X D
BBE	I	2012/10/25	2012/10/25	372635	359251			BBG0001LZ7T6	CSTRA 2004-1X B
BBE	I	2012/10/25	2012/10/25	383442	359420			BBG0009VBZS1	CLYDS 2005-1A A1
BBE	I	2012/10/25	2012/10/25	383443	359425			BBG0009VBZW6	CLYDS 2005-1A A2
BBE	I	2012/10/25	2012/10/25	383444	359430			BBG0009VBZY4	CLYDS 2005-1A A3A
BBE	I	2012/10/29	2012/10/29	432007	359581			BBG0009YXWS8	LHILL 2006-1X SUB
BBE	I	2012/10/29	2012/10/29	431991	359582			BBG0009YXSY0	LHILL 2006-1A SUB
BBE	I	2012/10/29	2012/10/29	432008	359588			BBG0009YXWW3	LHILL 2006-1X COM
BBE	I	2012/10/29	2012/10/29	431992	359593			BBG0009YXT41	LHILL 2006-1A COM
BBE	I	2012/10/25	2012/10/25	381742	359614			BBG0009Q6V70	GALXY 2005-5A Z
BBE	I	2012/10/29	2012/10/29	427627	362437			BBG0009QPJX7	MCKIN 2005-2X A1
BBE	I	2012/10/26	2012/10/26	421955	362581			BBG0008MPH52	PASC 2005-1X A
BBE	I	2012/10/26	2012/10/26	421956	362594			BBG0008MPHH9	PASC 2005-1X B
BBE	I	2012/10/26	2012/10/26	421958	362617			BBG0008MPHS7	PASC 2005-1X SUB
BBE	I	2012/10/29	2012/10/29	428481	362621			BBG0009S23X3	PASC 2005-1A SUB
BBE	I	2012/10/26	2012/10/26	415872	362627			BBG00014DV33	SATV 2005-1A A1
BBE	I	2012/10/26	2012/10/26	415873	362631			BBG00014DV60	SATV 2005-1A A2
BBE	I	2012/10/26	2012/10/26	415875	362639			BBG00014DVJ6	SATV 2005-1A B
BBE	I	2012/10/26	2012/10/26	416556	362760			BBG0001P9GT6	PIONR 2005-1A A2
BBE	I	2012/10/26	2012/10/26	416625	362763			BBG0001PYFQ3	PIONR 2005-1I A2
BBE	I	2012/10/26	2012/10/26	416557	362766			BBG0001P9GX1	PIONR 2005-1A B
BBE	I	2012/10/26	2012/10/26	416626	362769			BBG0001PYFT0	PIONR 2005-1I B
BBE	I	2012/10/26	2012/10/26	416558	362772			BBG0001P9H05	PIONR 2005-1A C
BBE	I	2012/10/26	2012/10/26	416627	362774			BBG0001PYFY4	PIONR 2005-1I C
BBE	I	2012/10/26	2012/10/26	416628	362781			BBG0001PYG63	PIONR 2005-1I D
BBE	I	2012/10/29	2012/10/29	428995	363053			BBG0009SX314	KKR 2005-2X A2
BBE	I	2012/10/29	2012/10/29	428991	363087			BBG0009SX2Q9	KKR 2005-2A E
BBE	I	2012/10/29	2012/10/29	429042	363123			BBG0009SZ1Q9	NCSLT 2005-3 A2
BBE	I	2012/10/29	2012/10/29	428130	363180			BBG0009RH7V2	MMCAP 17A C2
BBE	I	2012/10/25	2012/10/25	381936	363530			BBG0009QV8V6	ALTS 2005-1X E
BBE	I	2012/10/26	2012/10/26	418076	363555			BBG0006RTF62	NAVG 2005-1A Q1
BBE	I	2012/10/26	2012/10/26	418077	363829			BBG0006RTFD4	NAVG 2005-1A Q2
BBE	I	2012/10/25	2012/10/25	383685	364022			BBG0009VW0J5	BRCN 2005-2A A
BBE	I	2012/10/25	2012/10/25	383735	364026			BBG0009VXWG7	BRCN 2005-2X A
BBE	I	2012/10/25	2012/10/25	383686	364034			BBG0009VW0L2	BRCN 2005-2A B
BBE	I	2012/10/25	2012/10/25	383736	364038			BBG0009VXWJ4	BRCN 2005-2X B
BBE	I	2012/10/25	2012/10/25	383687	364041			BBG0009VW0P8	BRCN 2005-2A C
BBE	I	2012/10/29	2012/10/29	424698	364043			BBG0009CM2V0	LIGHT 2005-3X A1A
BBE	I	2012/10/25	2012/10/25	383737	364045			BBG0009VXWL1	BRCN 2005-2X C
BBE	I	2012/10/25	2012/10/25	383688	364049			BBG0009VW0R6	BRCN 2005-2A D
BBE	I	2012/10/25	2012/10/25	383738	364055			BBG0009VXWN9	BRCN 2005-2X D
BBE	I	2012/10/25	2012/10/25	383689	364061			BBG0009VW0T4	BRCN 2005-2A E
BBE	I	2012/10/25	2012/10/25	383739	364063			BBG0009VXWW9	BRCN 2005-2X E
BBE	I	2012/10/29	2012/10/29	424700	364074			BBG0009CM348	LIGHT 2005-3X C
BBE	I	2012/10/29	2012/10/29	424701	364079			BBG0009CM375	LIGHT 2005-3X INC
BBE	I	2012/10/29	2012/10/29	429505	364605			BBG0009TS0V1	WHINS 1A C1
BBE	I	2012/10/29	2012/10/29	428874	364628			BBG0009SV9P7	ZING 7A A2
BBE	I	2012/10/29	2012/10/29	428875	364632			BBG0009SV9R5	ZING 7A A3
BBE	I	2012/10/29	2012/10/29	428878	364639			BBG0009SVB09	ZING 7A B2A
BBE	I	2012/10/29	2012/10/29	428877	364648			BBG0009SV9Y7	ZING 7A B1B
BBE	I	2012/10/29	2012/10/29	428879	364652			BBG0009SVB27	ZING 7A B2B
BBE	I	2012/10/26	2012/10/26	411218	365477			BBG0000BJWY6	SALISB F 07/15/25 EMTn
BBE	I	2012/10/29	2012/10/29	428176	365499			BBG0009RPCS6	KHALE 2005-2A A
BBE	I	2012/10/29	2012/10/29	428177	365509			BBG0009RPCW1	KHALE 2005-2A B
BBE	I	2012/10/29	2012/10/29	428178	365514			BBG0009RPCY9	KHALE 2005-2A C
BBE	I	2012/10/29	2012/10/29	428179	365525			BBG0009RPD04	KHALE 2005-2A D
BBE	I	2012/10/29	2012/10/29	428192	365681			BBG0009RRX08	TOURM 2005-1X II
BBE	I	2012/10/29	2012/10/29	428193	365695			BBG0009RRX35	TOURM 2005-1X III
BBE	I	2012/10/29	2012/10/29	428194	365701			BBG0009RRX53	TOURM 2005-1X IV
BBE	I	2012/10/29	2012/10/29	428196	365724			BBG0009RRXB6	TOURM 2005-1X PP1
BBE	I	2012/10/29	2012/10/29	428197	365729			BBG0009RRXD4	TOURM 2005-1X PP2
BBE	I	2012/10/29	2012/10/29	428198	365741			BBG0009RRXH0	TOURM 2005-1X PP3
BBE	I	2012/10/29	2012/10/29	428199	365757			BBG0009RRXK6	TOURM 2005-1X PP4
BBE	I	2012/10/29	2012/10/29	432699	365900			BBG000B018F1	ORCHD 2006-3A A2
BBE	I	2012/10/29	2012/10/29	432700	365904			BBG000B018H9	ORCHD 2006-3A B
BBE	I	2012/10/29	2012/10/29	432701	365909			BBG000B018K5	ORCHD 2006-3A C
BBE	I	2012/10/29	2012/10/29	431344	365913			BBG0009XSPF5	NAUT 2005-2A C
BBE	I	2012/10/29	2012/10/29	432702	365914			BBG000B018Q9	ORCHD 2006-3A D
BBE	I	2012/10/25	2012/10/25	386542	366054			BBG000B1VBV1	CAVY 2006-1X A1A
BBE	I	2012/10/25	2012/10/25	386543	366061			BBG000B1VBX9	CAVY 2006-1X A1B
BBE	I	2012/10/25	2012/10/25	386544	366070			BBG000B1VC03	CAVY 2006-1X A2
BBE	I	2012/10/25	2012/10/25	386545	366077			BBG000B1VC30	CAVY 2006-1X B1
BBE	I	2012/10/25	2012/10/25	386546	366081			BBG000B1VC58	CAVY 2006-1X B2
BBE	I	2012/10/25	2012/10/25	386547	366085			BBG000B1VC85	CAVY 2006-1X C
BBE	I	2012/10/25	2012/10/25	386548	366088			BBG000B1VCC0	CAVY 2006-1X D
BBE	I	2012/10/29	2012/10/29	432725	366115			BBG000B020Y6	ORCHD 2006-3X NOTE
BBE	I	2012/10/29	2012/10/29	432704	366120			BBG000B018W2	ORCHD 2006-3A NOTE
BBE	I	2012/10/29	2012/10/29	430767	366124			BBG0009WSZG4	TABS 2005-4A SUB
BBE	I	2012/10/25	2012/10/25	386549	366329			BBG000B1VCF7	CAVY 2006-1X SUB
BBE	I	2012/10/25	2012/10/25	386550	366336			BBG000B1VCL0	CAVY 2006-1X COM1
BBE	I	2012/10/25	2012/10/25	386551	366344			BBG000B1VCN8	CAVY 2006-1X COM2
BBE	I	2012/10/29	2012/10/29	429194	366498			BBG0009T3QM1	SYMP 2005-1A SUB
BBE	I	2012/10/29	2012/10/29	430045	367900			BBG0009VPBS9	LIBR 2005-1A A1C
BBE	I	2012/10/29	2012/10/29	430046	367908			BBG0009VPBW4	LIBR 2005-1A A2
BBE	I	2012/10/29	2012/10/29	430047	367913			BBG0009VPBZ1	LIBR 2005-1A A3
BBE	I	2012/10/29	2012/10/29	430048	367917			BBG0009VPC16	LIBR 2005-1A A4
BBE	I	2012/10/29	2012/10/29	430049	367921			BBG0009VPC34	LIBR 2005-1A B
BBE	I	2012/10/29	2012/10/29	432776	371986			BBG000B04VK1	CBRE 2006-1A G
BBE	I	2012/10/29	2012/10/29	432777	371989			BBG000B04VN8	CBRE 2006-1A H
BBE	I	2012/10/25	2012/10/25	386297	376511			BBG000B16KJ3	GLCR 2006-4A A2
BBE	I	2012/10/25	2012/10/25	386299	376527			BBG000B16KN8	GLCR 2006-4A C
BBE	I	2012/10/25	2012/10/25	386302	376547			BBG000B16KX7	GLCR 2006-4A SN
BBE	I	2012/10/29	2012/10/29	433352	376748			BBG000B182V7	VERT 2006-1A A1
BBE	I	2012/10/29	2012/10/29	433356	376792			BBG000B183G2	VERT 2006-1A COM1
BBE	I	2012/10/29	2012/10/29	433357	376801			BBG000B183K7	VERT 2006-1A COM2
BBE	I	2012/10/29	2012/10/29	433131	377999			BBG000B0VLR6	PERMA 9A 2C
BBE	I	2012/10/29	2012/10/29	433593	380087			BBG000B1X383	TIAF 2006-1X A1
BBE	I	2012/10/29	2012/10/29	433594	380094			BBG000B1X3B9	TIAF 2006-1X A2
BBE	I	2012/10/29	2012/10/29	433595	380102			BBG000B1X3H3	TIAF 2006-1X A3A
BBE	I	2012/10/29	2012/10/29	433596	380114			BBG000B1X3L8	TIAF 2006-1X A3B
BBE	I	2012/10/29	2012/10/29	433597	380125			BBG000B1X3P4	TIAF 2006-1X B1A
BBE	I	2012/10/29	2012/10/29	433598	380140			BBG000B1X3S1	TIAF 2006-1X B1B
BBE	I	2012/10/29	2012/10/29	433897	381388			BBG000B2G9M1	KENT 2006-2X A1A
BBE	I	2012/10/29	2012/10/29	433898	381665			BBG000B2G9P8	KENT 2006-2X A2
BBE	I	2012/10/29	2012/10/29	433900	381678			BBG000B2G9Y8	KENT 2006-2X C
BBE	I	2012/10/29	2012/10/29	433901	381701			BBG000B2GB00	KENT 2006-2X D
BBE	I	2012/10/29	2012/10/29	433902	381710			BBG000B2GB28	KENT 2006-2X E
BBE	I	2012/10/29	2012/10/29	434076	381921			BBG000B2W5P8	GSC 2006-7A PNN
BBE	I	2012/10/29	2012/10/29	435071	386358			BBG000B4NB99	GSCSF 2006-2A A1A
BBE	I	2012/10/29	2012/10/29	435072	386365			BBG000B4NBC5	GSCSF 2006-2A A1B
BBE	I	2012/10/29	2012/10/29	435073	386372			BBG000B4NBH0	GSCSF 2006-2A A2
BBE	I	2012/10/29	2012/10/29	435074	386379			BBG000B4NBM4	GSCSF 2006-2A B
BBE	I	2012/10/29	2012/10/29	435075	386383			BBG000B4NBR9	GSCSF 2006-2A C
BBE	I	2012/10/29	2012/10/29	435076	386397			BBG000B4NBT7	GSCSF 2006-2A D
BBE	I	2012/10/29	2012/10/29	435078	387431			BBG000B4NBZ0	GSCSF 2006-2A F
BBE	I	2012/10/29	2012/10/29	435079	387468			BBG000B4NC24	GSCSF 2006-2A G
BBE	I	2012/10/25	2012/10/25	386586	392158			BBG000B1WW62	H1776 2006-1X A1
BBE	I	2012/10/25	2012/10/25	388168	392364			BBG000B4VKY2	ABURY 1A A2
BBE	I	2012/10/29	2012/10/29	435230	393707			BBG000B522N3	HARP 2006-1X A1
BBE	I	2012/10/29	2012/10/29	435232	393710			BBG000B522V4	HARP 2006-1X B
BBE	I	2012/10/29	2012/10/29	435233	393712			BBG000B52324	HARP 2006-1X C
BBE	I	2012/10/29	2012/10/29	435234	393715			BBG000B52342	HARP 2006-1X D
BBE	I	2012/10/25	2012/10/25	388169	393906			BBG000B4VL07	ABURY 1A B
BBE	I	2012/10/25	2012/10/25	388170	393908			BBG000B4VL34	ABURY 1A C
BBE	I	2012/10/25	2012/10/25	388171	393911			BBG000B4VL70	ABURY 1A D
BBE	I	2012/10/25	2012/10/25	388172	393913			BBG000B4VLD3	ABURY 1A E
BBE	I	2012/10/29	2012/10/29	433538	393926			BBG000B1SRB2	TORO 2006-2A A1
BBE	I	2012/10/29	2012/10/29	433539	393934			BBG000B1SRF8	TORO 2006-2A A2
BBE	I	2012/10/29	2012/10/29	433541	393938			BBG000B1SRX8	TORO 2006-2A C
BBE	I	2012/10/29	2012/10/29	433542	393940			BBG000B1SRZ6	TORO 2006-2A D
BBE	I	2012/10/29	2012/10/29	433543	393943			BBG000B1SS11	TORO 2006-2A E
BBE	I	2012/10/29	2012/10/29	433544	393947			BBG000B1SS39	TORO 2006-2A F
BBE	I	2012/10/29	2012/10/29	434290	393981			BBG000B3CDK6	MDKT 2006-1X A1M
BBE	I	2012/10/29	2012/10/29	434291	393986			BBG000B3CDM4	MDKT 2006-1X A1Q
BBE	I	2012/10/29	2012/10/29	434292	393990			BBG000B3CDQ0	MDKT 2006-1X A2
BBE	I	2012/10/29	2012/10/29	434293	393995			BBG000B3CDS8	MDKT 2006-1X A3
BBE	I	2012/10/29	2012/10/29	434294	394000			BBG000B3CDX2	MDKT 2006-1X A4
BBE	I	2012/10/29	2012/10/29	434295	394005			BBG000B3CF03	MDKT 2006-1X B
BBE	I	2012/10/29	2012/10/29	434296	394010			BBG000B3CF30	MDKT 2006-1X C
BBE	I	2012/10/29	2012/10/29	434297	394014			BBG000B3CF67	MDKT 2006-1X D
BBE	I	2012/10/29	2012/10/29	434298	394051			BBG000B3CF94	MDKT 2006-1X NOTE
BBE	I	2012/10/29	2012/10/29	430531	400085			BBG0009WL746	MAPS 2005-1X A2
BBE	I	2012/10/25	2012/10/25	388142	400606			BBG000B4PVP5	BRDG 2006-1A A1
BBE	I	2012/10/25	2012/10/25	388143	400632			BBG000B4PVS2	BRDG 2006-1A A2
BBE	I	2012/10/25	2012/10/25	388144	400638			BBG000B4PVW7	BRDG 2006-1A B
BBE	I	2012/10/25	2012/10/25	388145	400643			BBG000B4PVZ4	BRDG 2006-1A C
BBE	I	2012/10/25	2012/10/25	388146	400648			BBG000B4PW28	BRDG 2006-1A D
BBE	I	2012/10/29	2012/10/29	435225	400824			BBG000B51QX0	HARP 2006-1A A1
BBE	I	2012/10/29	2012/10/29	435226	400832			BBG000B51R04	HARP 2006-1A A2
BBE	I	2012/10/29	2012/10/29	435227	400954			BBG000B51R31	HARP 2006-1A B
BBE	I	2012/10/29	2012/10/29	435228	400961			BBG000B51R59	HARP 2006-1A C
BBE	I	2012/10/29	2012/10/29	435229	400966			BBG000B51R86	HARP 2006-1A D
BBE	I	2012/10/29	2012/10/29	432344	401328			BBG0009ZH1Y4	ZING 8X C
BBE	I	2012/10/29	2012/10/29	432346	401366			BBG0009ZH236	ZING 8X SUB
BBE	I	2012/10/25	2012/10/25	385937	401571			BBG000B0F465	STANZ 2006-1X A1LV
BBE	I	2012/10/25	2012/10/25	381573	402788			BBG0009PTXV6	ALESC 11X A1BF
BBE	I	2012/10/25	2012/10/25	381563	402790			BBG0009PTMR5	ALESC 11A A1BF
BBE	I	2012/10/25	2012/10/25	381574	402794			BBG0009PTY53	ALESC 11X A1BU
BBE	I	2012/10/25	2012/10/25	381564	402796			BBG0009PTMX8	ALESC 11A A1BU
BBE	I	2012/10/29	2012/10/29	434529	404163			BBG000B3T5L4	SLSPK 2006-1X A
BBE	I	2012/10/25	2012/10/25	385377	404173			BBG0009Z5F67	BFCGE 2006-1X A2L
BBE	I	2012/10/25	2012/10/25	385378	404176			BBG0009Z5F85	BFCGE 2006-1X A3L
BBE	I	2012/10/25	2012/10/25	385379	404179			BBG0009Z5FB1	BFCGE 2006-1X B1L
BBE	I	2012/10/25	2012/10/25	385375	404184			BBG0009Z5F03	BFCGE 2006-1X A1LA
BBE	I	2012/10/25	2012/10/25	385376	404188			BBG0009Z5F30	BFCGE 2006-1X A1LB
BBE	I	2012/10/29	2012/10/29	433949	404401			BBG000B2M668	TRIC 2006-5A D
BBE	I	2012/10/25	2012/10/25	381219	404705			BBG0009NDD79	ARTHG 2006-1X A1J
BBE	I	2012/10/25	2012/10/25	381218	404712			BBG0009NDD42	ARTHG 2006-1X A1S
BBE	I	2012/10/25	2012/10/25	381220	404715			BBG0009NDD97	ARTHG 2006-1X A2
BBE	I	2012/10/25	2012/10/25	381221	404719			BBG0009NDDG9	ARTHG 2006-1X A3
BBE	I	2012/10/25	2012/10/25	381222	404722			BBG0009NDDK4	ARTHG 2006-1X B
BBE	I	2012/10/25	2012/10/25	381223	404726			BBG0009NDDN1	ARTHG 2006-1X C
BBE	I	2012/10/25	2012/10/25	387550	404759			BBG000B3XVY8	DIHAR 2006-1X C
BBE	I	2012/10/25	2012/10/25	387083	404875			BBG000B2PXZ4	EV7 1-A F2
BBE	I	2012/10/25	2012/10/25	382016	404925			BBG0009R1PH5	CLSVF 2006-2A A1
BBE	I	2012/10/25	2012/10/25	361088	404927			BBG0009RQ902	CLSVF 2006-2X A1
BBE	I	2012/10/29	2012/10/29	435353	405148			BBG000B5FFK3	PKRGE 2006-1X B
BBE	I	2012/10/29	2012/10/29	435352	405168			BBG000B5FFG8	PKRGE 2006-1X A2
BBE	I	2012/10/25	2012/10/25	361089	405177			BBG0009RQ939	CLSVF 2006-2X A2A
BBE	I	2012/10/25	2012/10/25	361090	405181			BBG0009RQ957	CLSVF 2006-2X A2B
BBE	I	2012/10/25	2012/10/25	382315	405184			BBG0009RQ984	CLSVF 2006-2X B
BBE	I	2012/10/25	2012/10/25	382316	405187			BBG0009RQ9F6	CLSVF 2006-2X C
BBE	I	2012/10/25	2012/10/25	382317	405191			BBG0009RQ9J2	CLSVF 2006-2X D
BBE	I	2012/10/25	2012/10/25	386436	405297			BBG000B1KMX7	FCI 2006-2X A1
BBE	I	2012/10/25	2012/10/25	386438	405310			BBG000B1KN29	FCI 2006-2X A2
BBE	I	2012/10/25	2012/10/25	386439	405317			BBG000B1KN47	FCI 2006-2X B
BBE	I	2012/10/25	2012/10/25	386428	405364			BBG000B1K902	FCI 2006-1X A1
BBE	I	2012/10/25	2012/10/25	386430	405384			BBG000B1K993	FCI 2006-1X A2
BBE	I	2012/10/25	2012/10/25	386431	405391			BBG000B1K9F6	FCI 2006-1X B
BBE	I	2012/10/29	2012/10/29	434027	405653			BBG000B2RHN0	MCG 2006-1X A3
BBE	I	2012/10/29	2012/10/29	435281	406773			BBG000B59KJ1	TRAP 2006-10A A1
BBE	I	2012/10/29	2012/10/29	430739	406824			BBG0009WSHB9	MANAS 2005-1X A1LA
BBE	I	2012/10/29	2012/10/29	430733	406826			BBG0009WSCW7	MANAS 2005-1A A1LA
BBE	I	2012/10/29	2012/10/29	430740	406830			BBG0009WSHF5	MANAS 2005-1X A1LB
BBE	I	2012/10/29	2012/10/29	430741	406833			BBG0009WSHJ1	MANAS 2005-1X A2L
BBE	I	2012/10/29	2012/10/29	430742	406837			BBG0009WSHM7	MANAS 2005-1X A3L
BBE	I	2012/10/29	2012/10/29	430743	406839			BBG0009WSHR2	MANAS 2005-1X B1L
BBE	I	2012/10/29	2012/10/29	430744	406841			BBG0009WSHV7	MANAS 2005-1X B2L
BBE	I	2012/10/29	2012/10/29	433689	407007			BBG000B241K3	WTRAD 2006-1X A2
BBE	I	2012/10/29	2012/10/29	433690	407054			BBG000B241M1	WTRAD 2006-1X B
BBE	I	2012/10/29	2012/10/29	434486	407088			BBG000B3NXM8	MTWIL 2006-1A A
BBE	I	2012/10/29	2012/10/29	434490	407115			BBG000B3NY64	MTWIL 2006-1A E
BBE	I	2012/10/29	2012/10/29	433691	407196			BBG000B241Q7	WTRAD 2006-1X C
BBE	I	2012/10/29	2012/10/29	433692	407224			BBG000B241T4	WTRAD 2006-1X D
BBE	I	2012/10/29	2012/10/29	433693	407243			BBG000B241X9	WTRAD 2006-1X E
BBE	I	2012/10/29	2012/10/29	431007	408696			BBG0009X7QP5	MSTN 2006-2X A1M
BBE	I	2012/10/29	2012/10/29	431008	408699			BBG0009X7QS2	MSTN 2006-2X A1Q
BBE	I	2012/10/29	2012/10/29	431009	408702			BBG0009X7QW7	MSTN 2006-2X A2
BBE	I	2012/10/29	2012/10/29	431006	408708			BBG0009X7QM8	MSTN 2006-2X X
BBE	I	2012/10/29	2012/10/29	431011	409883			BBG0009X7R19	MSTN 2006-2X C
BBE	I	2012/10/29	2012/10/29	431012	409884			BBG0009X7R46	MSTN 2006-2X D
BBE	I	2012/10/29	2012/10/29	435027	417262			BBG000B4HRC7	IPSW 2006-1A A1
BBE	I	2012/10/25	2012/10/25	375471	418057			BBG0007T2HJ8	GEMST 2006-6X A1
BBE	I	2012/10/25	2012/10/25	375472	418067			BBG0007T2HL5	GEMST 2006-6X A2
BBE	I	2012/10/25	2012/10/25	375473	418075			BBG0007T2HP1	GEMST 2006-6X B
BBE	I	2012/10/25	2012/10/25	375474	418084			BBG0007T2HX2	GEMST 2006-6X C
BBE	I	2012/10/25	2012/10/25	375475	418090			BBG0007T2J31	GEMST 2006-6X D
BBE	I	2012/10/25	2012/10/25	375476	418094			BBG0007T2J86	GEMST 2006-6X E
BBE	I	2012/10/29	2012/10/29	435041	418378			BBG000B4KQL5	IPSW 2006-1X E
BBE	I	2012/10/29	2012/10/29	435038	418402			BBG000B4KQC5	IPSW 2006-1X B
BBE	I	2012/10/29	2012/10/29	435037	418422			BBG000B4KQ80	IPSW 2006-1X A2
BBE	I	2012/10/29	2012/10/29	435039	418428			BBG000B4KQF2	IPSW 2006-1X C
BBE	I	2012/10/29	2012/10/29	435040	418432			BBG000B4KQH0	IPSW 2006-1X D
BBE	I	2012/10/25	2012/10/25	383199	418749			BBG0009TFKM1	CETUS 2006-1A A1
BBE	I	2012/10/25	2012/10/25	383202	418752			BBG0009TFKX9	CETUS 2006-1A C
BBE	I	2012/10/25	2012/10/25	383203	418759			BBG0009TFL03	CETUS 2006-1A D
BBE	I	2012/10/25	2012/10/25	383200	418763			BBG0009TFKP8	CETUS 2006-1A A2
BBE	I	2012/10/25	2012/10/25	383204	418764			BBG0009TFL30	CETUS 2006-1A SUB
BBE	I	2012/10/25	2012/10/25	378146	418768			BBG0008VQGF2	CETUS 2006-1X SUB
BBE	I	2012/10/25	2012/10/25	383201	418769			BBG0009TFKS5	CETUS 2006-1A B
BBE	I	2012/10/25	2012/10/25	378145	418806			BBG0008VQG71	CETUS 2006-1X D
BBE	I	2012/10/29	2012/10/29	431846	418990			BBG0009YP908	KLRRE 2006-1X B
BBE	I	2012/10/25	2012/10/25	384305	419934			BBG0009WSDZ2	ACABS 2006-AQX A1J
BBE	I	2012/10/25	2012/10/25	384306	419936			BBG0009WSF23	ACABS 2006-AQX A2
BBE	I	2012/10/25	2012/10/25	384307	419938			BBG0009WSF50	ACABS 2006-AQX A3
BBE	I	2012/10/29	2012/10/29	428903	424254			BBG0009SVLJ7	PS 3X SUB
BBE	I	2012/10/29	2012/10/29	430644	425229			BBG0009WQN73	MSTN 2006-2A C
BBE	I	2012/10/29	2012/10/29	430642	425236			BBG0009WQN19	MSTN 2006-2A A2
BBE	I	2012/10/29	2012/10/29	430641	425241			BBG0009WQMX6	MSTN 2006-2A A1Q
BBE	I	2012/10/29	2012/10/29	430645	425245			BBG0009WQNH2	MSTN 2006-2A D
BBE	I	2012/10/29	2012/10/29	430643	425254			BBG0009WQN46	MSTN 2006-2A B
BBE	I	2012/10/29	2012/10/29	430640	425257			BBG0009WQMT1	MSTN 2006-2A A1M
BBE	I	2012/10/29	2012/10/29	428062	426028			BBG0009RB775	STCLO 2006-5A D
BBE	I	2012/10/29	2012/10/29	428020	428216			BBG0009R8ZB2	MNTRS 2006-1X A2
BBE	I	2012/10/29	2012/10/29	428021	428218			BBG0009R8ZF8	MNTRS 2006-1X B1
BBE	I	2012/10/29	2012/10/29	428022	428220			BBG0009R8ZH6	MNTRS 2006-1X B2
BBE	I	2012/10/29	2012/10/29	428023	428222			BBG0009R8ZK2	MNTRS 2006-1X C
BBE	I	2012/10/29	2012/10/29	428024	428236			BBG0009R8ZM0	MNTRS 2006-1X D
BBE	I	2012/10/25	2012/10/25	384309	428901			BBG0009WSFD1	ACABS 2006-AQX B2
BBE	I	2012/10/25	2012/10/25	384310	428905			BBG0009WSFG8	ACABS 2006-AQX B3
BBE	I	2012/10/25	2012/10/25	384308	428906			BBG0009WSF87	ACABS 2006-AQX B1
BBE	I	2012/10/25	2012/10/25	387027	431319			BBG000B2MJ15	BRHEA 2006-1 A1
BBE	I	2012/10/25	2012/10/25	387028	431321			BBG000B2MJ42	BRHEA 2006-1 A2
BBE	I	2012/10/25	2012/10/25	387029	431325			BBG000B2MJ60	BRHEA 2006-1 A3
BBE	I	2012/10/29	2012/10/29	435066	433830			BBG000B4N2K6	GRANV 2006-3X A2
BBE	I	2012/10/29	2012/10/29	435067	433832			BBG000B4N2N3	GRANV 2006-3X B
BBE	I	2012/10/29	2012/10/29	435065	433838			BBG000B4N2H0	GRANV 2006-3X A1
BBE	I	2012/10/29	2012/10/29	435068	433849			BBG000B4N2S8	GRANV 2006-3X C
BBE	I	2012/10/29	2012/10/29	435069	433989			BBG000B4N2W3	GRANV 2006-3X D
BBE	I	2012/10/29	2012/10/29	427693	434018			BBG0009QSX54	LSTRT 2006-1A P
BBE	I	2012/10/29	2012/10/29	431845	434749			BBG0009YP8X4	KLRRE 2006-1X A2
BBE	I	2012/10/29	2012/10/29	431844	434752			BBG0009YP8S0	KLRRE 2006-1X A1A
BBE	I	2012/10/29	2012/10/29	430580	436154			BBG0009WMSD9	RMACS 2006-NS3A A1B
BBE	I	2012/10/25	2012/10/25	386256	437085			BBG000B14ZD8	CAIRH 2006-2X SUB
BBE	I	2012/10/25	2012/10/25	386252	437086			BBG000B14Z39	CAIRH 2006-2X AJ
BBE	I	2012/10/25	2012/10/25	386255	437089			BBG000B14ZB0	CAIRH 2006-2X D
BBE	I	2012/10/25	2012/10/25	386251	437090			BBG000B14Z02	CAIRH 2006-2X AS
BBE	I	2012/10/25	2012/10/25	386253	437091			BBG000B14Z66	CAIRH 2006-2X B
BBE	I	2012/10/25	2012/10/25	386254	437096			BBG000B14Z84	CAIRH 2006-2X C
BBE	I	2012/10/25	2012/10/25	384313	437842			BBG0009WSFR6	ACABS 2006-AQX A1S
BBE	I	2012/10/25	2012/10/25	384311	437888			BBG0009WSFJ5	ACABS 2006-AQX SUB1
BBE	I	2012/10/25	2012/10/25	384312	437906			BBG0009WSFL2	ACABS 2006-AQX SUB2
BBE	I	2012/10/29	2012/10/29	431612	437945			BBG0009Y7KM9	KLRRE 2006-1A A1A
BBE	I	2012/10/29	2012/10/29	428082	437946			BBG0009RD7W5	SORIN 2006-4A A1
BBE	I	2012/10/29	2012/10/29	428083	437949			BBG0009RD7Z2	SORIN 2006-4A A2
BBE	I	2012/10/29	2012/10/29	431613	437951			BBG0009Y7KQ5	KLRRE 2006-1A A2
BBE	I	2012/10/29	2012/10/29	428084	437953			BBG0009RD826	SORIN 2006-4A A3
BBE	I	2012/10/29	2012/10/29	428085	437957			BBG0009RD844	SORIN 2006-4A B
BBE	I	2012/10/29	2012/10/29	431614	437958			BBG0009Y7KT2	KLRRE 2006-1A B
BBE	I	2012/10/29	2012/10/29	428086	437961			BBG0009RD871	SORIN 2006-4A C
BBE	I	2012/10/29	2012/10/29	428088	437962			BBG0009RD8C5	SORIN 2006-4A E
BBE	I	2012/10/29	2012/10/29	431615	437966			BBG0009Y7KW8	KLRRE 2006-1A C
BBE	I	2012/10/29	2012/10/29	428676	438142			BBG0009S91B4	WESTC 2006-1A COM
BBE	I	2012/10/29	2012/10/29	428089	438362			BBG0009RD8F2	SORIN 2006-4A F
BBE	I	2012/10/29	2012/10/29	429001	438365			BBG0009SXHL1	SORIN 2006-4I A1
BBE	I	2012/10/29	2012/10/29	429002	438368			BBG0009SXHP7	SORIN 2006-4I A2
BBE	I	2012/10/29	2012/10/29	429003	438375			BBG0009SXHS4	SORIN 2006-4I A3
BBE	I	2012/10/29	2012/10/29	429004	438381			BBG0009SXHV0	SORIN 2006-4I B
BBE	I	2012/10/29	2012/10/29	429005	438392			BBG0009SXHY7	SORIN 2006-4I C
BBE	I	2012/10/29	2012/10/29	429006	438402			BBG0009SXJ46	SORIN 2006-4I D
BBE	I	2012/10/29	2012/10/29	429007	438419			BBG0009SXJ73	SORIN 2006-4I E
BBE	I	2012/10/29	2012/10/29	429008	438424			BBG0009SXJ91	SORIN 2006-4I F
BBE	I	2012/10/25	2012/10/25	388759	438608			BBG000B603G9	DUKEF 2006-12X B2
EDI_ENDOFFILE
