EDI_SCEXH_20161007
TableName	Actflag	Created	Changed	ScExhID	SecID	ISIN	ExchgCD	ListStatus	Lot	MinTrdgQty	ListDate	DelistDate	LocalCode	JunkLocalcode	PriceTick	TickSize	ListCategory	Notes
SCEXH	I	2013/06/25	2013/06/25	5817840	532556	US40411EAB48	USAMEX	N	100									
SCEXH	I	2008/05/16	2008/05/16	923257	843807	US00922KAA88	USAMEX	N	100									
SCEXH	I	2015/05/21	2015/05/21	6384926	639134	USG60276AD73	USAMEX	N										
SCEXH	U	2005/01/17	2014/10/20	310907	106714	US0138172004	USAMEX		100	100			AAPR					
SCEXH	U	2012/11/14	2014/10/20	5647569	3932134	US00650W4096	USAMEX		100	100	2012/11/15		ADKPRA					
SCEXH	U	2016/08/06	2016/08/11	6819943	4856347	US0597022096	USAMEX		100	100	2016/08/11		BCVPRA				L	
SCEXH	U	2015/10/17	2015/10/27	6547320	4627483	US09627J5083	USAMEX		100	100	2015/10/26		BRGPRA				L	
SCEXH	I	2016/07/21	2016/07/21	6800719	4831133	US09627J7485	USAMEX	N	100	100	2016/07/21		BRGPRC				L	
SCEXH	I	2016/10/06	2016/10/06	6895657	4927014	US09627J6560	USAMEX	N	100	100			BRGPRD				L	
SCEXH	U	2005/08/26	2010/08/20	392757	277058	US111022AA72	USAMEX		100				BRI18					
SCEXH	U	2014/06/14	2014/10/13	6089657	4288375	US2927583078	USAMEX		100	100	2014/06/17		ENRJPR					
SCEXH	U	2011/07/02	2016/10/06	4013134	2814682	US30049A2069	USAMEX		100	100	2011/07/05		EPMPRACL					
SCEXH	U	2013/05/10	2014/10/20	5772605	4034391	US36465A3077	USAMEX		100	100	2013/05/13		GGNPRB					
SCEXH	U	2013/06/25	2014/10/20	5818064	4063354	US36242L2043	USAMEX		100	100	2013/06/24		GLUPRA					
SCEXH	U	2011/06/22	2014/10/13	3966577	2784852	US36729P2074	USAMEX		100	100	2011/06/23		GSTPRA					
SCEXH	U	2013/11/04	2014/10/13	5906639	4134330	US36729P3064	USAMEX		100	100	2013/11/08		GSTPRB					
SCEXH	U	2008/12/11	2014/10/20	1652399	1265252	US43162L2060	USAMEX		100	100			HLMPR					
SCEXH	U	2014/05/22	2015/06/29	6070766	4269194	US90131G2066	USAMEX		100	100			ICCPR					
SCEXH	U	2008/11/18	2014/10/20	1613462	1238899	US45408V2034	USAMEX		100	100	2004/01/16		IPB					
SCEXH	U	2008/08/26	2015/04/08	1409154	956413	US524908FJ48	USAMEX	R	100				LEHM.QN					
SCEXH	I	2016/04/20	2016/04/20	6705773	4755556	US55280YAA82	USAMEX	N			2016/04/26		LOAN/26					
SCEXH	U	2013/05/29	2014/10/13	5788997	4047326	US50575Q2012	USAMEX		100	100	2013/05/29		LTSPRA					
SCEXH	U	2003/08/12	2016/03/15	143534	107296	US6943082064	USAMEX		100	100	1998/07/27		PCGPRA				L	
SCEXH	U	2002/12/12	2016/03/21	119267	87425	US6943083054	USAMEX		100	100	1999/02/04		PCGPRB				L	
SCEXH	U	2003/08/12	2016/03/16	143527	107287	US6943084045	USAMEX		100	100	1999/02/10		PCGPRC				L	
SCEXH	U	2003/08/12	2016/03/15	143533	107295	US6943085034	USAMEX		100	100	1999/02/03		PCGPRD				L	
SCEXH	U	2003/08/12	2016/03/21	143530	107291	US6943086024	USAMEX		100	100	1999/02/03		PCGPRE				L	
SCEXH	U	2003/08/12	2016/03/21	143525	107285	US6943087014	USAMEX		100	100	1999/02/03		PCGPRG				L	
SCEXH	U	2003/08/12	2016/03/15	143523	107282	US6943088004	USAMEX		100	100	1999/02/03		PCGPRH				L	
SCEXH	U	2003/08/12	2016/03/15	143520	107280	US6943088830	USAMEX		100	100	1999/02/17		PCGPRI				L	
SCEXH	U	2014/03/18	2014/10/20	6014532	4223073	US73933H2004	USAMEX		100	100	2014/03/18		PWPRA					
SCEXH	U	2013/12/18	2014/10/20	5938521	4161866	US75025X2099	USAMEX		100	100	2013/12/23		RLGTPRA					
SCEXH	U	2002/12/31	2016/03/21	120351	88327	US8424002025	USAMEX		100	100	1999/02/03		SCEPRB				L	
SCEXH	U	2002/12/31	2016/03/21	120353	88329	US8424003015	USAMEX		100	100	1999/02/04		SCEPRC				L	
SCEXH	U	2002/12/31	2016/03/15	120354	88330	US8424004005	USAMEX		100	100	1999/02/03		SCEPRD				L	
SCEXH	U	2002/12/31	2016/03/15	120355	88331	US8424005093	USAMEX		100	100	1999/02/05		SCEPRE				L	
SCEXH	U	2014/10/24	2014/10/30	6194531	4371260	US98872E2072	USAMEX	N	100	100	2014/10/27		YUMAPRA					
SCEXH	I	2015/11/20	2015/11/20	6574277	4649033		USBND	N										
SCEXH	I	2016/06/27	2016/06/27	6773244	4815182	USG5725XAQ63	USBND											
SCEXH	I	2010/08/25	2010/08/25	2870749	138242	US117765AA54	USBND	N										
SCEXH	I	2012/08/17	2012/08/17	5556426	139420	US38741TAC45	USBND	N										
SCEXH	I	2012/08/17	2012/08/17	5556423	139427	US38741TAD28	USBND	N										
SCEXH	I	2012/08/17	2012/08/17	5556420	140995	US38741TAE01	USBND	N										
SCEXH	I	2013/04/19	2013/04/19	5757282	154062	US71419QAH11	USBND	N										
SCEXH	I	2013/04/19	2013/04/19	5757252	154065	US71419QAJ76	USBND	N										
SCEXH	I	2013/04/19	2013/04/19	5757203	154067	US71419QAL23	USBND	N										
SCEXH	I	2013/04/19	2013/04/19	5757280	154069	US71419QAK40	USBND	N										
SCEXH	I	2013/10/26	2013/10/26	5903273	165024	US71419NAJ46	USBND	N										
SCEXH	I	2013/10/26	2013/10/26	5903293	165034	US71419NAF24	USBND	N										
SCEXH	I	2013/07/13	2013/07/13	5831458	182803	USG3616EAA04	USBND	N										
SCEXH	I	2012/01/04	2012/01/04	4848202	235753	US71419VAB36	USBND	N										
SCEXH	I	2012/01/04	2012/01/04	4848218	235802	US71419VAF40	USBND	N										
SCEXH	I	2012/01/04	2012/01/04	4848216	235808	US71419VAE74	USBND	N										
SCEXH	I	2012/01/04	2012/01/04	4848204	235810	US71419VAC19	USBND	N										
SCEXH	I	2012/01/04	2012/01/04	4848241	255625	US71419WAE57	USBND	N										
SCEXH	I	2012/01/04	2012/01/04	4848242	255636	US71419WAF23	USBND	N										
SCEXH	I	2012/01/04	2012/01/04	4848245	255644	US71419WAG06	USBND	N										
SCEXH	I	2010/08/26	2010/08/26	2871681	258357		USBND	N										
SCEXH	I	2012/08/16	2012/08/16	5555460	265300	USG6843PAA33	USBND	N										
SCEXH	I	2012/08/16	2012/08/16	5555461	265303	USG6843PAB16	USBND	N										
SCEXH	I	2012/08/16	2012/08/16	5555462	265305	USG6843PAC98	USBND	N										
SCEXH	I	2012/08/16	2012/08/16	5555463	265307	USG6843PAD71	USBND	N										
SCEXH	I	2012/08/16	2012/08/16	5555477	265336	USG6792JAA81	USBND	N										
SCEXH	I	2012/08/16	2012/08/16	5555478	265337	USG6792JAB64	USBND	N										
SCEXH	I	2012/08/16	2012/08/16	5555479	265339	USG6792JAC48	USBND	N										
SCEXH	I	2012/08/16	2012/08/16	5555481	265341	USG6792JAD21	USBND	N										
SCEXH	I	2012/04/16	2012/04/16	5351587	266666	USG2233HAA89	USBND	N										
SCEXH	I	2012/04/16	2012/04/16	5351591	266667	USG2233HAB62	USBND	N										
SCEXH	I	2012/04/16	2012/04/16	5351592	266669	USG2233HAC46	USBND	N										
SCEXH	I	2012/01/04	2012/01/04	4848246	269696	US71419WAH88	USBND	N										
SCEXH	I	2012/01/04	2012/01/04	4848248	269697	US71419WAJ45	USBND	N										
SCEXH	I	2013/12/20	2013/12/20	5940767	272924	US90261XAR35	USBND	N										
SCEXH	I	2010/01/28	2010/01/28	2375624	273401	XS0212763329	USBND	N										
SCEXH	I	2010/08/07	2010/08/07	2811366	277035	USG5805XAD87	USBND	N										
SCEXH	I	2010/10/04	2010/10/04	2954599	299540	US52668VAA35	USBND	N										
SCEXH	I	2010/10/04	2010/10/04	2954638	299545	US52668VAK17	USBND	N										
SCEXH	I	2010/10/04	2010/10/04	2954649	299547	US52668VAB18	USBND	N										
SCEXH	I	2010/10/04	2010/10/04	2954665	299548	US52668VAC90	USBND	N										
SCEXH	I	2011/11/16	2011/11/16	4674647	300768	USG30405AA57	USBND	N										
SCEXH	I	2011/11/16	2011/11/16	4674646	300776	USG30405AB31	USBND	N										
SCEXH	I	2011/11/16	2011/11/16	4674650	300785	USG30405AC14	USBND	N										
SCEXH	I	2011/11/16	2011/11/16	4674652	300790	USG30405AD96	USBND	N										
SCEXH	I	2014/03/03	2014/03/03	6001789	301698	USG5606WAA74	USBND	N										
SCEXH	I	2012/04/28	2012/04/28	5386734	301745	USG8655GAC27	USBND	N										
SCEXH	I	2012/09/19	2012/09/19	5579283	320054	USG7353WAA83	USBND	N										
SCEXH	I	2012/05/31	2012/05/31	5499533	320060	USG7353WAB66	USBND	N										
SCEXH	I	2012/05/31	2012/05/31	5499306	320064	USG7353WAC40	USBND	N										
SCEXH	I	2012/05/31	2012/05/31	5499520	320066	USG7353WAD23	USBND	N										
SCEXH	I	2012/05/31	2012/05/31	5499521	320069	USG7353WAE06	USBND	N										
SCEXH	I	2014/01/04	2014/01/04	5948956	326317	USG02490AA11	USBND	N										
SCEXH	I	2014/01/04	2014/01/04	5948959	326320	USG02490AB93	USBND	N										
SCEXH	I	2014/01/04	2014/01/04	5948961	326322	USG02490AC76	USBND	N										
SCEXH	I	2014/01/04	2014/01/04	5948962	326328	USG02490AD59	USBND	N										
SCEXH	I	2014/01/04	2014/01/04	5948957	326333	USG02490AE33	USBND	N										
SCEXH	I	2013/08/28	2013/08/28	5863058	328137	USG0060AAA54	USBND	N										
SCEXH	I	2013/08/28	2013/08/28	5863062	328143	USG0060AAC11	USBND	N										
SCEXH	I	2013/08/28	2013/08/28	5863064	328148	USG0060AAD93	USBND	N										
SCEXH	I	2013/08/28	2013/08/28	5863066	328152	USG0060AAB38	USBND	N										
SCEXH	I	2013/08/28	2013/08/28	5863068	328156	USG00605AA66	USBND	N										
SCEXH	I	2013/08/28	2013/08/28	5863072	328161	USG00605AD06	USBND	N										
SCEXH	I	2013/08/28	2013/08/28	5863075	328165	USG00605AB40	USBND	N										
SCEXH	I	2013/08/28	2013/08/28	5863077	328167	USG00605AC23	USBND	N										
SCEXH	I	2014/03/03	2014/03/03	6001944	329659	USG00929AB80	USBND	N										
SCEXH	I	2014/03/03	2014/03/03	6001946	329660	USG00929AC63	USBND	N										
SCEXH	I	2014/03/03	2014/03/03	6001950	329661	USG00929AD47	USBND	N										
SCEXH	I	2014/03/03	2014/03/03	6002028	329662	USG00929AE20	USBND	N										
SCEXH	I	2013/10/19	2013/10/19	5898219	333750	US84129VAA98	USBND	N										
SCEXH	I	2013/01/23	2013/01/23	5694070	338045	USG4160EAA85	USBND	N										
SCEXH	I	2013/01/23	2013/01/23	5694073	338048	USG4160EAB68	USBND	N										
SCEXH	I	2013/01/23	2013/01/23	5694077	338049	USG4160EAC42	USBND	N										
SCEXH	I	2013/01/23	2013/01/23	5694092	338946	USG41601AA64	USBND	N										
SCEXH	I	2013/07/02	2013/07/02	5823134	340593	US10620NAG34	USBND	N										
SCEXH	I	2013/07/02	2013/07/02	5823137	340600	US10620NAH17	USBND	N										
SCEXH	I	2013/07/02	2013/07/02	5823140	340602	US10620NAJ72	USBND	N										
SCEXH	I	2013/07/02	2013/07/02	5823139	340605	US10620NAK46	USBND	N										
SCEXH	I	2012/05/17	2012/05/17	5465656	342781	US89413AAA97	USBND	N										
SCEXH	I	2012/05/17	2012/05/17	5466091	342835	US89413AAC53	USBND	N										
SCEXH	I	2012/05/17	2012/05/17	5466145	342866	US89413AAD37	USBND	N										
SCEXH	I	2012/05/17	2012/05/17	5466251	342911	US89413AAE10	USBND	N										
SCEXH	I	2012/05/17	2012/05/17	5465701	343440	US87337UAA25	USBND	N										
SCEXH	I	2012/05/19	2012/05/19	5472676	343443	US87337UAB08	USBND	N										
SCEXH	I	2012/05/19	2012/05/19	5472681	343454	US87337UAD63	USBND	N										
SCEXH	I	2012/05/19	2012/05/19	5472687	343459	US87337UAE47	USBND	N										
SCEXH	I	2013/09/21	2013/09/21	5879181	348899	US71419XAC74	USBND	N	100									
SCEXH	I	2013/09/21	2013/09/21	5879203	348909	US71419XAE31	USBND	N	100									
SCEXH	I	2010/08/12	2010/08/12	2854346	349213	USG3825PAA24	USBND	N										
SCEXH	I	2010/08/12	2010/08/12	2854381	349217	USG3825PAB07	USBND	N										
SCEXH	I	2010/08/12	2010/08/12	2854378	349222	USG3825PAC89	USBND	N										
SCEXH	I	2010/08/12	2010/08/12	2854393	349225	USG3825PAD62	USBND	N										
SCEXH	I	2011/05/18	2011/05/18	3840048	350728	USG56431AA01	USBND	N	100									
SCEXH	I	2011/05/18	2011/05/18	3840182	350731	USG56431AB83	USBND	N	100									
SCEXH	I	2011/05/18	2011/05/18	3839819	350735	USG56431AC66	USBND	N	100									
SCEXH	I	2011/05/18	2011/05/18	3840189	350745	USG56431AD40	USBND	N	100									
SCEXH	I	2011/05/18	2011/05/18	3840192	350750	USG56431AE23	USBND	N	100									
SCEXH	I	2012/11/15	2012/11/15	5648799	350782	USG41592AA73	USBND	N										
SCEXH	I	2012/11/15	2012/11/15	5648800	350783	USG41592AF60	USBND	N										
SCEXH	I	2012/11/15	2012/11/15	5648801	350787	USG41592AG44	USBND	N										
SCEXH	I	2012/11/15	2012/11/15	5648803	350791	USG41592AD13	USBND	N										
SCEXH	I	2012/11/15	2012/11/15	5648804	350795	USG41592AH27	USBND	N										
SCEXH	I	2012/11/15	2012/11/15	5648805	350797	USG41592AJ82	USBND	N										
SCEXH	I	2011/10/25	2011/10/25	4552743	351085	USG4204AAA46	USBND	N										
SCEXH	I	2011/10/25	2011/10/25	4552745	351091	USG4204AAB29	USBND	N										
SCEXH	I	2011/09/22	2011/09/22	4397704	351117	US14308WAA71	USBND	N										
SCEXH	U	2010/11/22	2010/11/22	3118623	351132	US14308WAD11	USBND	N										
SCEXH	I	2013/12/06	2013/12/06	5930375	351251	USG33323AA76	USBND	N										
SCEXH	I	2012/05/02	2012/05/02	5390701	351259	USG33323AB59	USBND	N										
SCEXH	I	2012/05/02	2012/05/02	5390702	351266	USG33323AC33	USBND	N										
SCEXH	I	2012/05/02	2012/05/02	5390703	351273	USG33323AD16	USBND	N										
SCEXH	I	2012/05/02	2012/05/02	5390704	351284	USG33323AE98	USBND	N										
SCEXH	I	2012/06/27	2012/06/27	5524458	351441	US124670AD28	USBND	N										
SCEXH	I	2011/11/16	2011/11/16	4674653	351852	USG30405AE79	USBND	N										
SCEXH	I	2011/11/16	2011/11/16	4674654	351856	USG30405AF45	USBND	N										
SCEXH	I	2013/07/02	2013/07/02	5823126	352714	US10620NAC20	USBND	N										
SCEXH	I	2013/07/03	2013/07/03	5823967	352718	US10620NAD03	USBND	N										
SCEXH	I	2013/07/02	2013/07/02	5823123	352727	US10620NAE85	USBND	N										
SCEXH	I	2011/10/11	2011/10/11	4475294	353803	USG36392AA91	USBND	N										
SCEXH	I	2011/10/11	2011/10/11	4475295	353808	USG36392AB74	USBND	N										
SCEXH	I	2011/10/11	2011/10/11	4475296	353810	USG36392AC57	USBND	N										
SCEXH	I	2011/10/11	2011/10/11	4475298	353812	USG36392AD31	USBND	N										
SCEXH	I	2011/10/11	2011/10/11	4475299	353818	USG36392AE14	USBND	N										
SCEXH	I	2012/05/15	2012/05/15	5457179	353832	US01449CAA80	USBND	N										
SCEXH	I	2012/05/15	2012/05/15	5457396	353839	US01449CAB63	USBND	N										
SCEXH	I	2012/05/15	2012/05/15	5457450	353845	US01449CAG50	USBND	N										
SCEXH	I	2012/05/16	2012/05/16	5461241	353850	US01449CAH34	USBND	N										
SCEXH	I	2012/05/16	2012/05/16	5461301	353854	US01449CAJ99	USBND	N										
SCEXH	I	2012/05/16	2012/05/16	5461409	353865	US01449CAL46	USBND	N										
SCEXH	I	2012/05/16	2012/05/16	5461556	353869	US01449CAM29	USBND	N										
SCEXH	I	2010/11/18	2010/11/18	3114791	353918	US26357RAJ32	USBND	N										
SCEXH	I	2012/04/17	2012/04/17	5354487	353973	USG44185AA70	USBND	N										
SCEXH	I	2012/04/17	2012/04/17	5354489	353982	USG44185AB53	USBND	N										
SCEXH	I	2012/04/17	2012/04/17	5354492	353986	USG44185AC37	USBND	N										
SCEXH	I	2012/04/17	2012/04/17	5354495	353990	USG44185AD10	USBND	N										
SCEXH	I	2012/04/17	2012/04/17	5354497	353997	USG44185AE92	USBND	N										
SCEXH	I	2013/10/28	2013/10/28	5903663	354533	USG5636AAA90	USBND	N										
SCEXH	I	2010/11/18	2010/11/18	3114571	354534	US54266TAA07	USBND	N										
SCEXH	I	2013/10/28	2013/10/28	5903723	354535	USG5636AAB73	USBND	N										
SCEXH	I	2013/10/28	2013/10/28	5903774	354539	USG5636AAD30	USBND	N										
SCEXH	I	2013/10/28	2013/10/28	5903812	354541	USG5636AAE13	USBND	N										
SCEXH	I	2013/09/20	2013/09/20	5878782	354548	US71419XAB91	USBND	N										
SCEXH	I	2013/04/17	2013/04/17	5754936	355050	US861761AB01	USBND	N										
SCEXH	I	2013/07/13	2013/07/13	5830904	355183	US69510XAG07	USBND	N										
SCEXH	I	2013/05/21	2013/05/21	5781438	357125	USG22292AB59	USBND	N										
SCEXH	I	2011/10/27	2011/10/27	4562460	357492	USG2071KAA63	USBND	N										
SCEXH	I	2011/10/27	2011/10/27	4562461	357493	USG2071KAB47	USBND	N										
SCEXH	U	2011/06/14	2011/10/10	3948298	357528	USG5636AAF87	USBND	N										
SCEXH	I	2013/10/28	2013/10/28	5903820	357532	USG5636AAG60	USBND	N										
SCEXH	I	2014/01/04	2014/01/04	5948981	357615	US02317UAA51	USBND	N										
SCEXH	I	2014/01/04	2014/01/04	5948982	357618	US02317UAB35	USBND	N										
SCEXH	I	2014/01/04	2014/01/04	5948985	357620	US02317UAE73	USBND	N										
SCEXH	I	2014/01/04	2014/01/04	5948983	357621	US02317UAC18	USBND	N										
SCEXH	I	2014/01/04	2014/01/04	5948984	357628	US02317UAD90	USBND	N										
SCEXH	I	2013/10/21	2013/10/21	5899166	358363	USG17336AA90	USBND	N										
SCEXH	I	2013/01/11	2013/01/11	5684713	358365	USG17336AB73	USBND	N										
SCEXH	I	2013/01/11	2013/01/11	5684716	358367	USG17336AC56	USBND	N										
SCEXH	U	2013/01/11	2013/01/12	5684719	358369	USG17336AD30	USBND	N										
SCEXH	I	2013/10/21	2013/10/21	5899167	358370	USG17336AF87	USBND	N										
SCEXH	I	2013/07/31	2013/07/31	5845516	358697	USG64472AB20	USBND	N										
SCEXH	I	2013/09/21	2013/09/21	5878943	358698	US64069PAD06	USBND	N										
SCEXH	I	2013/07/31	2013/07/31	5845526	358701	USG64472AC03	USBND	N										
SCEXH	I	2013/09/21	2013/09/21	5878962	358703	US64069PAF53	USBND	N										
SCEXH	I	2013/07/31	2013/07/31	5845529	358708	USG64472AD85	USBND	N										
SCEXH	I	2013/09/21	2013/09/21	5878977	358709	US64069PAH10	USBND	N										
SCEXH	I	2013/07/31	2013/07/31	5845532	358714	USG64472AE68	USBND	N										
SCEXH	U	2010/11/22	2010/11/22	3117834	358753	US26450CAB90	USBND	N										
SCEXH	I	2012/06/25	2012/06/25	5523196	358768	US612180AA77	USBND	N										
SCEXH	I	2012/06/23	2012/06/23	5522896	358779	US612180AC34	USBND	N										
SCEXH	I	2012/08/02	2012/08/02	5548203	358784	USU3457YAB03	USBND	N										
SCEXH	I	2012/06/25	2012/06/25	5523198	358790	US612180AG48	USBND	N										
SCEXH	I	2012/08/02	2012/08/02	5548205	358791	USU3457YAC85	USBND	N										
SCEXH	I	2012/08/02	2012/08/02	5548208	358797	USU3457YAD68	USBND	N										
SCEXH	I	2012/06/08	2012/06/08	5512306	358809	US612179AA96	USBND	N										
SCEXH	I	2012/06/25	2012/06/25	5523201	358812	US612179AC52	USBND	N										
SCEXH	I	2012/08/02	2012/08/02	5548212	358813	USU3457XAB20	USBND	N										
SCEXH	I	2012/08/02	2012/08/02	5548219	358816	USU3457XAC03	USBND	N										
SCEXH	I	2012/08/02	2012/08/02	5548222	358818	USU3457XAD85	USBND	N										
SCEXH	I	2013/09/21	2013/09/21	5879005	358886	US64069PAK49	USBND	N										
SCEXH	I	2013/07/31	2013/07/31	5845547	358891	USG64472AF34	USBND	N										
SCEXH	I	2013/09/21	2013/09/21	5879029	358893	US64069PAM05	USBND	N										
SCEXH	I	2013/07/31	2013/07/31	5845551	358900	USG64472AG17	USBND	N										
SCEXH	I	2013/05/21	2013/05/21	5781431	359251	USG22294AC98	USBND	N										
SCEXH	I	2010/10/04	2010/10/04	2954357	359420	US18971XAA28	USBND	N										
SCEXH	I	2010/10/04	2010/10/04	2954406	359425	US18971XAB01	USBND	N										
SCEXH	I	2010/10/04	2010/10/04	2954462	359430	US18971XAC83	USBND	N										
SCEXH	I	2013/10/28	2013/10/28	5903707	359581	USG56368AA40	USBND	N										
SCEXH	I	2013/10/28	2013/10/28	5903688	359582	US54266XAA19	USBND	N										
SCEXH	I	2011/10/03	2011/10/03	4432777	359588	USG56368AB23	USBND	N										
SCEXH	I	2013/10/28	2013/10/28	5903719	359593	US54266XAB91	USBND	N										
SCEXH	U	2010/11/22	2010/11/22	3118559	359614	US36318JAK51	USBND	N										
SCEXH	I	2011/09/21	2011/09/21	4397292	362437	USG59371AB30	USBND	N										
SCEXH	I	2011/09/21	2011/09/21	4397290	362581	USG69578AA31	USBND	N										
SCEXH	I	2011/09/21	2011/09/21	4397357	362594	USG69578AB14	USBND	N										
SCEXH	I	2013/11/01	2013/11/01	5905901	362617	USG69577AA57	USBND	N										
SCEXH	I	2013/11/01	2013/11/01	5906007	362621	US702480AA24	USBND	N										
SCEXH	I	2012/06/11	2012/06/11	5513619	362627	US80410RAA41	USBND	N										
SCEXH	I	2012/06/11	2012/06/11	5513633	362631	US80410RAB24	USBND	N										
SCEXH	I	2012/06/11	2012/06/11	5513658	362639	US80410RAD89	USBND	N										
SCEXH	I	2014/03/07	2014/03/07	6006338	362760	US724023AB21	USBND	N										
SCEXH	I	2014/03/07	2014/03/07	6006335	362763	US724023AH90	USBND	N										
SCEXH	I	2014/03/07	2014/03/07	6006331	362766	US724023AC04	USBND	N										
SCEXH	I	2014/03/07	2014/03/07	6006325	362769	US724023AJ56	USBND	N										
SCEXH	I	2014/03/07	2014/03/07	6006320	362772	US724023AD86	USBND	N										
SCEXH	I	2014/03/07	2014/03/07	6006463	362774	US724023AK20	USBND	N										
SCEXH	I	2014/03/07	2014/03/07	6006461	362781	US724023AL03	USBND	N										
SCEXH	I	2011/09/27	2011/09/27	4409155	363053	USG5276PAB97	USBND	N										
SCEXH	I	2011/09/27	2011/09/27	4409189	363087	US49834UAA07	USBND	N										
SCEXH	I	2013/04/16	2013/04/16	5754909	363123	US63543TAB44	USBND	N										
SCEXH	I	2012/06/05	2012/06/05	5509618	363180	US55312HAE99	USBND	N										
SCEXH	I	2013/08/26	2013/08/26	5861199	363530	USG80884AA03	USBND	N										
SCEXH	I	2010/10/19	2010/10/19	3026083	363555	US63936YAS19	USBND	N										
SCEXH	I	2010/10/19	2010/10/19	3026084	363829	US63936YAT91	USBND	N										
SCEXH	I	2013/02/22	2013/02/22	5716815	364022	US10550YAA64	USBND	N										
SCEXH	I	2013/02/22	2013/02/22	5716816	364026	USG1315BAA47	USBND	N										
SCEXH	I	2013/02/22	2013/02/22	5716820	364034	US10550YAB48	USBND	N										
SCEXH	I	2013/02/22	2013/02/22	5716821	364038	USG1315BAB20	USBND	N										
SCEXH	I	2013/02/22	2013/02/22	5716822	364041	US10550YAC21	USBND	N										
SCEXH	I	2014/03/18	2014/03/18	6015567	364043	USG54885AA98	USBND	N										
SCEXH	I	2013/02/22	2013/02/22	5716823	364045	USG1315BAC03	USBND	N										
SCEXH	I	2013/02/22	2013/02/22	5716824	364049	US10550YAD04	USBND	N										
SCEXH	I	2013/02/22	2013/02/22	5716828	364055	USG1315BAD85	USBND	N										
SCEXH	I	2013/02/22	2013/02/22	5716831	364061	US10550YAE86	USBND	N										
SCEXH	I	2013/02/22	2013/02/22	5716832	364063	USG1315BAE68	USBND	N										
SCEXH	I	2014/03/18	2014/03/18	6015569	364074	USG54885AE11	USBND	N										
SCEXH	I	2014/03/18	2014/03/18	6015570	364079	USG54883AA41	USBND	N										
SCEXH	I	2012/04/30	2012/04/30	5386822	364605	US963293AG07	USBND	N										
SCEXH	I	2011/09/24	2011/09/24	4404821	364628	US98886AAE01	USBND	N										
SCEXH	I	2011/09/24	2011/09/24	4404867	364632	US98886AAG58	USBND	N										
SCEXH	I	2011/09/24	2011/09/24	4405003	364639	US98886AAN00	USBND	N										
SCEXH	I	2011/09/24	2011/09/24	4404921	364648	US98886AAL44	USBND	N										
SCEXH	I	2011/09/24	2011/09/24	4405014	364652	US98886AAQ31	USBND	N										
SCEXH	I	2012/08/10	2012/08/10	5552455	365477	US795267AA19	USBND	N										
SCEXH	I	2013/11/12	2013/11/12	5911813	365499	US49373VAA52	USBND	N										
SCEXH	I	2013/11/12	2013/11/12	5911856	365509	US49373VAC19	USBND	N										
SCEXH	I	2013/11/12	2013/11/12	5911870	365514	US49373VAE74	USBND	N										
SCEXH	I	2013/11/12	2013/11/12	5911895	365525	US49373VAG23	USBND	N										
SCEXH	I	2012/06/08	2012/06/08	5512067	365681	USG8961RAA17	USBND	N										
SCEXH	I	2012/06/08	2012/06/08	5512070	365695	USG8961RAB99	USBND	N										
SCEXH	I	2012/06/08	2012/06/08	5512073	365701	USG8961RAC72	USBND	N										
SCEXH	I	2012/06/08	2012/06/08	5512042	365724	USG8961TAD12	USBND	N										
SCEXH	I	2012/06/08	2012/06/08	5512052	365729	USG8961TAE94	USBND	N										
SCEXH	I	2012/06/08	2012/06/08	5512057	365741	USG8961TAF69	USBND	N										
SCEXH	I	2012/06/08	2012/06/08	5512061	365757	USG8961TAG43	USBND	N										
SCEXH	I	2012/06/09	2012/06/09	5513111	365900	US68571WAC91	USBND	N										
SCEXH	I	2012/06/09	2012/06/09	5513119	365904	US68571WAE57	USBND	N										
SCEXH	I	2012/06/11	2012/06/11	5513449	365909	US68571WAG06	USBND	N										
SCEXH	I	2012/06/08	2012/06/08	5512312	365913	US639103AH36	USBND	N										
SCEXH	I	2012/06/11	2012/06/11	5513478	365914	US68571WAJ45	USBND	N										
SCEXH	I	2013/03/18	2013/03/18	5734291	366054	USG2641AAA90	USBND	N										
SCEXH	I	2013/03/18	2013/03/18	5734293	366061	USG2641AAB73	USBND	N										
SCEXH	I	2013/03/18	2013/03/18	5734295	366070	USG2641AAC56	USBND	N										
SCEXH	I	2013/03/18	2013/03/18	5734298	366077	USG2641AAD30	USBND	N										
SCEXH	I	2013/03/18	2013/03/18	5734328	366081	USG2641AAE13	USBND	N										
SCEXH	I	2013/03/18	2013/03/18	5734332	366085	USG2641AAF87	USBND	N										
SCEXH	I	2013/03/18	2013/03/18	5734334	366088	USG2641AAH44	USBND	N										
SCEXH	I	2012/09/14	2012/09/14	5575091	366115	USG67920AB70	USBND	N										
SCEXH	I	2012/06/11	2012/06/11	5513562	366120	US68571TAC62	USBND	N										
SCEXH	I	2010/11/20	2010/11/20	3117028	366124	US87337VAA08	USBND	N										
SCEXH	I	2013/03/18	2013/03/18	5734341	366329	USG26415AA04	USBND	N										
SCEXH	I	2013/03/18	2013/03/18	5734342	366336	USG26415AB86	USBND	N										
SCEXH	I	2013/03/18	2013/03/18	5734344	366344	USG26415AC69	USBND	N										
SCEXH	I	2012/04/27	2012/04/27	5382936	366498	US87154XAJ72	USBND	N										
SCEXH	I	2012/05/16	2012/05/16	5465365	367900	US530361AE45	USBND	N										
SCEXH	I	2012/05/16	2012/05/16	5465364	367908	US530361AG92	USBND	N										
SCEXH	I	2012/05/16	2012/05/16	5465372	367913	US530361AJ32	USBND	N										
SCEXH	I	2012/05/16	2012/05/16	5465375	367917	US530361AL87	USBND	N										
SCEXH	I	2012/05/16	2012/05/16	5465399	367921	US530361AN44	USBND	N										
SCEXH	I	2013/12/04	2013/12/04	5927660	371986	US14986AAS50	USBND	N										
SCEXH	I	2013/12/04	2013/12/04	5927670	371989	US14986AAT34	USBND	N										
SCEXH	U	2010/12/03	2010/12/03	3136175	376511	US37638NAB73	USBND	N										
SCEXH	U	2010/12/03	2010/12/03	3136180	376527	US37638NAD30	USBND	N										
SCEXH	I	2013/04/18	2013/04/18	5756221	376547	US37638MAC73	USBND	N										
SCEXH	I	2012/09/17	2012/09/17	5577542	376748	US925345AC40	USBND	N										
SCEXH	I	2012/06/21	2012/06/21	5520821	376792	US925342AB36	USBND	N										
SCEXH	I	2012/09/17	2012/09/17	5577543	376801	US925342AC19	USBND	N										
SCEXH	U	2010/11/22	2010/11/22	3118281	376898	US0855552099	USBND	N										
SCEXH	I	2013/09/21	2013/09/21	5879209	377999	US71419XAF06	USBND	N	100									
SCEXH	I	2013/04/16	2013/04/16	5754820	380087	USG88641AA67	USBND	N										
SCEXH	I	2013/04/16	2013/04/16	5754839	380094	USG88641AB41	USBND	N										
SCEXH	I	2013/04/16	2013/04/16	5754858	380102	USG88641AC24	USBND	N										
SCEXH	I	2013/04/16	2013/04/16	5754863	380114	USG88641AD07	USBND	N										
SCEXH	I	2013/04/16	2013/04/16	5754910	380125	USG88641AE89	USBND	N										
SCEXH	I	2013/04/16	2013/04/16	5754889	380140	USG88641AF54	USBND	N										
SCEXH	I	2012/06/11	2012/06/11	5513589	381388	USG52530AA34	USBND	N										
SCEXH	I	2012/06/13	2012/06/13	5515079	381665	USG52530AB17	USBND	N										
SCEXH	I	2012/06/11	2012/06/11	5513600	381678	USG52530AD72	USBND	N										
SCEXH	I	2012/06/11	2012/06/11	5513602	381701	USG52530AE55	USBND	N										
SCEXH	I	2012/06/11	2012/06/11	5513606	381710	USG52530AF21	USBND	N										
SCEXH	I	2010/11/19	2010/11/19	3116208	381921	US36297YAD31	USBND	N										
SCEXH	I	2013/04/11	2013/04/11	5751274	386358	US3622X4AA17	USBND	N										
SCEXH	I	2013/04/12	2013/04/12	5751825	386365	US3622X4AC72	USBND	N										
SCEXH	I	2013/04/11	2013/04/11	5751176	386372	US3622X4AE39	USBND	N										
SCEXH	I	2013/04/11	2013/04/11	5751139	386379	US3622X4AF04	USBND	N										
SCEXH	I	2013/04/11	2013/04/11	5751053	386383	US3622X4AG86	USBND	N										
SCEXH	I	2013/04/11	2013/04/11	5751004	386397	US3622X4AH69	USBND	N										
SCEXH	I	2013/04/10	2013/04/10	5750326	387431	US3622X3AA34	USBND	N										
SCEXH	I	2013/04/10	2013/04/10	5750365	387468	US3622X3AB17	USBND	N										
SCEXH	I	2013/06/18	2013/06/18	5804526	392158	USG6769PAA33	USBND	N										
SCEXH	I	2012/01/16	2012/01/16	4921934	392364	US05354TAE73	USBND	N										
SCEXH	I	2012/06/20	2012/06/20	5519876	393707	USG43124AA76	USBND	N										
SCEXH	I	2012/06/20	2012/06/20	5519878	393710	USG43124AC33	USBND	N										
SCEXH	I	2012/06/20	2012/06/20	5519879	393712	USG43124AD16	USBND	N										
SCEXH	I	2012/06/20	2012/06/20	5519880	393715	USG43124AE98	USBND	N										
SCEXH	I	2012/01/16	2012/01/16	4921935	393906	US05354TAG22	USBND	N										
SCEXH	I	2012/01/16	2012/01/16	4921936	393908	US05354TAJ60	USBND	N										
SCEXH	I	2012/01/16	2012/01/16	4921938	393911	US05354TAL17	USBND	N										
SCEXH	I	2012/01/16	2012/01/16	4921940	393913	US05354TAC18	USBND	N										
SCEXH	I	2013/04/17	2013/04/17	5755135	393926	US891090AA01	USBND	N										
SCEXH	I	2013/04/17	2013/04/17	5755154	393934	US891090AB83	USBND	N										
SCEXH	I	2013/04/17	2013/04/17	5755233	393938	US891090AD40	USBND	N										
SCEXH	I	2013/04/17	2013/04/17	5755257	393940	US891090AE23	USBND	N										
SCEXH	I	2013/04/17	2013/04/17	5755310	393943	US891090AF97	USBND	N										
SCEXH	I	2013/04/17	2013/04/17	5755321	393947	US891090AG70	USBND	N										
SCEXH	I	2012/06/05	2012/06/05	5510118	393981	USG5738WAA83	USBND	N										
SCEXH	I	2012/06/05	2012/06/05	5510252	393986	USG5738WAB66	USBND	N										
SCEXH	I	2012/06/05	2012/06/05	5510253	393990	USG5738WAC40	USBND	N										
SCEXH	I	2013/05/08	2013/05/08	5770142	393995	USG5738WAD23	USBND	N										
SCEXH	I	2013/05/08	2013/05/08	5770141	394000	USG5738WAE06	USBND	N										
SCEXH	I	2013/05/08	2013/05/08	5770139	394005	USG5738WAF70	USBND	N										
SCEXH	I	2013/05/20	2013/05/20	5780311	394010	USG5738XAA66	USBND	N										
SCEXH	I	2012/06/05	2012/06/05	5510264	394014	USG5738XAB40	USBND	N										
SCEXH	I	2013/04/18	2013/04/18	5756461	394051	USG5738XAC23	USBND	N										
SCEXH	I	2012/05/17	2012/05/17	5465940	400085	USU56596AB28	USBND	N										
SCEXH	I	2013/10/28	2013/10/28	5903653	400606	US108124AA67	USBND	N										
SCEXH	I	2013/10/28	2013/10/28	5903656	400632	US108124AC24	USBND	N										
SCEXH	I	2013/10/28	2013/10/28	5903658	400638	US108124AE89	USBND	N										
SCEXH	I	2013/10/28	2013/10/28	5903660	400643	US108124AG38	USBND	N										
SCEXH	U	2013/10/28	2016/08/12	5903661	400648	US108120AA46	USBND											
SCEXH	I	2012/06/20	2012/06/20	5519869	400824	US413358AA01	USBND	N										
SCEXH	I	2012/06/20	2012/06/20	5519870	400832	US413358AB83	USBND	N										
SCEXH	I	2012/06/20	2012/06/20	5519872	400954	US413358AC66	USBND	N										
SCEXH	I	2012/06/20	2012/06/20	5519873	400961	US413358AD40	USBND	N										
SCEXH	I	2012/06/20	2012/06/20	5519874	400966	US413358AE23	USBND	N										
SCEXH	I	2012/09/20	2012/09/20	5580084	401328	USG98849AD71	USBND	N										
SCEXH	I	2014/02/03	2014/02/03	5974404	401366	USG9884UAA63	USBND	N										
SCEXH	I	2011/06/07	2011/06/07	3914197	401571	USG84283AB92	USBND	N										
SCEXH	I	2013/10/28	2013/10/28	5903667	402788	USG01599AF91	USBND	N										
SCEXH	I	2013/10/28	2013/10/28	5903654	402790	US01450AAF75	USBND	N										
SCEXH	I	2013/10/28	2013/10/28	5903675	402794	USG01599AG74	USBND	N										
SCEXH	I	2013/10/28	2013/10/28	5903664	402796	US01450AAG58	USBND	N										
SCEXH	I	2011/05/24	2011/05/24	3852087	404060	USG0065MAA48	USBND	N	100									
SCEXH	I	2013/10/04	2013/10/04	5888730	404066	USG0065KAA81	USBND	N										
SCEXH	I	2011/05/24	2011/05/24	3852100	404159	USG0065NAA21	USBND	N	100									
SCEXH	I	2011/05/24	2011/05/24	3852104	404163	USG8188CAA11	USBND	N										
SCEXH	I	2012/08/25	2012/08/25	5560552	404173	USG1088CAC31	USBND	N										
SCEXH	I	2012/08/25	2012/08/25	5560553	404176	USG1088CAD14	USBND	N										
SCEXH	I	2012/08/25	2012/08/25	5560555	404179	USG1088CAE96	USBND	N										
SCEXH	I	2012/08/25	2012/08/25	5560550	404184	USG1088CAA74	USBND	N										
SCEXH	I	2012/08/25	2012/08/25	5560551	404188	USG1088CAB57	USBND	N										
SCEXH	I	2013/04/12	2013/04/12	5751936	404401	US89608MAC47	USBND	N										
SCEXH	I	2012/08/11	2012/08/11	5553067	404705	USG05025AB09	USBND	N										
SCEXH	I	2012/08/11	2012/08/11	5553068	404712	USG05025AA26	USBND	N										
SCEXH	I	2012/08/11	2012/08/11	5553069	404715	USG05025AC81	USBND	N										
SCEXH	I	2012/08/11	2012/08/11	5553070	404719	USG05025AD64	USBND	N										
SCEXH	I	2012/08/11	2012/08/11	5553071	404722	USG05025AE48	USBND	N										
SCEXH	I	2012/08/11	2012/08/11	5553072	404726	USG05025AF13	USBND	N										
SCEXH	I	2013/07/19	2013/07/19	5837850	404759	USG28913AA23	USBND	N										
SCEXH	I	2013/04/18	2013/04/18	5756249	404875	US27829EAN13	USBND	N										
SCEXH	I	2014/01/30	2014/01/30	5972500	404925	US18272YAA64	USBND	N										
SCEXH	I	2014/01/30	2014/01/30	5972459	404927	USG2283GAA97	USBND	N										
SCEXH	I	2013/11/21	2013/11/21	5919265	405148	USG6931HAC00	USBND	N										
SCEXH	I	2013/12/10	2013/12/10	5932139	405168	USG6931HAB27	USBND	N										
SCEXH	I	2014/01/30	2014/01/30	5972460	405177	USG2283GAB70	USBND	N										
SCEXH	I	2014/01/30	2014/01/30	5972461	405181	USG2283GAF84	USBND	N										
SCEXH	I	2014/01/30	2014/01/30	5972462	405184	USG2283GAC53	USBND	N										
SCEXH	I	2014/01/30	2014/01/30	5972463	405187	USG2283GAD37	USBND	N										
SCEXH	I	2014/01/30	2014/01/30	5972464	405191	USG2283GAE10	USBND	N										
SCEXH	I	2013/06/25	2013/06/25	5818558	405297	USG3641CAA39	USBND	N										
SCEXH	I	2013/06/25	2013/06/25	5818561	405310	USG3641CAC94	USBND	N										
SCEXH	I	2013/06/25	2013/06/25	5818564	405317	USG3641CAD77	USBND	N										
SCEXH	I	2013/06/25	2013/06/25	5818515	405364	USG36407AA52	USBND	N										
SCEXH	I	2013/06/25	2013/06/25	5818519	405384	USG36407AC19	USBND	N										
SCEXH	I	2013/06/25	2013/06/25	5818524	405391	USG36407AD91	USBND	N										
SCEXH	I	2014/01/24	2014/01/24	5968308	405653	USU58025AL80	USBND	N										
SCEXH	I	2012/05/30	2012/05/30	5498947	406773	US89413CAA53	USBND	N										
SCEXH	I	2013/05/16	2013/05/16	5778047	406824	USG57828AA67	USBND	N										
SCEXH	I	2013/05/16	2013/05/16	5778045	406826	US561765AA61	USBND	N										
SCEXH	I	2013/05/16	2013/05/16	5778050	406830	USG57828AB41	USBND	N										
SCEXH	I	2013/05/16	2013/05/16	5778054	406833	USG57828AC24	USBND	N										
SCEXH	I	2013/05/16	2013/05/16	5778060	406837	USG57828AD07	USBND	N										
SCEXH	I	2013/05/16	2013/05/16	5778063	406839	USG57828AE89	USBND	N										
SCEXH	I	2013/05/16	2013/05/16	5778067	406841	USG57828AF54	USBND	N										
SCEXH	I	2013/08/30	2013/08/30	5864605	407007	USG9590FAB25	USBND	N										
SCEXH	I	2013/08/30	2013/08/30	5864606	407054	USG9590FAD80	USBND	N										
SCEXH	I	2012/05/16	2012/05/16	5461937	407088	US62474XAA28	USBND	N										
SCEXH	I	2012/05/16	2012/05/16	5461986	407115	US62475AAA16	USBND	N										
SCEXH	I	2013/08/30	2013/08/30	5864607	407196	USG9590FAE63	USBND	N										
SCEXH	I	2013/08/30	2013/08/30	5864608	407224	USG9590FAF39	USBND	N										
SCEXH	I	2013/08/30	2013/08/30	5864609	407243	USG9590FAG12	USBND	N										
SCEXH	I	2013/05/16	2013/05/16	5777789	408696	USG61325AB58	USBND	N										
SCEXH	I	2013/05/16	2013/05/16	5777791	408699	USG61325AC32	USBND	N										
SCEXH	I	2013/05/16	2013/05/16	5777795	408702	USG61325AD15	USBND	N										
SCEXH	I	2013/05/16	2013/05/16	5777801	408708	USG61325AA75	USBND	N										
SCEXH	I	2013/05/16	2013/05/16	5777798	409883	USG61324AA01	USBND	N										
SCEXH	I	2013/05/16	2013/05/16	5777800	409884	USG61324AB83	USBND	N										
SCEXH	I	2012/10/11	2012/10/11	5619139	417262	US46265BAA61	USBND	N										
SCEXH	I	2012/10/11	2012/10/11	5619140	417263	US46265BAC28	USBND	N										
SCEXH	I	2013/08/14	2013/08/14	5854147	418057	USG37911AA59	USBND	N										
SCEXH	I	2013/08/14	2013/08/14	5854148	418067	USG37911AB33	USBND	N										
SCEXH	I	2013/08/14	2013/08/14	5854149	418075	USG37911AD98	USBND	N										
SCEXH	I	2013/08/14	2013/08/14	5854150	418084	USG37911AE71	USBND	N										
SCEXH	I	2013/08/14	2013/08/14	5854151	418090	USG37911AF47	USBND	N										
SCEXH	I	2013/08/14	2013/08/14	5854152	418094	USG37911AG20	USBND	N										
SCEXH	I	2012/10/09	2012/10/09	5617337	418378	USG49363AA57	USBND	N										
SCEXH	I	2012/10/09	2012/10/09	5617341	418402	USG4936YAD16	USBND	N										
SCEXH	I	2012/10/09	2012/10/09	5617344	418422	USG4936YAC33	USBND	N										
SCEXH	I	2012/10/09	2012/10/09	5617340	418428	USG4936YAE98	USBND	N										
SCEXH	I	2012/10/09	2012/10/09	5617338	418432	USG4936YAF63	USBND	N										
SCEXH	I	2013/10/10	2013/10/10	5892029	418749	US157197AA25	USBND	N										
SCEXH	I	2013/10/10	2013/10/10	5892032	418752	US157197AD63	USBND	N										
SCEXH	I	2013/10/10	2013/10/10	5892033	418759	US157197AE47	USBND	N										
SCEXH	I	2013/10/10	2013/10/10	5892030	418763	US157197AB08	USBND	N										
SCEXH	I	2013/10/10	2013/10/10	5892034	418764	US157196AA42	USBND	N										
SCEXH	I	2013/10/15	2013/10/15	5894579	418768	USG20263AA00	USBND	N										
SCEXH	I	2013/10/10	2013/10/10	5892031	418769	US157197AC80	USBND	N										
SCEXH	I	2013/10/15	2013/10/15	5894577	418806	USG20264AE05	USBND	N										
SCEXH	I	2011/09/01	2011/09/01	4246999	418990	USG5296WAD68	USBND	N	100									
SCEXH	I	2013/05/14	2013/05/14	5774609	419934	USG0063NAB22	USBND	N										
SCEXH	I	2013/05/14	2013/05/14	5774612	419936	USG0063NAC05	USBND	N										
SCEXH	I	2013/05/18	2013/05/18	5779321	419938	USG0063NAD87	USBND	N										
SCEXH	I	2012/09/18	2012/09/18	5578809	424254	USG71806AA49	USBND	N										
SCEXH	I	2013/05/16	2013/05/16	5777797	425229	US601312AA97	USBND	N										
SCEXH	I	2013/05/16	2013/05/16	5777793	425236	US601313AD10	USBND	N										
SCEXH	I	2013/05/16	2013/05/16	5777790	425241	US601313AC37	USBND	N										
SCEXH	I	2013/05/16	2013/05/16	5777799	425245	US601312AB70	USBND	N										
SCEXH	I	2013/05/16	2013/05/16	5777796	425254	US601313AE92	USBND	N										
SCEXH	I	2013/05/16	2013/05/16	5777786	425257	US601313AB53	USBND	N										
SCEXH	U	2010/11/25	2010/11/25	3123272	426028	US861754AK58	USBND	N	100									
SCEXH	I	2011/09/13	2011/09/13	4356285	428216	USG6219FAB97	USBND	N										
SCEXH	I	2011/09/13	2011/09/13	4356286	428218	USG6219FAC70	USBND	N										
SCEXH	I	2011/09/13	2011/09/13	4356287	428220	USG6219FAD53	USBND	N										
SCEXH	I	2011/09/13	2011/09/13	4356288	428222	USG6219FAE37	USBND	N										
SCEXH	I	2011/09/13	2011/09/13	4356289	428236	USG62195AA39	USBND	N										
SCEXH	I	2013/05/18	2013/05/18	5779322	428901	USG0063NAF36	USBND	N										
SCEXH	I	2013/05/18	2013/05/18	5779324	428905	USG0063NAG19	USBND	N										
SCEXH	I	2013/05/21	2013/05/21	5781142	428906	USG0063NAE60	USBND	N										
SCEXH	I	2013/07/02	2013/07/02	5823081	431319	US10620NAM02	USBND	N										
SCEXH	I	2013/07/02	2013/07/02	5823084	431321	US10620NAN84	USBND	N										
SCEXH	I	2013/07/02	2013/07/02	5823085	431325	US10620NAP33	USBND	N										
SCEXH	I	2013/04/23	2013/04/23	5759920	433830	USG4065LAB65	USBND	N										
SCEXH	I	2013/04/23	2013/04/23	5759926	433832	USG4065LAC49	USBND	N										
SCEXH	I	2013/04/23	2013/04/23	5759918	433838	USG4065LAA82	USBND	N										
SCEXH	I	2013/04/23	2013/04/23	5759933	433849	USG4065LAD22	USBND	N										
SCEXH	I	2013/04/23	2013/04/23	5759937	433989	USG4065LAE05	USBND	N										
SCEXH	I	2010/11/18	2010/11/18	3115017	434018	US543174AA49	USBND	N										
SCEXH	I	2011/09/01	2011/09/01	4246990	434749	USG5296WAC85	USBND	N	100									
SCEXH	I	2010/08/10	2010/08/10	2812790	434752	USG5296WAA20	USBND	N										
SCEXH	I	2012/06/25	2012/06/25	5523295	436154	US749624AM44	USBND	N										
SCEXH	I	2010/09/24	2010/09/24	2944465	437085	USG17540AA68	USBND	N										
SCEXH	I	2010/09/24	2010/09/24	2944452	437086	USG17542AB08	USBND	N										
SCEXH	I	2010/09/24	2010/09/24	2944461	437089	USG17542AE47	USBND	N										
SCEXH	I	2010/09/24	2010/09/24	2944450	437090	USG17542AA25	USBND	N										
SCEXH	I	2010/09/24	2010/09/24	2944454	437091	USG17542AC80	USBND	N										
SCEXH	I	2010/09/24	2010/09/24	2944458	437096	USG17542AD63	USBND	N										
SCEXH	I	2013/05/21	2013/05/21	5781146	437842	USG0063NAA49	USBND	N										
SCEXH	I	2013/05/21	2013/05/21	5781148	437888	USG0063MAA65	USBND	N										
SCEXH	I	2013/05/21	2013/05/21	5781156	437906	USG0063MAC22	USBND	N										
SCEXH	I	2010/08/09	2010/08/09	2811686	437945	US49858LAA17	USBND	N										
SCEXH	I	2012/04/28	2012/04/28	5386178	437946	US83586YAA10	USBND	N										
SCEXH	I	2012/04/28	2012/04/28	5386207	437949	US83586YAB92	USBND	N										
SCEXH	I	2011/08/29	2011/08/29	4236841	437951	US49858LAE39	USBND	N										
SCEXH	I	2012/04/28	2012/04/28	5386231	437953	US83586YAC75	USBND	N										
EDI_ENDOFFILE
