EDI_SFUND_20161007
TableName	Actflag	Created	Changed	SfundID	SecID	ISIN	SfundDate	Sinking_Currency	Amount	AmountasPercent	Notes
SFUND	I	2009/02/17	2009/02/17	1657	1072094	US961548AS34	2008/06/15	USD			The sinking fund for this series provides for the redemption            <BR>on June 15 in each year beginning with the year 2008 and ending                 <BR>with the year 2026 of not less than USD7,500,000 (`mandatory                      <BR>sinking fund`) and not more than USD15,000,000 aggregate principal                <BR>amount of Securities of this series.  Securities of this series                 <BR>acquired or redeemed by the Company otherwise than through                      <BR>mandatory sinking fund payments may be credited against                         <BR>subsequent sinking fund payments otherwise required to be made<BR>
SFUND	I	2009/02/17	2009/02/17	1658	1072094	US961548AS34	2009/06/15	USD			The sinking fund for this series provides for the redemption            <BR>on June 15 in each year beginning with the year 2008 and ending                 <BR>with the year 2026 of not less than USD7,500,000 (`mandatory                      <BR>sinking fund`) and not more than USD15,000,000 aggregate principal                <BR>amount of Securities of this series.  Securities of this series                 <BR>acquired or redeemed by the Company otherwise than through                      <BR>mandatory sinking fund payments may be credited against                         <BR>subsequent sinking fund payments otherwise required to be made<BR>
SFUND	I	2009/02/17	2009/02/17	1659	1072094	US961548AS34	2010/06/15	USD			The sinking fund for this series provides for the redemption            <BR>on June 15 in each year beginning with the year 2008 and ending                 <BR>with the year 2026 of not less than USD7,500,000 (`mandatory                      <BR>sinking fund`) and not more than USD15,000,000 aggregate principal                <BR>amount of Securities of this series.  Securities of this series                 <BR>acquired or redeemed by the Company otherwise than through                      <BR>mandatory sinking fund payments may be credited against                         <BR>subsequent sinking fund payments otherwise required to be made<BR>
SFUND	I	2009/02/17	2009/02/17	1660	1072094	US961548AS34	2011/06/15	USD			The sinking fund for this series provides for the redemption            <BR>on June 15 in each year beginning with the year 2008 and ending                 <BR>with the year 2026 of not less than USD7,500,000 (`mandatory                      <BR>sinking fund`) and not more than USD15,000,000 aggregate principal                <BR>amount of Securities of this series.  Securities of this series                 <BR>acquired or redeemed by the Company otherwise than through                      <BR>mandatory sinking fund payments may be credited against                         <BR>subsequent sinking fund payments otherwise required to be made<BR>
SFUND	I	2009/02/17	2009/02/17	1661	1072094	US961548AS34	2012/06/15	USD			The sinking fund for this series provides for the redemption            <BR>on June 15 in each year beginning with the year 2008 and ending                 <BR>with the year 2026 of not less than USD7,500,000 (`mandatory                      <BR>sinking fund`) and not more than USD15,000,000 aggregate principal                <BR>amount of Securities of this series.  Securities of this series                 <BR>acquired or redeemed by the Company otherwise than through                      <BR>mandatory sinking fund payments may be credited against                         <BR>subsequent sinking fund payments otherwise required to be made<BR>
SFUND	I	2009/02/17	2009/02/17	1662	1072094	US961548AS34	2013/06/15	USD			The sinking fund for this series provides for the redemption            <BR>on June 15 in each year beginning with the year 2008 and ending                 <BR>with the year 2026 of not less than USD7,500,000 (`mandatory                      <BR>sinking fund`) and not more than USD15,000,000 aggregate principal                <BR>amount of Securities of this series.  Securities of this series                 <BR>acquired or redeemed by the Company otherwise than through                      <BR>mandatory sinking fund payments may be credited against                         <BR>subsequent sinking fund payments otherwise required to be made<BR>
SFUND	I	2009/02/17	2009/02/17	1663	1072094	US961548AS34	2014/06/15	USD			The sinking fund for this series provides for the redemption            <BR>on June 15 in each year beginning with the year 2008 and ending                 <BR>with the year 2026 of not less than USD7,500,000 (`mandatory                      <BR>sinking fund`) and not more than USD15,000,000 aggregate principal                <BR>amount of Securities of this series.  Securities of this series                 <BR>acquired or redeemed by the Company otherwise than through                      <BR>mandatory sinking fund payments may be credited against                         <BR>subsequent sinking fund payments otherwise required to be made.               <BR>  <BR>
SFUND	I	2009/02/17	2009/02/17	1664	1072094	US961548AS34	2015/06/15	USD			The sinking fund for this series provides for the redemption            <BR>on June 15 in each year beginning with the year 2008 and ending                 <BR>with the year 2026 of not less than USD7,500,000 (`mandatory                      <BR>sinking fund`) and not more than USD15,000,000 aggregate principal                <BR>amount of Securities of this series.  Securities of this series                 <BR>acquired or redeemed by the Company otherwise than through                      <BR>mandatory sinking fund payments may be credited against                         <BR>subsequent sinking fund payments otherwise required to be made.                 <BR>
SFUND	I	2009/02/17	2009/02/17	1665	1072094	US961548AS34	2016/06/15	USD			The sinking fund for this series provides for the redemption            <BR>on June 15 in each year beginning with the year 2008 and ending                 <BR>with the year 2026 of not less than USD7,500,000 (`mandatory                      <BR>sinking fund`) and not more than USD15,000,000 aggregate principal                <BR>amount of Securities of this series.  Securities of this series                 <BR>acquired or redeemed by the Company otherwise than through                      <BR>mandatory sinking fund payments may be credited against                         <BR>subsequent sinking fund payments otherwise required to be made.                 <BR>
SFUND	I	2009/02/17	2009/02/17	1667	1072094	US961548AS34	2017/06/15	USD			The sinking fund for this series provides for the redemption            <BR>on June 15 in each year beginning with the year 2008 and ending                 <BR>with the year 2026 of not less than USD7,500,000 (`mandatory                      <BR>sinking fund`) and not more than USD15,000,000 aggregate principal                <BR>amount of Securities of this series.  Securities of this series                 <BR>acquired or redeemed by the Company otherwise than through                      <BR>mandatory sinking fund payments may be credited against                         <BR>subsequent sinking fund payments otherwise required to be made.                 <BR>
SFUND	I	2009/02/17	2009/02/17	1668	1072094	US961548AS34	2018/06/15	USD			The sinking fund for this series provides for the redemption            <BR>on June 15 in each year beginning with the year 2008 and ending                 <BR>with the year 2026 of not less than USD7,500,000 (`mandatory                      <BR>sinking fund`) and not more than USD15,000,000 aggregate principal                <BR>amount of Securities of this series.  Securities of this series                 <BR>acquired or redeemed by the Company otherwise than through                      <BR>mandatory sinking fund payments may be credited against                         <BR>subsequent sinking fund payments otherwise required to be made.                 <BR>
SFUND	I	2009/02/17	2009/02/17	1669	1072094	US961548AS34	2019/06/15	USD			The sinking fund for this series provides for the redemption            <BR>on June 15 in each year beginning with the year 2008 and ending                 <BR>with the year 2026 of not less than USD7,500,000 (`mandatory                      <BR>sinking fund`) and not more than USD15,000,000 aggregate principal                <BR>amount of Securities of this series.  Securities of this series                 <BR>acquired or redeemed by the Company otherwise than through                      <BR>mandatory sinking fund payments may be credited against                         <BR>subsequent sinking fund payments otherwise required to be made.                 <BR>
SFUND	I	2009/02/17	2009/02/17	1670	1072094	US961548AS34	2020/06/15	USD			The sinking fund for this series provides for the redemption            <BR>on June 15 in each year beginning with the year 2008 and ending                 <BR>with the year 2026 of not less than USD7,500,000 (`mandatory                      <BR>sinking fund`) and not more than USD15,000,000 aggregate principal                <BR>amount of Securities of this series.  Securities of this series                 <BR>acquired or redeemed by the Company otherwise than through                      <BR>mandatory sinking fund payments may be credited against                         <BR>subsequent sinking fund payments otherwise required to be made.                 <BR>
SFUND	I	2009/02/17	2009/02/17	1671	1072094	US961548AS34	2021/06/15	USD			The sinking fund for this series provides for the redemption            <BR>on June 15 in each year beginning with the year 2008 and ending                 <BR>with the year 2026 of not less than BIC_BR7,500,000 (`mandatory                      <BR>sinking fund`) and not more than BIC_BR15,000,000 aggregate principal                <BR>amount of Securities of this series.  Securities of this series                 <BR>acquired or redeemed by the Company otherwise than through                      <BR>mandatory sinking fund payments may be credited against                         <BR>subsequent sinking fund payments otherwise required to be made.                 <BR>
SFUND	I	2009/02/17	2009/02/17	1672	1072094	US961548AS34	2022/06/15	USD			The sinking fund for this series provides for the redemption            <BR>on June 15 in each year beginning with the year 2008 and ending                 <BR>with the year 2026 of not less than USD7,500,000 (`mandatory                      <BR>sinking fund`) and not more than USD15,000,000 aggregate principal                <BR>amount of Securities of this series.  Securities of this series                 <BR>acquired or redeemed by the Company otherwise than through                      <BR>mandatory sinking fund payments may be credited against                         <BR>subsequent sinking fund payments otherwise required to be made.               <BR>  <BR>
SFUND	I	2009/02/17	2009/02/17	1673	1072094	US961548AS34	2023/06/15	USD			The sinking fund for this series provides for the redemption            <BR>on June 15 in each year beginning with the year 2008 and ending                 <BR>with the year 2026 of not less than USD7,500,000 (`mandatory                      <BR>sinking fund`) and not more than USD15,000,000 aggregate principal                <BR>amount of Securities of this series.  Securities of this series                 <BR>acquired or redeemed by the Company otherwise than through                      <BR>mandatory sinking fund payments may be credited against                         <BR>subsequent sinking fund payments otherwise required to be made.                 <BR>
SFUND	I	2009/02/17	2009/02/17	1674	1072094	US961548AS34	2024/06/15	USD			The sinking fund for this series provides for the redemption            <BR>on June 15 in each year beginning with the year 2008 and ending                 <BR>with the year 2026 of not less than USD7,500,000 (`mandatory                      <BR>sinking fund`) and not more than USD15,000,000 aggregate principal                <BR>amount of Securities of this series.  Securities of this series                 <BR>acquired or redeemed by the Company otherwise than through                      <BR>mandatory sinking fund payments may be credited against                         <BR>subsequent sinking fund payments otherwise required to be made.                 <BR>
SFUND	I	2009/02/17	2009/02/17	1675	1072094	US961548AS34	2025/06/15	USD			The sinking fund for this series provides for the redemption            <BR>on June 15 in each year beginning with the year 2008 and ending                 <BR>with the year 2026 of not less than USD7,500,000 (`mandatory                      <BR>sinking fund`) and not more than USD15,000,000 aggregate principal                <BR>amount of Securities of this series.  Securities of this series                 <BR>acquired or redeemed by the Company otherwise than through                      <BR>mandatory sinking fund payments may be credited against                         <BR>subsequent sinking fund payments otherwise required to be made.                 <BR>
SFUND	I	2009/02/17	2009/02/17	1676	1072094	US961548AS34	2026/06/15	USD			The sinking fund for this series provides for the redemption            <BR>on June 15 in each year beginning with the year 2008 and ending                 <BR>with the year 2026 of not less than USD7,500,000 (`mandatory                      <BR>sinking fund`) and not more than USD15,000,000 aggregate principal                <BR>amount of Securities of this series.  Securities of this series                 <BR>acquired or redeemed by the Company otherwise than through                      <BR>mandatory sinking fund payments may be credited against                         <BR>subsequent sinking fund payments otherwise required to be made.                 <BR>
SFUND	I	2009/03/21	2009/03/21	1677	260717	US654894AG96	1998/05/31	USD	5.00000	5.000000000	No further information
SFUND	I	2009/03/21	2009/03/21	1678	260717	US654894AG96	1999/05/31	USD	5.00000	5.000000000	No further information
SFUND	I	2009/03/21	2009/03/21	1679	260717	US654894AG96	2000/05/31	USD	5.00000	5.000000000	No further information
SFUND	I	2009/03/21	2009/03/21	1680	260717	US654894AG96	2001/05/31	USD	5.00000	5.000000000	No further information
SFUND	I	2009/03/21	2009/03/21	1681	260717	US654894AG96	2002/05/31	USD	5.00000	5.000000000	No further information
SFUND	I	2009/03/21	2009/03/21	1682	260717	US654894AG96	2003/05/31	USD	5.00000	5.000000000	No further information
SFUND	I	2009/03/21	2009/03/21	1683	260717	US654894AG96	2004/05/31	USD	5.00000	5.000000000	No further information
SFUND	I	2009/03/21	2009/03/21	1684	260717	US654894AG96	2005/05/31	USD	5.00000	5.000000000	No further information
SFUND	I	2009/03/21	2009/03/21	1685	260717	US654894AG96	2006/05/31	USD	5.00000	5.000000000	No further information
SFUND	I	2009/03/21	2009/03/21	1686	260717	US654894AG96	2007/05/31	USD	5.00000	5.000000000	No further information
SFUND	I	2009/03/21	2009/03/21	1687	260717	US654894AG96	2008/05/31	USD	5.00000	5.000000000	No further information
SFUND	I	2009/03/21	2009/03/21	1688	260717	US654894AG96	2009/05/31	USD	5.00000	5.000000000	No further information
SFUND	I	2009/03/21	2009/03/21	1689	260717	US654894AG96	2010/05/31	USD	5.00000	5.000000000	No further information
SFUND	I	2009/03/21	2009/03/21	1690	260717	US654894AG96	2011/05/31	USD	5.00000	5.000000000	No further information
SFUND	I	2009/10/24	2009/10/24	1691	726133	US485260BH57	2007/09/29	USD	5.39375		No further information
SFUND	I	2009/10/24	2009/10/24	1692	726133	US485260BH57	2008/09/29	USD	15.12580		No further information
SFUND	I	2009/10/24	2009/10/24	1693	726133	US485260BH57	2009/09/29	USD	16.05230		No further information
SFUND	I	2009/10/24	2009/10/24	1694	726133	US485260BH57	2010/09/29	USD	17.03550		No further information
SFUND	I	2009/10/24	2009/10/24	1695	726133	US485260BH57	2011/09/29	USD	18.07890		No further information
SFUND	I	2009/10/24	2009/10/24	1696	726133	US485260BH57	2012/09/29	USD	19.18620		No further information
SFUND	I	2009/10/24	2009/10/24	1697	726133	US485260BH57	2013/03/29	USD	21.00460		No further information
SFUND	I	2009/10/24	2009/10/24	1698	726133	US485260BH57	2014/03/29	USD	22.33180		No further information
SFUND	I	2009/10/24	2009/10/24	1699	726133	US485260BH57	2015/03/29	USD	23.74290		No further information
SFUND	I	2009/10/24	2009/10/24	1700	726133	US485260BH57	2016/03/29	USD	25.24310		No further information
SFUND	I	2009/10/24	2009/10/24	1701	726133	US485260BH57	2017/03/29	USD	26.83810		No further information
SFUND	I	2009/10/24	2009/10/24	1702	726133	US485260BH57	2018/03/29	USD	28.53380		No further information
SFUND	I	2009/10/24	2009/10/24	1703	726133	US485260BH57	2019/03/29	USD	30.33670		No further information
SFUND	I	2009/10/24	2009/10/24	1704	726133	US485260BH57	2020/03/29	USD	32.25360		No further information
SFUND	I	2009/10/24	2009/10/24	1705	726133	US485260BH57	2021/03/29	USD	18.84240		No further information
SFUND	I	2009/11/27	2009/11/27	1720	1669532	US961548AQ77	2008/03/15	USD	7.50000		No further information
SFUND	I	2009/11/27	2009/11/27	1721	1669532	US961548AQ77	2009/03/15	USD		7.500000000	No further information
SFUND	I	2009/11/27	2009/11/27	1722	1669532	US961548AQ77	2010/03/15	USD	7.50000		No further information
SFUND	I	2009/11/27	2009/11/27	1723	1669532	US961548AQ77	2011/03/15	USD	7.50000		No further information
SFUND	I	2009/11/27	2009/11/27	1724	1669532	US961548AQ77	2012/03/15	USD	7.50000		No further information
SFUND	I	2009/11/27	2009/11/27	1725	1669532	US961548AQ77	2013/03/15	USD	7.50000		No further information
SFUND	I	2009/11/27	2009/11/27	1726	1669532	US961548AQ77	2014/03/15	USD	7.50000		No further information
SFUND	I	2009/11/27	2009/11/27	1727	1669532	US961548AQ77	2015/03/15	USD	7.50000		No further information
SFUND	I	2009/11/27	2009/11/27	1728	1669532	US961548AQ77	2016/03/15	USD	7.50000		No further information
SFUND	I	2009/11/27	2009/11/27	1729	1669532	US961548AQ77	2017/03/15	USD	7.50000		No further information
SFUND	I	2009/11/27	2009/11/27	1730	1669532	US961548AQ77	2018/03/15	USD	7.50000		No further information
SFUND	I	2009/11/27	2009/11/27	1731	1669532	US961548AQ77	2019/03/15	USD	7.50000		No further information
SFUND	I	2009/11/27	2009/11/27	1732	1669532	US961548AQ77	2020/03/15	USD	7.50000		No further information
SFUND	I	2009/11/27	2009/11/27	1733	1669532	US961548AQ77	2021/03/15	USD	7.50000		No further information
SFUND	I	2009/11/27	2009/11/27	1734	1669532	US961548AQ77	2022/03/15	USD	7.50000		No further information
SFUND	I	2009/11/27	2009/11/27	1735	1669532	US961548AQ77	2023/03/15	USD	7.50000		No further information
SFUND	I	2009/11/27	2009/11/27	1736	1669532	US961548AQ77	2024/03/15	USD	7.50000		No further information
SFUND	I	2009/11/27	2009/11/27	1737	1669532	US961548AQ77	2025/03/15	USD	7.50000		No further information
SFUND	I	2009/11/27	2009/11/27	1738	1669532	US961548AQ77	2026/03/15	USD	7.50000		No further information
SFUND	I	2009/11/27	2009/11/27	1739	1669532	US961548AQ77	2027/03/15	USD	7.50000		No further information
SFUND	I	2012/03/28	2012/03/28	2303	1588075	US00110AAC80	2013/07/01	USD	41.90359		No further information
SFUND	I	2012/03/28	2012/03/28	2304	1588075	US00110AAC80	2014/01/01	USD	72.46117		No further information
SFUND	I	2012/03/28	2012/03/28	2305	1588075	US00110AAC80	2014/07/01	USD	54.66485		No further information
SFUND	I	2012/03/28	2012/03/28	2306	1588075	US00110AAC80	2015/01/01	USD	77.88807		No further information
SFUND	I	2012/03/28	2012/03/28	2307	1588075	US00110AAC80	2015/07/01	USD	3.08230		No further information
SFUND	I	2013/06/17	2013/06/17	2407	4041962	US54909WAB46	2027/07/01	USD	4.36500		No further information
SFUND	I	2013/06/17	2013/06/17	2408	4041962	US54909WAB46	2028/07/01	USD	4.57000		No further information
SFUND	I	2013/06/17	2013/06/17	2409	4041962	US54909WAB46	2029/07/01	USD	4.78000		No further information
SFUND	I	2013/06/17	2013/06/17	2410	4041962	US54909WAB46	2030/07/01	USD	4.99500		No further information
SFUND	I	2013/06/17	2013/06/17	2411	4041962	US54909WAB46	2031/07/01	USD	5.22500		No further information
SFUND	I	2013/06/17	2013/06/17	2412	4041962	US54909WAB46	2032/07/01	USD	5.47000		No further information
SFUND	I	2013/06/17	2013/06/17	2413	4041962	US54909WAB46	2033/07/01	USD	5.72000		No further information
SFUND	I	2013/06/17	2013/06/17	2414	4041962	US54909WAB46	2034/07/01	USD	5.98000		No further information
SFUND	I	2013/06/17	2013/06/17	2415	4041962	US54909WAB46	2035/07/01	USD	6.25500		No further information
SFUND	I	2013/06/17	2013/06/17	2416	4041962	US54909WAB46	2036/07/01	USD	6.54500		No further information
SFUND	I	2013/06/17	2013/06/17	2417	4041962	US54909WAB46	2037/07/01	USD	6.84500		No further information
SFUND	I	2013/06/17	2013/06/17	2418	4041962	US54909WAB46	2038/07/01	USD	7.16000		No further information
SFUND	I	2013/06/17	2013/06/17	2419	4041962	US54909WAB46	2039/07/01	USD	7.49000		No further information
SFUND	I	2013/06/17	2013/06/17	2420	4041962	US54909WAB46	2040/07/01	USD	7.83500		No further information
SFUND	I	2013/06/17	2013/06/17	2421	4041962	US54909WAB46	2041/07/01	USD	8.19500		No further information
SFUND	I	2013/06/17	2013/06/17	2422	4041962	US54909WAB46	2042/07/01	USD	8.57000		No further information
SFUND	I	2013/09/05	2013/09/05	2428	2158883	US056037AF10	2001/06/01	USD	0.10100		No further information
SFUND	I	2013/09/05	2013/09/05	2429	2158883	US056037AF10	2001/12/01	USD	2.33700		No further information
SFUND	I	2013/09/05	2013/09/05	2431	2158883	US056037AF10	2002/12/01	USD	3.32100		No further information
SFUND	I	2013/09/05	2013/09/05	2432	2158883	US056037AF10	2003/06/01	USD	3.35900		No further information
SFUND	I	2013/09/05	2013/09/05	2433	2158883	US056037AF10	2002/06/01	USD	2.53100		No further information
SFUND	I	2013/09/05	2013/09/05	2434	2158883	US056037AF10	2003/12/01	USD	4.16900		No further information
SFUND	I	2013/09/05	2013/09/05	2435	2158883	US056037AF10	2004/06/01	USD	3.21900		No further information
SFUND	I	2013/09/05	2013/09/05	2436	2158883	US056037AF10	2004/12/01	USD	4.13500		No further information
SFUND	I	2013/09/05	2013/09/05	2437	2158883	US056037AF10	2005/06/01	USD	2.88800		No further information
SFUND	I	2013/09/05	2013/09/05	2438	2158883	US056037AF10	2005/12/01	USD	3.35400		No further information
SFUND	I	2013/09/05	2013/09/05	2439	2158883	US056037AF10	2006/06/01	USD	2.68100		No further information
SFUND	I	2013/09/05	2013/09/05	2440	2158883	US056037AF10	2006/12/01	USD	3.11700		No further information
SFUND	I	2013/09/05	2013/09/05	2441	2158883	US056037AF10	2007/06/01	USD	2.81100		No further information
SFUND	I	2013/09/05	2013/09/05	2442	2158883	US056037AF10	2007/12/01	USD	3.23800		No further information
SFUND	I	2013/09/05	2013/09/05	2443	2158883	US056037AF10	2008/06/01	USD	3.33700		No further information
SFUND	I	2013/09/05	2013/09/05	2444	2158883	US056037AF10	2008/12/01	USD	3.75500		No further information
SFUND	I	2013/09/05	2013/09/05	2445	2158883	US056037AF10	2009/06/01	USD	3.63600		No further information
SFUND	I	2013/09/05	2013/09/05	2446	2158883	US056037AF10	2009/12/01	USD	4.08600		No further information
SFUND	I	2013/09/05	2013/09/05	2447	2158883	US056037AF10	2010/06/01	USD	3.90400		No further information
SFUND	I	2013/09/05	2013/09/05	2448	2158883	US056037AF10	2010/12/01	USD	4.38700		No further information
SFUND	I	2013/09/05	2013/09/05	2449	2158883	US056037AF10	2011/06/01	USD	4.17500		No further information
SFUND	I	2013/09/05	2013/09/05	2450	2158883	US056037AF10	2011/12/01	USD	4.83900		No further information
SFUND	I	2013/09/05	2013/09/05	2451	2158883	US056037AF10	2012/06/01	USD	6.50200		No further information
SFUND	I	2013/09/05	2013/09/05	2452	2158883	US056037AF10	2012/12/01	USD	7.39600		No further information
SFUND	I	2013/09/05	2013/09/05	2453	2158883	US056037AF10	2013/06/01	USD	7.86100		No further information
SFUND	I	2013/09/05	2013/09/05	2454	2158883	US056037AF10	2013/12/01	USD	8.20900		No further information
SFUND	I	2013/09/05	2013/09/05	2455	2158883	US056037AF10	2014/06/01	USD	8.55400		No further information
SFUND	I	2013/09/05	2013/09/05	2456	2158883	US056037AF10	2014/12/01	USD	8.25200		No further information
SFUND	I	2013/09/05	2013/09/05	2457	2158883	US056037AF10	2015/06/01	USD	7.87700		No further information
SFUND	I	2013/09/05	2013/09/05	2458	2158883	US056037AF10	2015/12/01	USD			No further information
SFUND	I	2013/09/05	2013/09/05	2459	2158883	US056037AF10	2016/06/01	USD	0.57300		No further information
SFUND	I	2013/09/05	2013/09/05	2460	2158883	US056037AF10	2016/12/01	USD	0.00100		No further information
SFUND	I	2013/09/05	2013/09/05	2461	2158883	US056037AF10	2017/06/01	USD	1.23100		No further information
SFUND	I	2013/09/06	2013/09/06	2462	1842531	US771367CA58	2009/06/30	USD	0.33354		Sinking and Improvement Fund<BR>While any first mortgage bonds issued under the mortgage are outstanding, we will, on or before<BR>June 30 of each year, deposit USD333,540 with the mortgage trustee. We may credit against this amount<BR>(i) up to 60% of the bondable value of property additions or (ii) the principal amount of prior liens or<BR>charges and first mortgage bonds issued under the mortgage which might then be made the basis for<BR>the issuance of first mortgage bonds under the mortgage. Cash so deposited with the mortgage trustee<BR>may be withdrawn or used as provided in the mortgage to purchase or redeem first mortgage bonds, or<BR>for other purposes. If on any December 31 the mortgage trustee holds USD250,000 or more so deposited,<BR>such cash must be used to purchase first mortgage bonds, or to redeem first mortgage bonds which by<BR>their terms are redeemable prior to maturity. (See section 4.19 of the mortgage.)<BR>
SFUND	I	2013/09/06	2013/09/06	2463	1842531	US771367CA58	2010/06/30	USD	0.33354		Sinking and Improvement Fund<BR>While any first mortgage bonds issued under the mortgage are outstanding, we will, on or before<BR>June 30 of each year, deposit USD333,540 with the mortgage trustee. We may credit against this amount<BR>(i) up to 60% of the bondable value of property additions or (ii) the principal amount of prior liens or<BR>charges and first mortgage bonds issued under the mortgage which might then be made the basis for<BR>the issuance of first mortgage bonds under the mortgage. Cash so deposited with the mortgage trustee<BR>may be withdrawn or used as provided in the mortgage to purchase or redeem first mortgage bonds, or<BR>for other purposes. If on any December 31 the mortgage trustee holds USD250,000 or more so deposited,<BR>such cash must be used to purchase first mortgage bonds, or to redeem first mortgage bonds which by<BR>their terms are redeemable prior to maturity. (See section 4.19 of the mortgage.)<BR>
SFUND	I	2013/09/06	2013/09/06	2464	1842531	US771367CA58	2011/06/30	USD	0.33354		Sinking and Improvement Fund<BR>While any first mortgage bonds issued under the mortgage are outstanding, we will, on or before<BR>June 30 of each year, deposit USD333,540 with the mortgage trustee. We may credit against this amount<BR>(i) up to 60% of the bondable value of property additions or (ii) the principal amount of prior liens or<BR>charges and first mortgage bonds issued under the mortgage which might then be made the basis for<BR>the issuance of first mortgage bonds under the mortgage. Cash so deposited with the mortgage trustee<BR>may be withdrawn or used as provided in the mortgage to purchase or redeem first mortgage bonds, or<BR>for other purposes. If on any December 31 the mortgage trustee holds USD250,000 or more so deposited,<BR>such cash must be used to purchase first mortgage bonds, or to redeem first mortgage bonds which by<BR>their terms are redeemable prior to maturity. (See section 4.19 of the mortgage.)<BR>
SFUND	I	2013/09/06	2013/09/06	2465	1842531	US771367CA58	2012/06/30	USD	0.33354		Sinking and Improvement Fund<BR>While any first mortgage bonds issued under the mortgage are outstanding, we will, on or before<BR>June 30 of each year, deposit USD333,540 with the mortgage trustee. We may credit against this amount<BR>(i) up to 60% of the bondable value of property additions or (ii) the principal amount of prior liens or<BR>charges and first mortgage bonds issued under the mortgage which might then be made the basis for<BR>the issuance of first mortgage bonds under the mortgage. Cash so deposited with the mortgage trustee<BR>may be withdrawn or used as provided in the mortgage to purchase or redeem first mortgage bonds, or<BR>for other purposes. If on any December 31 the mortgage trustee holds USD250,000 or more so deposited,<BR>such cash must be used to purchase first mortgage bonds, or to redeem first mortgage bonds which by<BR>their terms are redeemable prior to maturity. (See section 4.19 of the mortgage.)<BR><BR>
SFUND	I	2013/09/06	2013/09/06	2466	1842531	US771367CA58	2013/06/30	USD	0.33354		Sinking and Improvement Fund<BR>While any first mortgage bonds issued under the mortgage are outstanding, we will, on or before<BR>June 30 of each year, deposit USD333,540 with the mortgage trustee. We may credit against this amount<BR>(i) up to 60% of the bondable value of property additions or (ii) the principal amount of prior liens or<BR>charges and first mortgage bonds issued under the mortgage which might then be made the basis for<BR>the issuance of first mortgage bonds under the mortgage. Cash so deposited with the mortgage trustee<BR>may be withdrawn or used as provided in the mortgage to purchase or redeem first mortgage bonds, or<BR>for other purposes. If on any December 31 the mortgage trustee holds USD250,000 or more so deposited,<BR>such cash must be used to purchase first mortgage bonds, or to redeem first mortgage bonds which by<BR>their terms are redeemable prior to maturity. (See section 4.19 of the mortgage.)<BR>
SFUND	I	2013/09/06	2013/09/06	2467	1842531	US771367CA58	2014/06/30	USD	0.33354		Sinking and Improvement Fund<BR>While any first mortgage bonds issued under the mortgage are outstanding, we will, on or before<BR>June 30 of each year, deposit USD333,540 with the mortgage trustee. We may credit against this amount<BR>(i) up to 60% of the bondable value of property additions or (ii) the principal amount of prior liens or<BR>charges and first mortgage bonds issued under the mortgage which might then be made the basis for<BR>the issuance of first mortgage bonds under the mortgage. Cash so deposited with the mortgage trustee<BR>may be withdrawn or used as provided in the mortgage to purchase or redeem first mortgage bonds, or<BR>for other purposes. If on any December 31 the mortgage trustee holds USD250,000 or more so deposited,<BR>such cash must be used to purchase first mortgage bonds, or to redeem first mortgage bonds which by<BR>their terms are redeemable prior to maturity. (See section 4.19 of the mortgage.)<BR>
SFUND	I	2013/09/06	2013/09/06	2468	1842531	US771367CA58	2015/06/30	USD	0.33354		Sinking and Improvement Fund<BR>While any first mortgage bonds issued under the mortgage are outstanding, we will, on or before<BR>June 30 of each year, deposit USD333,540 with the mortgage trustee. We may credit against this amount<BR>(i) up to 60% of the bondable value of property additions or (ii) the principal amount of prior liens or<BR>charges and first mortgage bonds issued under the mortgage which might then be made the basis for<BR>the issuance of first mortgage bonds under the mortgage. Cash so deposited with the mortgage trustee<BR>may be withdrawn or used as provided in the mortgage to purchase or redeem first mortgage bonds, or<BR>for other purposes. If on any December 31 the mortgage trustee holds USD250,000 or more so deposited,<BR>such cash must be used to purchase first mortgage bonds, or to redeem first mortgage bonds which by<BR>their terms are redeemable prior to maturity. (See section 4.19 of the mortgage.)<BR>
SFUND	I	2013/09/06	2013/09/06	2469	1842531	US771367CA58	2016/06/30	USD	0.33354		Sinking and Improvement Fund<BR>While any first mortgage bonds issued under the mortgage are outstanding, we will, on or before<BR>June 30 of each year, deposit USD333,540 with the mortgage trustee. We may credit against this amount<BR>(i) up to 60% of the bondable value of property additions or (ii) the principal amount of prior liens or<BR>charges and first mortgage bonds issued under the mortgage which might then be made the basis for<BR>the issuance of first mortgage bonds under the mortgage. Cash so deposited with the mortgage trustee<BR>may be withdrawn or used as provided in the mortgage to purchase or redeem first mortgage bonds, or<BR>for other purposes. If on any December 31 the mortgage trustee holds USD250,000 or more so deposited,<BR>such cash must be used to purchase first mortgage bonds, or to redeem first mortgage bonds which by<BR>their terms are redeemable prior to maturity. (See section 4.19 of the mortgage.)<BR>
SFUND	I	2013/09/06	2013/09/06	2471	1842531	US771367CA58	2018/06/30	USD	0.33354		Sinking and Improvement Fund<BR>While any first mortgage bonds issued under the mortgage are outstanding, we will, on or before<BR>June 30 of each year, deposit USD333,540 with the mortgage trustee. We may credit against this amount<BR>(i) up to 60% of the bondable value of property additions or (ii) the principal amount of prior liens or<BR>charges and first mortgage bonds issued under the mortgage which might then be made the basis for<BR>the issuance of first mortgage bonds under the mortgage. Cash so deposited with the mortgage trustee<BR>may be withdrawn or used as provided in the mortgage to purchase or redeem first mortgage bonds, or<BR>for other purposes. If on any December 31 the mortgage trustee holds USD250,000 or more so deposited,<BR>such cash must be used to purchase first mortgage bonds, or to redeem first mortgage bonds which by<BR>their terms are redeemable prior to maturity. (See section 4.19 of the mortgage.)<BR>
SFUND	I	2013/09/06	2013/09/06	2472	1842531	US771367CA58	2019/06/30	USD	0.33354		Sinking and Improvement Fund<BR>While any first mortgage bonds issued under the mortgage are outstanding, we will, on or before<BR>June 30 of each year, deposit USD333,540 with the mortgage trustee. We may credit against this amount<BR>(i) up to 60% of the bondable value of property additions or (ii) the principal amount of prior liens or<BR>charges and first mortgage bonds issued under the mortgage which might then be made the basis for<BR>the issuance of first mortgage bonds under the mortgage. Cash so deposited with the mortgage trustee<BR>may be withdrawn or used as provided in the mortgage to purchase or redeem first mortgage bonds, or<BR>for other purposes. If on any December 31 the mortgage trustee holds USD250,000 or more so deposited,<BR>such cash must be used to purchase first mortgage bonds, or to redeem first mortgage bonds which by<BR>their terms are redeemable prior to maturity. (See section 4.19 of the mortgage.)<BR>
SFUND	I	2013/09/06	2013/09/06	2473	1842531	US771367CA58	2020/06/30	USD	0.33354		Sinking and Improvement Fund<BR>While any first mortgage bonds issued under the mortgage are outstanding, we will, on or before<BR>June 30 of each year, deposit USD333,540 with the mortgage trustee. We may credit against this amount<BR>(i) up to 60% of the bondable value of property additions or (ii) the principal amount of prior liens or<BR>charges and first mortgage bonds issued under the mortgage which might then be made the basis for<BR>the issuance of first mortgage bonds under the mortgage. Cash so deposited with the mortgage trustee<BR>may be withdrawn or used as provided in the mortgage to purchase or redeem first mortgage bonds, or<BR>for other purposes. If on any December 31 the mortgage trustee holds USD250,000 or more so deposited,<BR>such cash must be used to purchase first mortgage bonds, or to redeem first mortgage bonds which by<BR>their terms are redeemable prior to maturity. (See section 4.19 of the mortgage.)<BR>
SFUND	I	2013/09/06	2013/09/06	2474	1842531	US771367CA58	2021/06/30	USD	0.33354		Sinking and Improvement Fund<BR>While any first mortgage bonds issued under the mortgage are outstanding, we will, on or before<BR>June 30 of each year, deposit USD333,540 with the mortgage trustee. We may credit against this amount<BR>(i) up to 60% of the bondable value of property additions or (ii) the principal amount of prior liens or<BR>charges and first mortgage bonds issued under the mortgage which might then be made the basis for<BR>the issuance of first mortgage bonds under the mortgage. Cash so deposited with the mortgage trustee<BR>may be withdrawn or used as provided in the mortgage to purchase or redeem first mortgage bonds, or<BR>for other purposes. If on any December 31 the mortgage trustee holds USD250,000 or more so deposited,<BR>such cash must be used to purchase first mortgage bonds, or to redeem first mortgage bonds which by<BR>their terms are redeemable prior to maturity. (See section 4.19 of the mortgage.)<BR>
SFUND	I	2013/09/06	2013/09/06	2475	1842531	US771367CA58	2022/06/30	USD	0.33354		Sinking and Improvement Fund<BR>While any first mortgage bonds issued under the mortgage are outstanding, we will, on or before<BR>June 30 of each year, deposit USD333,540 with the mortgage trustee. We may credit against this amount<BR>(i) up to 60% of the bondable value of property additions or (ii) the principal amount of prior liens or<BR>charges and first mortgage bonds issued under the mortgage which might then be made the basis for<BR>the issuance of first mortgage bonds under the mortgage. Cash so deposited with the mortgage trustee<BR>may be withdrawn or used as provided in the mortgage to purchase or redeem first mortgage bonds, or<BR>for other purposes. If on any December 31 the mortgage trustee holds USD250,000 or more so deposited,<BR>such cash must be used to purchase first mortgage bonds, or to redeem first mortgage bonds which by<BR>their terms are redeemable prior to maturity. (See section 4.19 of the mortgage.)<BR>
SFUND	I	2013/09/06	2013/09/06	2476	1842531	US771367CA58	2023/06/30	USD	0.33354		Sinking and Improvement Fund<BR>While any first mortgage bonds issued under the mortgage are outstanding, we will, on or before<BR>June 30 of each year, deposit USD333,540 with the mortgage trustee. We may credit against this amount<BR>(i) up to 60% of the bondable value of property additions or (ii) the principal amount of prior liens or<BR>charges and first mortgage bonds issued under the mortgage which might then be made the basis for<BR>the issuance of first mortgage bonds under the mortgage. Cash so deposited with the mortgage trustee<BR>may be withdrawn or used as provided in the mortgage to purchase or redeem first mortgage bonds, or<BR>for other purposes. If on any December 31 the mortgage trustee holds USD250,000 or more so deposited,<BR>such cash must be used to purchase first mortgage bonds, or to redeem first mortgage bonds which by<BR>their terms are redeemable prior to maturity. (See section 4.19 of the mortgage.)<BR>
SFUND	I	2013/09/06	2013/09/06	2477	1842531	US771367CA58	2024/06/30	USD	0.33354		Sinking and Improvement Fund<BR>While any first mortgage bonds issued under the mortgage are outstanding, we will, on or before<BR>June 30 of each year, deposit USD333,540 with the mortgage trustee. We may credit against this amount<BR>(i) up to 60% of the bondable value of property additions or (ii) the principal amount of prior liens or<BR>charges and first mortgage bonds issued under the mortgage which might then be made the basis for<BR>the issuance of first mortgage bonds under the mortgage. Cash so deposited with the mortgage trustee<BR>may be withdrawn or used as provided in the mortgage to purchase or redeem first mortgage bonds, or<BR>for other purposes. If on any December 31 the mortgage trustee holds USD250,000 or more so deposited,<BR>such cash must be used to purchase first mortgage bonds, or to redeem first mortgage bonds which by<BR>their terms are redeemable prior to maturity. (See section 4.19 of the mortgage.)<BR>
SFUND	I	2013/09/06	2013/09/06	2478	1842531	US771367CA58	2025/06/30	USD	0.33354		Sinking and Improvement Fund<BR>While any first mortgage bonds issued under the mortgage are outstanding, we will, on or before<BR>June 30 of each year, deposit USD333,540 with the mortgage trustee. We may credit against this amount<BR>(i) up to 60% of the bondable value of property additions or (ii) the principal amount of prior liens or<BR>charges and first mortgage bonds issued under the mortgage which might then be made the basis for<BR>the issuance of first mortgage bonds under the mortgage. Cash so deposited with the mortgage trustee<BR>may be withdrawn or used as provided in the mortgage to purchase or redeem first mortgage bonds, or<BR>for other purposes. If on any December 31 the mortgage trustee holds USD250,000 or more so deposited,<BR>such cash must be used to purchase first mortgage bonds, or to redeem first mortgage bonds which by<BR>their terms are redeemable prior to maturity. (See section 4.19 of the mortgage.)<BR>
SFUND	I	2013/09/06	2013/09/06	2479	1842531	US771367CA58	2026/06/30	USD	0.33354		Sinking and Improvement Fund<BR>While any first mortgage bonds issued under the mortgage are outstanding, we will, on or before<BR>June 30 of each year, deposit USD333,540 with the mortgage trustee. We may credit against this amount<BR>(i) up to 60% of the bondable value of property additions or (ii) the principal amount of prior liens or<BR>charges and first mortgage bonds issued under the mortgage which might then be made the basis for<BR>the issuance of first mortgage bonds under the mortgage. Cash so deposited with the mortgage trustee<BR>may be withdrawn or used as provided in the mortgage to purchase or redeem first mortgage bonds, or<BR>for other purposes. If on any December 31 the mortgage trustee holds USD250,000 or more so deposited,<BR>such cash must be used to purchase first mortgage bonds, or to redeem first mortgage bonds which by<BR>their terms are redeemable prior to maturity. (See section 4.19 of the mortgage.)<BR>
SFUND	I	2013/10/26	2013/10/26	2530	3954037	US29366AAA25	2012/06/01	USD	12.32786		No further information
SFUND	I	2013/10/26	2013/10/26	2531	3954037	US29366AAA25	2012/12/01	USD	13.24456		No further information
SFUND	I	2013/10/26	2013/10/26	2532	3954037	US29366AAA25	2013/06/01	USD	6.71115		No further information
SFUND	I	2013/10/26	2013/10/26	2533	3954037	US29366AAA25	2013/12/01	USD	9.87980		No further information
SFUND	I	2013/10/26	2013/10/26	2534	3954037	US29366AAA25	2014/06/01	USD	10.44860		No further information
SFUND	I	2013/10/26	2013/10/26	2535	3954037	US29366AAA25	2014/12/01	USD	11.48035		No further information
SFUND	I	2013/10/26	2013/10/26	2536	3954037	US29366AAA25	2015/06/01	USD	9.27916		No further information
SFUND	I	2013/10/26	2013/10/26	2537	3954037	US29366AAA25	2015/12/01	USD	11.21666		No further information
SFUND	I	2013/10/26	2013/10/26	2538	3954037	US29366AAA25	2016/06/01	USD	9.96360		No further information
SFUND	I	2013/10/26	2013/10/26	2539	3954037	US29366AAA25	2016/12/01	USD	11.63220		No further information
SFUND	I	2013/10/26	2013/10/26	2540	3954037	US29366AAA25	2017/06/01	USD	9.98443		No further information
SFUND	I	2013/10/26	2013/10/26	2541	3954037	US29366AAA25	2017/12/01	USD	11.75993		No further information
SFUND	I	2013/10/26	2013/10/26	2542	3954037	US29366AAA25	2018/06/01	USD	10.29899		No further information
SFUND	I	2013/10/26	2013/10/26	2543	3954037	US29366AAA25	2018/12/01	USD	12.01829		No further information
SFUND	I	2013/10/26	2013/10/26	2544	3954037	US29366AAA25	2019/06/01	USD	10.49326		No further information
SFUND	I	2013/10/26	2013/10/26	2545	3954037	US29366AAA25	2019/12/01	USD	12.23151		No further information
SFUND	I	2013/10/26	2013/10/26	2546	3954037	US29366AAA25	2020/06/01	USD	10.74145		No further information
SFUND	I	2013/10/26	2013/10/26	2547	3954037	US29366AAA25	2020/12/01	USD	12.46385		No further information
SFUND	I	2013/10/26	2013/10/26	2548	3954037	US29366AAA25	2021/06/01	USD	10.98013		No further information
SFUND	I	2013/09/06	2013/09/06	2480	1842531	US771367CA58	2027/06/30	USD	0.33354		Sinking and Improvement Fund<BR>While any first mortgage bonds issued under the mortgage are outstanding, we will, on or before<BR>June 30 of each year, deposit USD333,540 with the mortgage trustee. We may credit against this amount<BR>(i) up to 60% of the bondable value of property additions or (ii) the principal amount of prior liens or<BR>charges and first mortgage bonds issued under the mortgage which might then be made the basis for<BR>the issuance of first mortgage bonds under the mortgage. Cash so deposited with the mortgage trustee<BR>may be withdrawn or used as provided in the mortgage to purchase or redeem first mortgage bonds, or<BR>for other purposes. If on any December 31 the mortgage trustee holds USD250,000 or more so deposited,<BR>such cash must be used to purchase first mortgage bonds, or to redeem first mortgage bonds which by<BR>their terms are redeemable prior to maturity. (See section 4.19 of the mortgage.)<BR>
SFUND	I	2013/09/06	2013/09/06	2481	1842531	US771367CA58	2028/06/30	USD	0.33354		Sinking and Improvement Fund<BR>While any first mortgage bonds issued under the mortgage are outstanding, we will, on or before<BR>June 30 of each year, deposit USD333,540 with the mortgage trustee. We may credit against this amount<BR>(i) up to 60% of the bondable value of property additions or (ii) the principal amount of prior liens or<BR>charges and first mortgage bonds issued under the mortgage which might then be made the basis for<BR>the issuance of first mortgage bonds under the mortgage. Cash so deposited with the mortgage trustee<BR>may be withdrawn or used as provided in the mortgage to purchase or redeem first mortgage bonds, or<BR>for other purposes. If on any December 31 the mortgage trustee holds USD250,000 or more so deposited,<BR>such cash must be used to purchase first mortgage bonds, or to redeem first mortgage bonds which by<BR>their terms are redeemable prior to maturity. (See section 4.19 of the mortgage.)<BR>
SFUND	I	2013/09/06	2013/09/06	2482	1842531	US771367CA58	2029/06/30	USD	0.33354		Sinking and Improvement Fund<BR>While any first mortgage bonds issued under the mortgage are outstanding, we will, on or before<BR>June 30 of each year, deposit USD333,540 with the mortgage trustee. We may credit against this amount<BR>(i) up to 60% of the bondable value of property additions or (ii) the principal amount of prior liens or<BR>charges and first mortgage bonds issued under the mortgage which might then be made the basis for<BR>the issuance of first mortgage bonds under the mortgage. Cash so deposited with the mortgage trustee<BR>may be withdrawn or used as provided in the mortgage to purchase or redeem first mortgage bonds, or<BR>for other purposes. If on any December 31 the mortgage trustee holds USD250,000 or more so deposited,<BR>such cash must be used to purchase first mortgage bonds, or to redeem first mortgage bonds which by<BR>their terms are redeemable prior to maturity. (See section 4.19 of the mortgage.)<BR>
SFUND	I	2013/09/06	2013/09/06	2483	1842531	US771367CA58	2030/06/30	USD	0.33354		Sinking and Improvement Fund<BR>While any first mortgage bonds issued under the mortgage are outstanding, we will, on or before<BR>June 30 of each year, deposit USD333,540 with the mortgage trustee. We may credit against this amount<BR>(i) up to 60% of the bondable value of property additions or (ii) the principal amount of prior liens or<BR>charges and first mortgage bonds issued under the mortgage which might then be made the basis for<BR>the issuance of first mortgage bonds under the mortgage. Cash so deposited with the mortgage trustee<BR>may be withdrawn or used as provided in the mortgage to purchase or redeem first mortgage bonds, or<BR>for other purposes. If on any December 31 the mortgage trustee holds USD250,000 or more so deposited,<BR>such cash must be used to purchase first mortgage bonds, or to redeem first mortgage bonds which by<BR>their terms are redeemable prior to maturity. (See section 4.19 of the mortgage.)<BR>
SFUND	I	2013/09/06	2013/09/06	2484	1842531	US771367CA58	2031/06/30	USD	0.33354		Sinking and Improvement Fund<BR>While any first mortgage bonds issued under the mortgage are outstanding, we will, on or before<BR>June 30 of each year, deposit USD333,540 with the mortgage trustee. We may credit against this amount<BR>(i) up to 60% of the bondable value of property additions or (ii) the principal amount of prior liens or<BR>charges and first mortgage bonds issued under the mortgage which might then be made the basis for<BR>the issuance of first mortgage bonds under the mortgage. Cash so deposited with the mortgage trustee<BR>may be withdrawn or used as provided in the mortgage to purchase or redeem first mortgage bonds, or<BR>for other purposes. If on any December 31 the mortgage trustee holds USD250,000 or more so deposited,<BR>such cash must be used to purchase first mortgage bonds, or to redeem first mortgage bonds which by<BR>their terms are redeemable prior to maturity. (See section 4.19 of the mortgage.)<BR>
SFUND	I	2013/11/26	2013/11/26	2549	4149275	USU0080RAC44	2008/11/01	USD	6.25000		No further information
SFUND	I	2013/11/26	2013/11/26	2550	4149275	USU0080RAC44	2009/11/01	USD	6.25000		No further information
SFUND	I	2013/11/26	2013/11/26	2551	4149275	USU0080RAC44	2010/11/01	USD	6.25000		No further information
SFUND	I	2013/11/26	2013/11/26	2552	4149275	USU0080RAC44	2011/11/01	USD	6.25000		No further information
SFUND	I	2013/11/26	2013/11/26	2553	4149275	USU0080RAC44	2012/11/01	USD	6.25000		No further information
SFUND	I	2013/11/26	2013/11/26	2554	4149275	USU0080RAC44	2013/11/01	USD	6.25000		No further information
SFUND	I	2013/11/26	2013/11/26	2555	4149275	USU0080RAC44	2014/11/01	USD	6.25000		No further information
SFUND	I	2013/11/26	2013/11/26	2556	4149275	USU0080RAC44	2015/11/01	USD	6.25000		No further information
SFUND	I	2013/11/26	2013/11/26	2557	4149275	USU0080RAC44	2016/11/01	USD	6.25000		No further information
SFUND	I	2013/11/26	2013/11/26	2558	4149275	USU0080RAC44	2017/11/01	USD	6.25000		No further information
SFUND	I	2013/11/26	2013/11/26	2559	4149275	USU0080RAC44	2018/11/01	USD	6.25000		No further information
SFUND	I	2013/11/26	2013/11/26	2560	4149275	USU0080RAC44	2019/11/01	USD	6.25000		No further information
SFUND	I	2013/11/26	2013/11/26	2561	4149275	USU0080RAC44	2020/11/01	USD	6.25000		No further information
SFUND	I	2013/11/26	2013/11/26	2562	4149275	USU0080RAC44	2021/11/01	USD	6.25000		No further information
SFUND	I	2013/11/26	2013/11/26	2563	4149275	USU0080RAC44	2022/11/01	USD	6.25000		No further information
SFUND	I	2013/11/26	2013/11/26	2564	4149275	USU0080RAC44	2023/11/01	USD	6.25000		No further information
SFUND	I	2013/11/26	2013/11/26	2565	4149275	USU0080RAC44	2024/11/01	USD	6.25000		No further information
SFUND	I	2013/11/26	2013/11/26	2566	4149275	USU0080RAC44	2025/11/01	USD	6.25000		No further information
SFUND	I	2013/11/26	2013/11/26	2567	4149275	USU0080RAC44	2026/11/01	USD	6.25000		No further information
SFUND	I	2013/11/29	2013/11/29	2568	1793570	US00130HAJ41	2008/11/01	USD	6.25000		No further information
SFUND	I	2013/11/29	2013/11/29	2569	1793570	US00130HAJ41	2009/11/01	USD	6.25000		No further information
SFUND	I	2013/11/29	2013/11/29	2570	1793570	US00130HAJ41	2010/11/01	USD	6.25000		No further information
SFUND	I	2013/11/29	2013/11/29	2571	1793570	US00130HAJ41	2011/11/01	USD	6.25000		No further information
SFUND	I	2013/11/29	2013/11/29	2572	1793570	US00130HAJ41	2012/11/01	USD	6.25000		No further information
SFUND	I	2013/09/06	2013/09/06	2485	1842531	US771367CA58	2032/06/30	USD	0.33354		Sinking and Improvement Fund<BR>While any first mortgage bonds issued under the mortgage are outstanding, we will, on or before<BR>June 30 of each year, deposit USD333,540 with the mortgage trustee. We may credit against this amount<BR>(i) up to 60% of the bondable value of property additions or (ii) the principal amount of prior liens or<BR>charges and first mortgage bonds issued under the mortgage which might then be made the basis for<BR>the issuance of first mortgage bonds under the mortgage. Cash so deposited with the mortgage trustee<BR>may be withdrawn or used as provided in the mortgage to purchase or redeem first mortgage bonds, or<BR>for other purposes. If on any December 31 the mortgage trustee holds USD250,000 or more so deposited,<BR>such cash must be used to purchase first mortgage bonds, or to redeem first mortgage bonds which by<BR>their terms are redeemable prior to maturity. (See section 4.19 of the mortgage.)<BR>
SFUND	I	2013/09/06	2013/09/06	2486	1842531	US771367CA58	2033/06/30	USD	0.33354		Sinking and Improvement Fund<BR>While any first mortgage bonds issued under the mortgage are outstanding, we will, on or before<BR>June 30 of each year, deposit USD333,540 with the mortgage trustee. We may credit against this amount<BR>(i) up to 60% of the bondable value of property additions or (ii) the principal amount of prior liens or<BR>charges and first mortgage bonds issued under the mortgage which might then be made the basis for<BR>the issuance of first mortgage bonds under the mortgage. Cash so deposited with the mortgage trustee<BR>may be withdrawn or used as provided in the mortgage to purchase or redeem first mortgage bonds, or<BR>for other purposes. If on any December 31 the mortgage trustee holds USD250,000 or more so deposited,<BR>such cash must be used to purchase first mortgage bonds, or to redeem first mortgage bonds which by<BR>their terms are redeemable prior to maturity. (See section 4.19 of the mortgage.)<BR>
SFUND	I	2013/09/06	2013/09/06	2487	1842531	US771367CA58	2017/06/30	USD	0.33354		Sinking and Improvement Fund<BR>While any first mortgage bonds issued under the mortgage are outstanding, we will, on or before<BR>June 30 of each year, deposit USD333,540 with the mortgage trustee. We may credit against this amount<BR>(i) up to 60% of the bondable value of property additions or (ii) the principal amount of prior liens or<BR>charges and first mortgage bonds issued under the mortgage which might then be made the basis for<BR>the issuance of first mortgage bonds under the mortgage. Cash so deposited with the mortgage trustee<BR>may be withdrawn or used as provided in the mortgage to purchase or redeem first mortgage bonds, or<BR>for other purposes. If on any December 31 the mortgage trustee holds USD250,000 or more so deposited,<BR>such cash must be used to purchase first mortgage bonds, or to redeem first mortgage bonds which by<BR>their terms are redeemable prior to maturity. (See section 4.19 of the mortgage.)<BR>
SFUND	I	2013/11/29	2013/11/29	2573	1793570	US00130HAJ41	2013/11/01	USD	6.25000		No further information
SFUND	I	2013/11/29	2013/11/29	2574	1793570	US00130HAJ41	2014/11/01	USD	6.25000		No further information
SFUND	I	2013/11/29	2013/11/29	2575	1793570	US00130HAJ41	2015/11/01	USD	6.25000		No further information
SFUND	I	2013/11/29	2013/11/29	2576	1793570	US00130HAJ41	2016/11/01	USD	6.25000		No further information
SFUND	I	2013/11/29	2013/11/29	2577	1793570	US00130HAJ41	2017/11/01	USD	6.25000		No further information
SFUND	I	2013/11/29	2013/11/29	2578	1793570	US00130HAJ41	2018/11/01	USD	6.25000		No further information
SFUND	I	2013/11/29	2013/11/29	2579	1793570	US00130HAJ41	2019/11/01	USD	6.25000		No further information
SFUND	I	2013/11/29	2013/11/29	2580	1793570	US00130HAJ41	2020/11/01	USD	6.25000		No further information
SFUND	I	2013/11/29	2013/11/29	2581	1793570	US00130HAJ41	2021/11/01	USD	6.25000		No further information
SFUND	I	2013/11/29	2013/11/29	2582	1793570	US00130HAJ41	2022/11/01	USD	6.25000		No further information
SFUND	I	2013/11/29	2013/11/29	2583	1793570	US00130HAJ41	2023/11/01	USD	6.25000		No further information
SFUND	I	2013/11/29	2013/11/29	2584	1793570	US00130HAJ41	2024/11/01	USD	6.25000		No further information
SFUND	I	2013/11/29	2013/11/29	2585	1793570	US00130HAJ41	2025/11/01	USD	6.25000		No further information
SFUND	I	2013/11/29	2013/11/29	2586	1793570	US00130HAJ41	2026/11/01	USD	6.25000		No further information
SFUND	I	2013/12/09	2013/12/09	2612	3547022	USM28368AB04	2019/06/16	USD	331.00000		No further information
SFUND	I	2013/12/09	2013/12/09	2613	3547022	USM28368AB04	2019/12/16	USD	662.00000		No further information
SFUND	I	2013/12/09	2013/12/09	2615	3547022	USM28368AB04	2020/06/16	USD	993.00000		No further information
SFUND	I	2013/12/09	2013/12/09	2616	3547022	USM28368AB04	2020/12/16	USD	1324.00000		No further information
SFUND	I	2013/12/09	2013/12/09	2617	3547022	USM28368AB04	2021/06/16	USD	1654.00000		No further information
SFUND	I	2013/12/20	2013/12/20	2793	4163647	US69336NAD12	2026/07/15	USD	1.03081		No further information
SFUND	I	2013/12/20	2013/12/20	2794	4163647	US69336NAD12	2027/01/15	USD	4.33891		No further information
SFUND	I	2013/12/20	2013/12/20	2795	4163647	US69336NAD12	2027/07/15	USD	4.60526		No further information
SFUND	I	2013/12/26	2013/12/26	2796	1503279	US056037AD61	2008/12/01	USD	5.35900		No further information
SFUND	I	2013/12/26	2013/12/26	2797	1503279	US056037AD61	2009/06/01	USD	9.01800		No further information
SFUND	I	2013/12/26	2013/12/26	2798	1503279	US056037AD61	2009/12/01	USD	12.71400		No further information
SFUND	I	2013/12/26	2013/12/26	2799	1503279	US056037AD61	2010/06/01	USD	12.74200		No further information
SFUND	I	2013/12/26	2013/12/26	2800	1503279	US056037AD61	2010/12/01	USD	14.43100		No further information
SFUND	I	2013/12/26	2013/12/26	2801	1503279	US056037AD61	2011/06/01	USD	13.29600		No further information
SFUND	I	2013/12/26	2013/12/26	2802	1503279	US056037AD61	2011/12/01	USD	15.02400		No further information
SFUND	I	2013/12/26	2013/12/26	2803	1503279	US056037AD61	2012/06/01	USD	13.92200		No further information
SFUND	I	2013/12/26	2013/12/26	2804	1503279	US056037AD61	2012/12/01	USD	15.94000		No further information
SFUND	I	2013/12/26	2013/12/26	2805	1503279	US056037AD61	2013/06/01	USD	16.57900		No further information
SFUND	I	2013/12/26	2013/12/26	2806	1503279	US056037AD61	2013/12/01	USD	19.61000		No further information
SFUND	I	2013/12/26	2013/12/26	2807	1503279	US056037AD61	2014/06/01	USD	22.18700		No further information
SFUND	I	2013/12/26	2013/12/26	2808	1503279	US056037AD61	2014/12/01	USD	22.53400		No further information
SFUND	I	2013/12/26	2013/12/26	2809	1503279	US056037AD61	2015/06/01	USD	24.23800		No further information
SFUND	I	2013/12/26	2013/12/26	2810	1503279	US056037AD61	2015/12/01	USD	24.35900		No further information
SFUND	I	2013/12/26	2013/12/26	2811	1503279	US056037AD61	2016/06/01	USD	13.07500		No further information
SFUND	I	2013/12/26	2013/12/26	2812	1503279	US056037AD61	2016/12/01	USD	6.71200		No further information
SFUND	I	2013/12/26	2013/12/26	2813	1503279	US056037AD61	2017/06/01	USD	8.10700		No further information
SFUND	I	2014/01/29	2014/01/29	2876	3547021	US256853AB86	2019/06/16	USD	331.00000		No further information
SFUND	I	2014/01/29	2014/01/29	2877	3547021	US256853AB86	2019/12/16	USD	662.00000		No further information
SFUND	I	2014/01/29	2014/01/29	2878	3547021	US256853AB86	2020/06/16	USD	993.00000		No further information
SFUND	I	2014/01/29	2014/01/29	2879	3547021	US256853AB86	2020/12/16	USD	1324.00000		No further information
SFUND	I	2014/01/29	2014/01/29	2880	3547021	US256853AB86	2021/06/16	USD	1654.00000		No further information
SFUND	I	2014/02/10	2014/02/10	2882	4098521	US67741YAA64	2014/07/01	USD	34.93647		No further information
SFUND	I	2014/02/10	2014/02/10	2883	4098521	US67741YAA64	2015/01/01	USD	22.20010		No further information
SFUND	I	2014/02/10	2014/02/10	2884	4098521	US67741YAA64	2015/07/01	USD	23.22646		No further information
SFUND	I	2014/02/10	2014/02/10	2885	4098521	US67741YAA64	2016/01/01	USD	22.74630		No further information
SFUND	I	2014/02/10	2014/02/10	2886	4098521	US67741YAA64	2016/07/01	USD	23.11805		No further information
SFUND	I	2014/02/10	2014/02/10	2887	4098521	US67741YAA64	2017/01/01	USD	22.44046		No further information
SFUND	I	2014/02/10	2014/02/10	2888	4098521	US67741YAA64	2017/07/01	USD	16.23213		No further information
SFUND	I	2014/02/10	2014/02/10	2889	4097409	US67741YAB48	2017/07/01	USD	7.62968		Tranche A-2 Scheduled Principal Payment: USD 7,629,688.61
SFUND	I	2014/02/10	2014/02/10	2890	4097409	US67741YAB48	2018/01/01	USD	22.83056		Tranche A-2 Scheduled Principal Payment: USD 22,830,567.60
SFUND	I	2014/02/10	2014/02/10	2891	4097409	US67741YAB48	2018/07/01	USD	24.12493		Tranche A-2 Scheduled Principal Payment: USD 24,124,939.16
SFUND	I	2014/02/10	2014/02/10	2892	4097409	US67741YAB48	2019/01/01	USD	23.33613		Tranche A-2 Scheduled Principal Payment: USD 23,336,134.98
SFUND	I	2014/02/10	2014/02/10	2893	4097409	US67741YAB48	2019/07/01	USD	24.58666		Tranche A-2 Scheduled Principal Payment: 24,586,669.65
SFUND	I	2014/04/22	2014/04/22	3057	3859872	US553214AE79	2028/01/15	USD	11.18765		No further information
SFUND	I	2014/04/22	2014/04/22	3058	3859872	US553214AE79	2028/07/15	USD	14.78891		No further information
SFUND	I	2014/04/22	2014/04/22	3059	3859872	US553214AE79	2029/01/15	USD	14.55876		No further information
SFUND	I	2014/04/22	2014/04/22	3060	3859872	US553214AE79	2029/07/15	USD	15.39637		No further information
SFUND	I	2014/04/22	2014/04/22	3061	3859872	US553214AE79	2030/01/15	USD	8.44828		No further information
SFUND	I	2014/07/28	2014/07/28	3335	4315822	USP4909LAA81	2021/07/31	USD	64.68000		No further information
SFUND	I	2014/07/28	2014/07/28	3336	4315822	USP4909LAA81	2022/01/31	USD	64.68000		No further information
SFUND	I	2014/07/28	2014/07/28	3337	4315822	USP4909LAA81	2022/07/31	USD	64.68000		No further information
SFUND	I	2014/07/28	2014/07/28	3338	4315822	USP4909LAA81	2023/01/31	USD	64.68000		No further information
SFUND	I	2014/07/28	2014/07/28	3339	4315822	USP4909LAA81	2023/07/31	USD	64.68000		No further information
SFUND	I	2014/07/28	2014/07/28	3340	4315822	USP4909LAA81	2024/01/31	USD	64.68000		No further information
SFUND	I	2014/07/28	2014/07/28	3341	4315822	USP4909LAA81	2024/07/31	USD	64.68000		No further information
SFUND	I	2014/07/28	2014/07/28	3342	4315822	USP4909LAA81	2025/01/31	USD	64.68000		No further information
SFUND	I	2014/07/28	2014/07/28	3343	4315822	USP4909LAA81	2025/07/31	USD	64.68000		No further information
SFUND	I	2014/07/28	2014/07/28	3344	4315822	USP4909LAA81	2026/01/31	USD	64.68000		No further information
SFUND	I	2014/07/28	2014/07/28	3345	4315822	USP4909LAA81	2026/07/31	USD	64.68000		No further information
SFUND	I	2014/07/28	2014/07/28	3346	4315822	USP4909LAA81	2027/01/31	USD	64.68000		No further information
SFUND	I	2014/07/28	2014/07/28	3347	4315822	USP4909LAA81	2027/07/31	USD	64.68000		No further information
SFUND	I	2014/07/28	2014/07/28	3348	4315822	USP4909LAA81	2028/01/31	USD	64.68000		No further information
SFUND	I	2014/07/28	2014/07/28	3349	4315822	USP4909LAA81	2028/07/31	USD	64.68000		No further information
SFUND	I	2014/07/28	2014/07/28	3350	4315822	USP4909LAA81	2029/01/31	USD	64.68000		No further information
EDI_ENDOFFILE
