EDI_CIKCH_20161007
TableName	Actflag	Created	Changed	IssID	EffectiveDate	OldCIK	NewCIK	CIKChID
CIKCH	I	2016/03/10	2016/03/10	180358	2016/03/09		0001650962	3
CIKCH	I	2016/04/22	2016/04/22	163199	2016/04/21		0001591517	11
CIKCH	I	2016/05/03	2016/05/03	88316	2016/05/02	0001289790		13
CIKCH	I	2016/05/25	2016/05/25	31323	2016/05/23	0001091667		15
CIKCH	I	2016/05/26	2016/05/26	170987	2016/05/25		0001619762	17
CIKCH	I	2016/07/11	2016/07/11	162955	2016/07/08		0000036377	22
CIKCH	I	2016/09/24	2016/09/26	187273	2016/09/23		0001669812	83
CIKCH	I	2016/09/29	2016/09/29	175855	2016/09/27		0001636315	85
CIKCH	I	2016/10/03	2016/10/03	121849	2016/09/29	0000101001	0000319687	87
EDI_ENDOFFILE
