EDI_INDEF_20161007
TableName	Actflag	Created	Changed	IndefID	SecID	ISIN	DefaultType	DefaultDate	Notes
INDEF	I	2005/11/19	2005/11/19	59	286892	US55311JAF30	INTDEFA	2005/10/03	
INDEF	I	2005/11/19	2005/11/19	60	299425	US55311JAE64	INTDEFA	2005/10/03	
INDEF	I	2005/11/19	2005/11/19	62	280421	US55311JAH95	INTDEFA	2005/10/03	
INDEF	I	2006/02/20	2006/02/20	1021	182798	USG06016AA09	INTDEFA	2006/01/18	
INDEF	I	2006/02/20	2006/02/20	1022	182798	USG06016AA09	INTDEFA	2006/04/18	
INDEF	I	2006/04/10	2006/04/10	1259	303362	USU122163020	INTDEFA	2006/03/30	
INDEF	I	2006/04/10	2006/04/10	1260	303362	USU122163020	INTDEFA	2006/06/30	
INDEF	I	2006/11/09	2006/11/09	1790	431209	US78443JAD19	INTDEFA	2006/12/15	
INDEF	I	2006/11/09	2006/11/09	1791	431211	US78443JAE91	INTDEFA	2006/12/15	
INDEF	I	2006/11/09	2006/11/09	1792	431214	US78443JAF66	INTDEFA	2006/12/15	
INDEF	I	2006/11/09	2006/11/09	1793	431217	US78443JAG40	INTDEFA	2006/12/15	
INDEF	I	2006/11/20	2006/11/20	1824	303362	USU122163020	INTDEFA	2006/09/30	
INDEF	I	2006/12/20	2006/12/20	1866	141877	US009451AM74	INTDEFA	2006/12/16	
INDEF	I	2006/12/20	2006/12/20	1884	217632	US06423RBC97	INTDEFA	2006/12/15	
INDEF	I	2006/12/20	2006/12/20	1888	217503	US06423RBK14	INTDEFA	2006/12/15	
INDEF	I	2006/12/20	2006/12/20	1889	215716	US06423RBM79	INTDEFA	2006/12/15	
INDEF	I	2007/02/07	2007/02/07	2044	213063	US14041NBL47	INTDEFA	2006/12/15	
INDEF	I	2007/02/07	2007/02/07	2045	213063	US14041NBL47	INTDEFA	2007/01/15	
INDEF	I	2007/02/07	2007/02/07	2069	311516	US14041NCK54	INTDEFA	2006/12/15	
INDEF	I	2007/02/07	2007/02/07	2070	311516	US14041NCK54	INTDEFA	2007/01/15	
INDEF	I	2007/02/08	2007/02/08	2083	428279	US14041NDB47	INTDEFA	2006/12/15	
INDEF	I	2007/02/08	2007/02/08	2084	428279	US14041NDB47	INTDEFA	2007/01/15	
INDEF	I	2007/02/09	2007/02/09	2184	217228	US55264TCR05	INTDEFA	2006/12/15	
INDEF	I	2007/02/09	2007/02/09	2185	217228	US55264TCR05	INTDEFA	2007/01/15	
INDEF	I	2007/02/28	2007/02/28	2330	141877	US009451AM74	INTDEFA	2007/02/16	
INDEF	I	2007/04/06	2007/04/06	2661	281200	US78442GGM24	INTDEFA	2007/03/15	
INDEF	I	2007/04/06	2007/04/06	2666	213611	US78442GHC33	INTDEFA	2007/03/15	
INDEF	I	2007/04/06	2007/04/06	2667	310852	US78443CAM64	INTDEFA	2007/03/15	
INDEF	I	2007/04/06	2007/04/06	2668	310866	US78443CAQ78	INTDEFA	2007/03/15	
INDEF	I	2007/04/06	2007/04/06	2669	310868	US78443CAR51	INTDEFA	2007/03/15	
INDEF	I	2007/04/06	2007/04/06	2670	229002	US78442GHP46	INTDEFA	2007/03/15	
INDEF	I	2007/04/06	2007/04/06	2671	229142	US78442GHU31	INTDEFA	2007/03/15	
INDEF	I	2007/04/06	2007/04/06	2672	229144	US78442GHV14	INTDEFA	2007/03/15	
INDEF	I	2007/04/06	2007/04/06	2676	281204	US78443CAZ77	INTDEFA	2007/03/15	
INDEF	I	2007/04/06	2007/04/06	2677	281205	US78443CBD56	INTDEFA	2007/03/15	
INDEF	I	2007/04/06	2007/04/06	2678	287699	US78443CBE30	INTDEFA	2007/03/15	
INDEF	I	2007/04/09	2007/04/09	2682	229118	US78442GJS66	INTDEFA	2007/03/15	
INDEF	I	2007/04/09	2007/04/09	2683	232410	US78442GJY35	INTDEFA	2007/03/15	
INDEF	I	2007/04/09	2007/04/09	2686	232414	US78442GKE51	INTDEFA	2007/03/15	
INDEF	I	2007/04/09	2007/04/09	2687	229134	US78442GKD78	INTDEFA	2007/03/15	
INDEF	I	2007/04/09	2007/04/09	2694	213063	US14041NBL47	INTDEFA	2007/03/15	
INDEF	I	2007/04/09	2007/04/09	2706	311516	US14041NCK54	INTDEFA	2007/03/15	
INDEF	I	2007/04/09	2007/04/09	2713	407573	US05522RAB42	INTDEFA	2007/03/15	
INDEF	I	2007/04/09	2007/04/09	2720	428279	US14041NDB47	INTDEFA	2007/03/15	
INDEF	I	2007/04/10	2007/04/10	2790	217228	US55264TCR05	INTDEFA	2007/03/15	
INDEF	I	2007/05/29	2007/05/29	3022	141877	US009451AM74	INTDEFA	2007/04/15	
INDEF	I	2007/05/30	2007/05/30	3051	182803	USG3616EAA04	INTDEFA	2007/04/16	
INDEF	I	2007/06/01	2007/06/01	3139	212878	USG27725AA15	INTDEFA	2007/04/02	
INDEF	I	2007/10/22	2007/10/22	3979	303362	USU122163020	INTDEFA	2007/03/30	
INDEF	I	2007/10/22	2007/10/22	3980	303362	USU122163020	INTDEFA	2007/06/30	
INDEF	I	2007/10/22	2007/10/22	3981	303362	USU122163020	INTDEFA	2007/09/30	
INDEF	I	2007/10/26	2007/10/26	4009	303969	US29078PAB67	INTDEFA	2007/10/15	
INDEF	I	2007/10/26	2007/10/26	4012	220261	US52204PAC32	INTDEFA	2007/10/15	
INDEF	I	2007/10/26	2007/10/26	4013	220273	US52204PAF62	INTDEFA	2007/10/15	
INDEF	I	2007/10/26	2007/10/26	4025	217632	US06423RBC97	INTDEFA	2007/10/15	
INDEF	I	2007/10/26	2007/10/26	4032	217503	US06423RBK14	INTDEFA	2007/10/15	
INDEF	I	2007/10/26	2007/10/26	4033	215716	US06423RBM79	INTDEFA	2007/10/15	
INDEF	I	2007/10/27	2007/10/27	4061	467352	US161571BK95	INTDEFA	2007/10/15	
INDEF	I	2007/10/27	2007/10/27	4066	559224	US161571BQ65	INTDEFA	2007/10/15	
INDEF	I	2007/10/27	2007/10/27	4067	560044	US161571BR49	INTDEFA	2007/10/15	
INDEF	I	2007/10/27	2007/10/27	4068	560045	US161571BS22	INTDEFA	2007/10/15	
INDEF	I	2007/10/27	2007/10/27	4071	664200	US161571CC60	INTDEFA	2007/10/15	
INDEF	I	2007/10/27	2007/10/27	4073	215676	US009341AL20	INTDEFA	2007/10/15	
INDEF	I	2007/10/27	2007/10/27	4074	217791	US009341AM03	INTDEFA	2007/10/15	
INDEF	I	2007/10/27	2007/10/27	4075	216817	US009341AN85	INTDEFA	2007/10/15	
INDEF	I	2007/10/30	2007/10/30	4095	407573	US05522RAB42	INTDEFA	2007/10/15	
INDEF	I	2007/10/30	2007/10/30	4113	562981	US05522AAC99	INTDEFA	2007/10/15	
INDEF	I	2007/10/30	2007/10/30	4114	562987	US05522AAD72	INTDEFA	2007/10/15	
INDEF	I	2007/10/30	2007/10/30	4119	661871	US05522RBF47	INTDEFA	2007/10/15	
INDEF	I	2007/10/30	2007/10/30	4120	664029	US05522RBG20	INTDEFA	2007/10/15	
INDEF	I	2007/11/01	2007/11/01	4202	213063	US14041NBL47	INTDEFA	2007/10/15	
INDEF	I	2007/11/01	2007/11/01	4206	217228	US55264TCR05	INTDEFA	2007/10/15	
INDEF	I	2007/11/02	2007/11/02	4231	311516	US14041NCK54	INTDEFA	2007/10/15	
INDEF	I	2007/11/02	2007/11/02	4247	428279	US14041NDB47	INTDEFA	2007/10/15	
INDEF	I	2007/11/02	2007/11/02	4252	558692	US14041NDG34	INTDEFA	2007/10/15	
INDEF	I	2007/11/02	2007/11/02	4253	560036	US14041NDH17	INTDEFA	2007/10/15	
INDEF	I	2007/11/02	2007/11/02	4255	559930	US14041NDJ72	INTDEFA	2007/10/15	
INDEF	I	2007/11/02	2007/11/02	4256	552071	US14041NDL29	INTDEFA	2007/10/15	
INDEF	I	2007/11/02	2007/11/02	4259	619578	US14041NDT54	INTDEFA	2007/10/15	
INDEF	I	2007/11/24	2007/11/24	4330	141877	US009451AM74	INTDEFA	2007/10/17	
INDEF	I	2007/11/24	2007/11/24	4331	141877	US009451AM74	INTDEFA	2007/11/17	
INDEF	I	2007/12/15	2007/12/15	4430	652576	US03703FAA84	INTDEFA	2007/11/23	
INDEF	U	2008/05/07	2008/10/02	4469	282377	US78442GPM23	INTDEFA	2008/04/25	
INDEF	I	2008/11/10	2008/11/10	4641	784357	US07325TAA79	INTDEFA	2008/11/25	
INDEF	U	2008/11/17	2009/04/04	4654	487627	XS0075591353	INTDEFA	2009/04/17	
INDEF	I	2009/05/29	2009/05/29	5279	1441241	US78443CBH60	INTDEFA	2007/03/15	
INDEF	I	2009/05/29	2009/05/29	5280	1441286	US78443CBJ27	INTDEFA	2007/03/15	
INDEF	I	2009/07/24	2009/07/24	5511	428868	US48632FAB76	INTDEFA	2009/04/04	
INDEF	I	2009/07/24	2009/07/24	5514	371107	US48632HAA59	INTDEFA	2009/05/19	
INDEF	I	2009/07/24	2009/07/24	5518	808892	US48632FAE16	INTDEFA	2009/02/28	
INDEF	I	2009/07/25	2009/07/25	5524	420390	US48632FAC59	INTDEFA	2009/01/15	
INDEF	I	2009/07/27	2009/07/27	5589	450256	US486329AA37	INTDEFA	2009/01/12	
INDEF	I	2009/07/27	2009/07/27	5613	429838	US48632FAA93	INTDEFA	2009/04/04	
INDEF	I	2009/07/29	2009/07/29	5656	1231566	US5150X4AA17	INTDEFA	2009/04/19	
INDEF	I	2009/07/31	2009/07/31	5686	291228	US464586AB23	INTDEFA	2009/04/15	
INDEF	I	2009/07/31	2009/07/31	5688	1288069	US46458KAF21	INTDEFA	2008/12/22	
INDEF	I	2009/07/31	2009/07/31	5690	585631	US37930JAC99	INTDEFA	2009/01/20	
INDEF	I	2009/07/31	2009/07/31	5693	420388	US37930EAC03	INTDEFA	2009/01/28	
INDEF	I	2009/07/31	2009/07/31	5694	699433	US37930JAE55	INTDEFA	2009/03/25	
INDEF	I	2009/07/31	2009/07/31	5696	742049	US37930KAE29	INTDEFA	2009/03/25	
INDEF	I	2009/07/31	2009/07/31	5697	1289194	US37930EAH99	INTDEFA	2008/12/19	
INDEF	I	2009/07/31	2009/07/31	5698	1296356	USX3078NAR53	INTDEFA	2009/03/14	
INDEF	I	2009/07/31	2009/07/31	5700	1360220	US37930EAD85	INTDEFA	2009/01/28	
INDEF	I	2009/07/31	2009/07/31	5713	547601	US37930KAB89	INTDEFA	2009/01/18	
INDEF	I	2009/07/31	2009/07/31	5716	442389	US37930JAA34	INTDEFA	2009/01/21	
INDEF	I	2009/07/31	2009/07/31	5718	624997	US379308AB53	INTDEFA	2009/03/14	
INDEF	I	2009/08/01	2009/08/01	5720	428820	USX3078NAA29	INTDEFA	2008/12/15	
INDEF	I	2009/08/01	2009/08/01	5721	428801	US379308AA70	INTDEFA	2008/12/15	
INDEF	I	2009/08/26	2009/08/26	5757	458559	US5150X0AA94	INTDEFA	2009/02/25	
INDEF	I	2009/10/14	2009/10/14	5838	698574	US29880YAB56	INTDEFA	2008/09/15	Source Date : 12/12/2008<BR>ISIN : XS0308653244
INDEF	I	2009/10/14	2009/10/14	5839	705796	US29880YAE95	INTDEFA	2008/09/15	Source Date : 12/12/2008<BR>ISIN : XS0308653244
INDEF	I	2009/10/29	2009/10/29	5918	260193	US52519FAS02	INTDEFA	2008/09/15	
INDEF	I	2009/10/29	2009/10/29	5919	260190	US52519FAR29	INTDEFA	2008/09/15	
INDEF	I	2009/10/29	2009/10/29	5920	260179	US52519FAP62	INTDEFA	2008/09/15	
INDEF	I	2009/10/29	2009/10/29	5921	260184	US52519FAQ46	INTDEFA	2008/09/15	
INDEF	I	2009/10/29	2009/10/29	5922	986053	US52519FDR91	INTDEFA	2008/09/15	
INDEF	I	2009/10/29	2009/10/29	5923	260784	US52519FDM05	INTDEFA	2008/09/15	
INDEF	I	2009/10/29	2009/10/29	5924	260726	US52519FDD06	INTDEFA	2008/09/15	
INDEF	I	2009/10/29	2009/10/29	5925	260174	US52519FAN15	INTDEFA	2008/09/15	
INDEF	I	2009/10/29	2009/10/29	5926	260710	US52519FCY51	INTDEFA	2008/09/15	
INDEF	I	2009/10/29	2009/10/29	5927	260675	US52519FCQ28	INTDEFA	2008/09/15	
INDEF	I	2009/10/29	2009/10/29	5928	260168	US52519FAM32	INTDEFA	2008/09/15	
INDEF	I	2009/10/29	2009/10/29	5929	260152	US52519FAJ03	INTDEFA	2008/09/15	
INDEF	I	2009/10/29	2009/10/29	5930	968722	US52519FAK75	INTDEFA	2008/09/15	
INDEF	I	2009/10/29	2009/10/29	5931	260646	US52519FCL31	INTDEFA	2008/09/15	
INDEF	I	2009/10/29	2009/10/29	5932	260161	US52519FAL58	INTDEFA	2008/09/15	
INDEF	I	2009/10/29	2009/10/29	5933	260145	US52519FAH47	INTDEFA	2008/09/15	
INDEF	I	2009/10/29	2009/10/29	5934	968683	US52519FAG63	INTDEFA	2008/09/15	
INDEF	I	2009/10/29	2009/10/29	5935	260609	US52519FCC32	INTDEFA	2008/09/15	
INDEF	I	2009/10/29	2009/10/29	5936	260605	US52519FCB58	INTDEFA	2008/09/15	
INDEF	I	2009/10/29	2009/10/29	5937	260588	US52519FCA75	INTDEFA	2008/09/15	
INDEF	I	2009/10/29	2009/10/29	5938	260583	US52519FBZ36	INTDEFA	2008/09/15	
INDEF	I	2009/10/29	2009/10/29	5939	260578	US52519FBY60	INTDEFA	2008/09/15	
INDEF	I	2009/10/29	2009/10/29	5940	260572	US52519FBX87	INTDEFA	2008/09/15	
INDEF	I	2009/10/29	2009/10/29	5941	260566	US52519FBW05	INTDEFA	2008/09/15	
INDEF	I	2009/10/29	2009/10/29	5942	260561	US52519FBV22	INTDEFA	2008/09/15	
INDEF	I	2009/10/29	2009/10/29	5943	260557	US52519FBU49	INTDEFA	2008/09/15	
INDEF	I	2009/10/29	2009/10/29	5944	983386	US52519FAE16	INTDEFA	2008/09/15	
INDEF	I	2009/10/29	2009/10/29	5945	963198	US52519FAD33	INTDEFA	2008/09/15	
INDEF	I	2009/10/29	2009/10/29	5946	260548	US52519FBS92	INTDEFA	2008/09/15	
INDEF	I	2009/10/29	2009/10/29	5947	260531	US52519FBP53	INTDEFA	2008/09/15	
INDEF	I	2009/10/29	2009/10/29	5948	260524	US52519FBN06	INTDEFA	2008/09/15	
INDEF	I	2009/10/29	2009/10/29	5949	260518	US52519FBM23	INTDEFA	2008/09/15	
INDEF	I	2009/10/29	2009/10/29	5950	260513	US52519FBL40	INTDEFA	2008/09/15	
INDEF	I	2009/10/29	2009/10/29	5951	260507	US52519FBK66	INTDEFA	2008/09/15	
INDEF	I	2009/10/29	2009/10/29	5952	260503	US52519FBJ93	INTDEFA	2008/09/15	
INDEF	I	2009/10/29	2009/10/29	5953	260498	US52519FBH38	INTDEFA	2008/09/15	
INDEF	I	2009/10/29	2009/10/29	5954	260493	US52519FBG54	INTDEFA	2008/09/15	
INDEF	I	2009/10/29	2009/10/29	5955	260490	US52519FBF71	INTDEFA	2008/09/15	
INDEF	I	2009/10/29	2009/10/29	5956	260485	US52519FBE07	INTDEFA	2008/09/15	
INDEF	I	2009/10/29	2009/10/29	5957	1098730	US52519FBC41	INTDEFA	2008/09/15	
INDEF	I	2009/10/29	2009/10/29	5958	260475	US52519FBB67	INTDEFA	2008/09/15	
INDEF	I	2009/10/29	2009/10/29	5959	260472	US52519FBA84	INTDEFA	2008/09/15	
INDEF	I	2009/10/29	2009/10/29	5960	260470	US52519FAZ45	INTDEFA	2008/09/15	
INDEF	I	2009/10/29	2009/10/29	5961	260467	US52519FAX96	INTDEFA	2008/09/15	
INDEF	I	2009/10/29	2009/10/29	5962	260205	US52519FAW14	INTDEFA	2008/09/15	
INDEF	I	2009/10/29	2009/10/29	5963	260203	US52519FAV31	INTDEFA	2008/09/15	
INDEF	I	2009/10/29	2009/10/29	5964	260198	US52519FAT84	INTDEFA	2008/09/15	
INDEF	I	2009/10/29	2009/10/29	5965	983354	US52519FAC59	INTDEFA	2008/09/15	
INDEF	I	2009/10/29	2009/10/29	5966	963187	US52519FAB76	INTDEFA	2008/09/15	
INDEF	I	2009/10/29	2009/10/29	5967	973335	US52517PZX22	INTDEFA	2008/09/15	
INDEF	I	2009/10/29	2009/10/29	5968	260734	US52519FDG37	INTDEFA	2008/09/15	
INDEF	I	2009/10/29	2009/10/29	5969	951398	US52517P2L44	INTDEFA	2008/09/15	
INDEF	I	2009/10/29	2009/10/29	5970	1075184	US52517P3M18	INTDEFA	2008/09/15	
INDEF	I	2009/10/29	2009/10/29	5971	959901	US52517PR788	INTDEFA	2008/09/15	
INDEF	I	2009/10/29	2009/10/29	5972	963825	US52517PZW49	INTDEFA	2008/09/15	
INDEF	I	2009/10/29	2009/10/29	5973	956304	US52517PZE41	INTDEFA	2008/09/15	
INDEF	I	2009/10/29	2009/10/29	5974	260201	US52519FAU57	INTDEFA	2008/09/15	
INDEF	I	2009/10/29	2009/10/29	5975	260712	US52519FDB40	INTDEFA	2008/09/15	
INDEF	I	2009/10/29	2009/10/29	5976	1523279	US52519FCV13	INTDEFA	2008/09/15	
INDEF	I	2009/10/29	2009/10/29	5977	990776	US52519FEM95	INTDEFA	2008/09/15	
INDEF	I	2009/10/29	2009/10/29	5978	1329429	US52519FEL13	INTDEFA	2008/09/15	
INDEF	I	2009/10/29	2009/10/29	5979	1329423	US52519FEK30	INTDEFA	2008/09/15	
INDEF	I	2009/10/29	2009/10/29	5980	1329430	US52519FEG28	INTDEFA	2008/09/15	
INDEF	I	2009/10/29	2009/10/29	5981	260730	US52519FDE88	INTDEFA	2008/09/15	
INDEF	I	2009/10/29	2009/10/29	5982	260682	US52519FCT66	INTDEFA	2008/09/15	
INDEF	I	2009/10/29	2009/10/29	5983	260666	US52519FCP45	INTDEFA	2008/09/15	
INDEF	I	2009/10/29	2009/10/29	5984	260657	US52519FCN96	INTDEFA	2008/09/15	
INDEF	I	2009/10/29	2009/10/29	5985	260652	US52519FCM14	INTDEFA	2008/09/15	
INDEF	I	2009/10/29	2009/10/29	5986	260643	US52519FCK57	INTDEFA	2008/09/15	
INDEF	I	2009/10/29	2009/10/29	5987	260639	US52519FCJ84	INTDEFA	2008/09/15	
INDEF	I	2009/10/29	2009/10/29	5988	260631	US52519FCG46	INTDEFA	2008/09/15	
INDEF	I	2009/10/29	2009/10/29	5989	260616	US52519FCE97	INTDEFA	2008/09/15	
INDEF	I	2009/10/29	2009/10/29	5990	260824	US52519FDV04	INTDEFA	2008/09/15	
INDEF	I	2009/10/29	2009/10/29	5991	260820	US52519FDU21	INTDEFA	2008/09/15	
INDEF	I	2009/10/29	2009/10/29	5992	260810	US52519FDT57	INTDEFA	2008/09/15	
INDEF	I	2009/10/29	2009/10/29	5993	260803	US52519FDS74	INTDEFA	2008/09/15	
INDEF	I	2009/10/29	2009/10/29	5994	275208	US52519FDQ19	INTDEFA	2008/09/15	
INDEF	I	2009/10/29	2009/10/29	5995	260798	US52519FDP36	INTDEFA	2008/09/15	
INDEF	I	2009/10/29	2009/10/29	5996	260787	US52519FDN87	INTDEFA	2008/09/15	
INDEF	I	2009/10/29	2009/10/29	5997	1079549	US52519FDL22	INTDEFA	2008/09/15	
INDEF	I	2009/10/29	2009/10/29	5998	1079558	US52519FDK49	INTDEFA	2008/09/15	
INDEF	I	2009/10/29	2009/10/29	5999	260762	US52519FDJ75	INTDEFA	2008/09/15	
INDEF	I	2009/10/29	2009/10/29	6000	260739	US52519FDH10	INTDEFA	2008/09/15	
INDEF	I	2009/10/29	2009/10/29	6001	260720	US52519FDC23	INTDEFA	2008/09/15	
INDEF	I	2009/10/29	2009/10/29	6002	957223	US52519FDA66	INTDEFA	2008/09/15	
INDEF	I	2009/10/29	2009/10/29	6003	1078468	US52519FCX78	INTDEFA	2008/09/15	
INDEF	I	2009/10/29	2009/10/29	6004	260700	US52519FCW95	INTDEFA	2008/09/15	
INDEF	I	2009/10/29	2009/10/29	6005	1079478	US52519FEE79	INTDEFA	2008/09/15	
INDEF	I	2009/10/29	2009/10/29	6006	1078463	US52519FEC14	INTDEFA	2008/09/15	
INDEF	I	2009/10/29	2009/10/29	6007	1073300	US52519FDZ18	INTDEFA	2008/09/15	
INDEF	I	2009/10/29	2009/10/29	6008	1073273	US52519FDY43	INTDEFA	2008/09/15	
INDEF	I	2009/10/29	2009/10/29	6009	1073210	US52519FDX69	INTDEFA	2008/09/15	
INDEF	I	2009/10/29	2009/10/29	6010	1072035	US52519FDW86	INTDEFA	2008/09/15	
INDEF	I	2009/10/29	2009/10/29	6011	260625	US52519FCF62	INTDEFA	2008/09/15	
INDEF	I	2009/10/29	2009/10/29	6012	1523198	US5252M0CD70	INTDEFA	2008/09/15	
INDEF	I	2009/10/29	2009/10/29	6013	665666	US52517PJ850	INTDEFA	2008/09/15	
INDEF	I	2009/10/29	2009/10/29	6014	966924	US52517PXR71	INTDEFA	2008/09/15	
INDEF	I	2009/10/29	2009/10/29	6015	970376	US52517PC665	INTDEFA	2008/09/15	
INDEF	I	2009/10/29	2009/10/29	6016	260033	US52517PYY14	INTDEFA	2008/09/15	
INDEF	I	2009/10/29	2009/10/29	6017	970107	US52517PYS46	INTDEFA	2008/09/15	
INDEF	I	2009/10/29	2009/10/29	6018	259974	US52517PYQ89	INTDEFA	2008/09/15	
INDEF	I	2009/10/29	2009/10/29	6019	259904	US52517PXZ97	INTDEFA	2008/09/15	
INDEF	I	2009/10/29	2009/10/29	6020	258847	US52517PWL11	INTDEFA	2008/09/15	
INDEF	I	2009/10/29	2009/10/29	6021	956681	US5252M0EB96	INTDEFA	2008/09/15	
INDEF	I	2009/10/29	2009/10/29	6022	259881	US52517PXQ98	INTDEFA	2008/09/15	
INDEF	I	2009/10/29	2009/10/29	6023	258850	US52517PWT47	INTDEFA	2008/09/15	
INDEF	I	2009/10/29	2009/10/29	6024	956908	US5252M0GB78	INTDEFA	2008/09/15	
INDEF	I	2009/11/02	2009/11/02	6625	1235336	US5249087M63	INTDEFA	2008/12/28	
INDEF	I	2009/11/02	2009/11/02	6626	977326	US524908R366	INTDEFA	2009/01/19	
INDEF	I	2009/11/02	2009/11/02	6631	1119811	US524908WH98	INTDEFA	2008/11/03	
INDEF	I	2009/11/02	2009/11/02	6635	1093970	US5249087N47	INTDEFA	2008/11/11	
INDEF	I	2009/11/02	2009/11/02	6638	1075255	US524908R440	INTDEFA	2009/01/17	
INDEF	I	2009/11/02	2009/11/02	6641	256959	US524908AA83	INTDEFA	2009/03/01	
INDEF	I	2009/11/02	2009/11/02	6642	256979	US524908CM04	INTDEFA	2009/02/15	
INDEF	I	2009/11/02	2009/11/02	6645	257025	US52517PSC67	INTDEFA	2009/01/18	
INDEF	I	2009/11/02	2009/11/02	6647	1105581	US52519FEW77	INTDEFA	2008/10/18	
INDEF	I	2009/11/02	2009/11/02	6648	1108551	US52519FEU12	INTDEFA	2008/10/04	
INDEF	I	2009/11/02	2009/11/02	6649	1104018	US52519FET49	INTDEFA	2008/09/20	
INDEF	I	2009/11/02	2009/11/02	6650	1108418	US52519FES65	INTDEFA	2009/03/15	
INDEF	I	2009/11/02	2009/11/02	6651	1108397	US52519FER82	INTDEFA	2009/03/01	
INDEF	I	2009/11/02	2009/11/02	6652	1093968	US52519FFN69	INTDEFA	2008/11/06	
INDEF	I	2009/11/02	2009/11/02	6653	1093951	US52519FFL04	INTDEFA	2008/10/22	
INDEF	I	2009/11/02	2009/11/02	6655	1072245	US52519FFK21	INTDEFA	2009/03/11	
INDEF	I	2009/11/02	2009/11/02	6656	1095704	US52519FFH91	INTDEFA	2009/03/06	
INDEF	I	2009/11/03	2009/11/03	6661	1517040	US52519FFJ57	INTDEFA	2009/02/28	
INDEF	I	2009/11/03	2009/11/03	6662	1523372	US52519FFG19	INTDEFA	2009/02/22	
INDEF	I	2009/11/03	2009/11/03	6664	985953	US52519FFF36	INTDEFA	2009/02/12	
INDEF	I	2009/11/03	2009/11/03	6666	987446	US52519FFE60	INTDEFA	2009/02/05	
INDEF	I	2009/11/03	2009/11/03	6667	987530	US52519FFD87	INTDEFA	2009/01/29	
INDEF	I	2009/11/03	2009/11/03	6669	986067	US52519FFC05	INTDEFA	2009/01/22	
INDEF	I	2009/11/03	2009/11/03	6671	1071401	US52519FFB22	INTDEFA	2009/01/17	
INDEF	I	2009/11/03	2009/11/03	6672	1106856	US52519FFA49	INTDEFA	2008/11/22	
INDEF	I	2009/11/03	2009/11/03	6673	1108739	US52519FEZ09	INTDEFA	2008/11/15	
INDEF	I	2009/11/03	2009/11/03	6675	969089	US52519FEY34	INTDEFA	2009/01/30	
INDEF	I	2009/11/03	2009/11/03	6676	955909	US52517PC335	INTDEFA	2009/10/20	
INDEF	I	2009/11/03	2009/11/03	6677	399289	US52517PSZ52	INTDEFA	2008/11/15	
INDEF	I	2009/11/03	2009/11/03	6681	1099382	US52517PSL66	INTDEFA	2009/01/01	
INDEF	I	2009/11/03	2009/11/03	6682	1072191	US52517PSJ11	INTDEFA	2008/12/18	
INDEF	I	2009/11/03	2009/11/03	6684	1595391	US52517PVV02	INTDEFA	2009/03/13	
INDEF	I	2009/11/03	2009/11/03	6687	971066	US52517PF718	INTDEFA	2008/10/04	
INDEF	I	2009/11/03	2009/11/03	6688	1105557	US52517P6B26	INTDEFA	2008/10/03	
INDEF	I	2009/11/03	2009/11/03	6691	987736	US52517PB345	INTDEFA	2009/03/14	
INDEF	I	2009/11/03	2009/11/03	6694	1072129	US52517P2S96	INTDEFA	2008/12/15	
INDEF	I	2009/11/03	2009/11/03	6695	1078949	US52517PQ384	INTDEFA	2008/12/22	
INDEF	I	2009/11/03	2009/11/03	6698	1080101	US5252M0DE45	INTDEFA	2009/02/07	
INDEF	I	2009/11/03	2009/11/03	6700	1075275	US52517P4A60	INTDEFA	2009/01/27	
INDEF	I	2009/11/03	2009/11/03	6705	1080072	US5252M0CW51	INTDEFA	2009/01/31	
INDEF	I	2009/11/03	2009/11/03	6710	1093700	US5252M0AT41	INTDEFA	2008/11/16	
INDEF	I	2009/11/03	2009/11/03	6711	1074971	US52517PW234	INTDEFA	2009/12/21	
INDEF	I	2009/11/03	2009/11/03	6721	1074021	US52517PV814	INTDEFA	2008/09/27	
INDEF	I	2009/11/03	2009/11/03	6725	1079603	US52517P7L98	INTDEFA	2008/10/26	
INDEF	I	2009/11/03	2009/11/03	6727	1104006	US52517P4Z12	INTDEFA	2008/12/15	
INDEF	I	2009/11/03	2009/11/03	6730	951412	US52517P2K60	INTDEFA	2008/11/25	
INDEF	I	2009/11/03	2009/11/03	6738	612142	US52517PR606	INTDEFA	2009/02/06	
INDEF	I	2009/11/03	2009/11/03	6739	962548	US5252M0BZ91	INTDEFA	2009/01/24	
INDEF	I	2009/11/03	2009/11/03	6741	951517	US52517PD572	INTDEFA	2009/01/14	
INDEF	I	2009/11/03	2009/11/03	6743	956619	US52517PG963	INTDEFA	2008/10/25	
INDEF	I	2009/11/03	2009/11/03	6745	963576	US52517P4C27	INTDEFA	2009/01/19	
INDEF	I	2009/11/03	2009/11/03	6746	959122	US52517PL583	INTDEFA	2008/09/20	
INDEF	I	2009/11/03	2009/11/03	6749	609459	US52517PA354	INTDEFA	2009/01/26	
INDEF	I	2009/11/03	2009/11/03	6751	1299853	US52517PYN58	INTDEFA	2009/01/27	
INDEF	I	2009/11/03	2009/11/03	6757	969138	US52517P5X54	INTDEFA	2008/09/26	
INDEF	I	2009/11/03	2009/11/03	6759	982934	US5252M0FD44	INTDEFA	2008/11/02	
INDEF	I	2009/11/03	2009/11/03	6760	1104039	US52517P5Y38	INTDEFA	2009/09/27	
INDEF	I	2009/11/03	2009/11/03	6764	441586	US52517PF635	INTDEFA	2008/10/04	
INDEF	I	2009/11/03	2009/11/03	6767	256966	US524908BF61	INTDEFA	2009/02/01	
INDEF	I	2009/11/03	2009/11/03	6770	257016	US52517PAE16	INTDEFA	2009/02/15	
INDEF	I	2009/11/03	2009/11/03	6772	257020	US52517PAZ45	INTDEFA	2009/01/15	
INDEF	I	2009/11/03	2009/11/03	6774	957674	US52517PW648	INTDEFA	2008/09/20	
INDEF	I	2009/11/03	2009/11/03	6775	957588	US52517PK593	INTDEFA	2009/01/19	
INDEF	I	2009/11/03	2009/11/03	6777	957585	US52517PK676	INTDEFA	2008/10/18	
INDEF	I	2009/11/03	2009/11/03	6778	405362	US52517PH615	INTDEFA	2008/11/17	
INDEF	I	2009/11/03	2009/11/03	6780	839756	US52517PD655	INTDEFA	2008/09/23	
INDEF	I	2009/11/03	2009/11/03	6782	260687	US52519FCU30	INTDEFA	2008/11/11	
INDEF	I	2009/11/03	2009/11/03	6783	1073098	US52519FEN78	INTDEFA	2009/02/12	
INDEF	I	2009/11/03	2009/11/03	6785	1073093	US52519FEJ66	INTDEFA	2009/02/24	
INDEF	I	2009/11/03	2009/11/03	6786	1073090	US52519FEH01	INTDEFA	2009/02/21	
INDEF	I	2009/11/03	2009/11/03	6788	1074475	US52519FCR01	INTDEFA	2008/10/30	
INDEF	I	2009/11/03	2009/11/03	6790	984968	US52519FDF53	INTDEFA	2009/03/13	
INDEF	I	2009/11/03	2009/11/03	6792	1105578	US52519FEV94	INTDEFA	2008/10/11	
INDEF	I	2009/11/03	2009/11/03	6799	986724	US52519FFP18	INTDEFA	2009/01/02	
INDEF	I	2009/11/03	2009/11/03	6801	949101	US524908FN59	INTDEFA	2008/11/08	
INDEF	I	2009/11/03	2009/11/03	6804	260013	US52517PYT29	INTDEFA	2008/11/23	
INDEF	I	2009/11/03	2009/11/03	6807	258843	US52517PWC12	INTDEFA	2008/10/08	
INDEF	I	2009/11/03	2009/11/03	6808	1299350	US52517PWB39	INTDEFA	2008/10/08	
INDEF	I	2009/11/03	2009/11/03	6810	954306	US52517PVC21	INTDEFA	2009/02/27	
INDEF	I	2009/11/03	2009/11/03	6812	258825	US52517PUU38	INTDEFA	2008/10/17	
INDEF	I	2009/11/03	2009/11/03	6814	970852	US52517PUR09	INTDEFA	2008/10/17	
INDEF	I	2009/11/03	2009/11/03	6815	394935	US52517PUP43	INTDEFA	2008/10/03	
INDEF	I	2009/11/03	2009/11/03	6820	258816	US52517PUQ26	INTDEFA	2008/12/26	
INDEF	I	2009/11/03	2009/11/03	6823	1098015	US52517PUN94	INTDEFA	2008/12/27	
INDEF	I	2009/11/03	2009/11/03	6824	258811	US52517PUM12	INTDEFA	2008/12/18	
INDEF	I	2009/11/03	2009/11/03	6826	1298932	US52517PUL39	INTDEFA	2008/12/12	
INDEF	I	2009/11/03	2009/11/03	6830	258797	US52517PUF60	INTDEFA	2008/11/29	
INDEF	I	2009/11/03	2009/11/03	6839	977999	US5252M0DJ32	INTDEFA	2009/02/12	
INDEF	I	2009/11/03	2009/11/03	6841	972534	US52517PM995	INTDEFA	2008/10/27	
INDEF	I	2009/11/03	2009/11/03	6843	971472	US52517PK916	INTDEFA	2009/03/05	
INDEF	I	2009/11/03	2009/11/03	6858	977486	US52517P6L08	INTDEFA	2008/10/10	
INDEF	I	2009/11/03	2009/11/03	6860	971013	US52517PH532	INTDEFA	2008/11/12	
INDEF	I	2009/11/03	2009/11/03	6862	984678	US52517P2U43	INTDEFA	2009/02/28	
INDEF	I	2009/11/03	2009/11/03	6866	977719	US52517PZ799	INTDEFA	2008/11/22	
INDEF	I	2009/11/03	2009/11/03	6867	977728	US52517PY966	INTDEFA	2008/11/23	
INDEF	I	2009/11/03	2009/11/03	6868	969573	US52517PXP16	INTDEFA	2008/10/28	
INDEF	I	2009/11/03	2009/11/03	6870	1329407	US52517PS281	INTDEFA	2008/10/26	
INDEF	I	2009/11/03	2009/11/03	6871	627639	US52517PT685	INTDEFA	2009/02/16	
INDEF	I	2009/11/03	2009/11/03	6881	977755	US52517PV400	INTDEFA	2008/09/19	
INDEF	I	2009/11/03	2009/11/03	6884	977835	US52517PX976	INTDEFA	2008/12/20	
INDEF	I	2009/11/03	2009/11/03	6885	627650	US52517PT768	INTDEFA	2009/02/27	
INDEF	I	2009/11/03	2009/11/03	6888	983947	US5252M0EN35	INTDEFA	2009/03/05	
INDEF	I	2009/11/03	2009/11/03	6891	990051	US52517P6A43	INTDEFA	2008/10/24	
INDEF	I	2009/11/03	2009/11/03	6893	1098758	US5252M0FK86	INTDEFA	2008/11/12	
INDEF	I	2009/11/03	2009/11/03	6897	1108840	US5252M0AA59	INTDEFA	2008/12/12	
INDEF	I	2009/11/03	2009/11/03	6898	1328010	US52517P6C09	INTDEFA	2008/10/17	
INDEF	I	2009/11/03	2009/11/03	6909	1329452	US5252M0GD35	INTDEFA	2008/09/26	
INDEF	I	2009/11/03	2009/11/03	6910	1288981	US52517P4T51	INTDEFA	2008/11/27	
INDEF	I	2009/11/03	2009/11/03	6911	1095202	US52517P2H32	INTDEFA	2008/11/24	
INDEF	I	2009/11/03	2009/11/03	6912	1517055	US5252M0EY99	INTDEFA	2008/10/21	
INDEF	I	2009/11/03	2009/11/03	6939	1073067	US52517PX638	INTDEFA	2008/10/30	
INDEF	I	2009/11/03	2009/11/03	6944	1100573	US5252M0CF29	INTDEFA	2008/10/12	
INDEF	I	2009/11/03	2009/11/03	6946	1100441	US5252M0FH57	INTDEFA	2008/11/19	
INDEF	I	2009/11/03	2009/11/03	6949	1326021	US5252M0CV78	INTDEFA	2008/11/27	
INDEF	I	2009/11/03	2009/11/03	6952	1329433	US5252M0AY36	INTDEFA	2008/09/28	
INDEF	I	2009/11/03	2009/11/03	6958	988443	US52517PR374	INTDEFA	2008/10/12	
INDEF	I	2009/11/03	2009/11/03	6962	1098782	US5252M0EC79	INTDEFA	2008/12/10	
INDEF	I	2009/11/03	2009/11/03	6967	1329420	US52517PX554	INTDEFA	2008/10/27	
INDEF	I	2009/11/03	2009/11/03	6970	985589	US52517PXX40	INTDEFA	2008/12/03	
INDEF	I	2009/11/03	2009/11/03	6971	1071903	US52517PV996	INTDEFA	2008/09/28	
INDEF	I	2009/11/03	2009/11/03	6973	991553	US5252M0CM79	INTDEFA	2008/11/14	
INDEF	I	2009/11/03	2009/11/03	6976	1073633	US52517PY545	INTDEFA	2008/11/10	
INDEF	I	2009/11/03	2009/11/03	6979	1102101	US52517P3L35	INTDEFA	2008/11/23	
INDEF	I	2009/11/03	2009/11/03	6983	1072808	US52517PW804	INTDEFA	2008/10/20	
INDEF	I	2009/11/03	2009/11/03	6984	1103636	US5252M0GQ48	INTDEFA	2008/10/14	
INDEF	I	2009/11/03	2009/11/03	6986	258846	US52517PWE77	INTDEFA	2008/10/16	
INDEF	I	2009/11/03	2009/11/03	6987	1098484	US5252M0FC60	INTDEFA	2008/10/24	
INDEF	I	2009/11/03	2009/11/03	6993	1095147	US52517PZ617	INTDEFA	2008/10/17	
INDEF	I	2009/11/03	2009/11/03	6994	1104111	US52517P5S69	INTDEFA	2008/09/26	
INDEF	I	2009/11/03	2009/11/03	6999	1329409	US52517P2X81	INTDEFA	2008/09/20	
INDEF	I	2009/11/03	2009/11/03	7000	991292	US52517PU824	INTDEFA	2009/03/05	
INDEF	I	2009/11/03	2009/11/03	7002	1095176	US52517PZ534	INTDEFA	2008/11/23	
INDEF	I	2009/11/03	2009/11/03	7006	1100490	US52517P3U34	INTDEFA	2008/10/18	
INDEF	I	2009/11/03	2009/11/03	7008	1329393	US52517P2E01	INTDEFA	2008/11/23	
INDEF	I	2009/11/03	2009/11/03	7011	1289247	US5252M0BL06	INTDEFA	2008/10/24	
INDEF	I	2009/11/03	2009/11/03	7017	1074079	US52517PJ777	INTDEFA	2008/12/20	
INDEF	I	2009/11/03	2009/11/03	7019	1080137	US5252M0DR57	INTDEFA	2009/02/27	
INDEF	I	2009/11/04	2009/11/04	7021	1079665	US5252M0CS40	INTDEFA	2009/01/31	
INDEF	I	2009/11/04	2009/11/04	7022	1074165	US52517PK346	INTDEFA	2009/01/11	
INDEF	I	2009/11/04	2009/11/04	7023	1074090	US52517PX711	INTDEFA	2008/10/17	
INDEF	I	2009/11/04	2009/11/04	7024	1079353	US52517P6J51	INTDEFA	2008/09/28	
INDEF	I	2009/11/04	2009/11/04	7025	665661	US52517PC749	INTDEFA	2008/11/30	
INDEF	I	2009/11/04	2009/11/04	7026	966523	US52517P6W62	INTDEFA	2008/11/29	
INDEF	I	2009/11/04	2009/11/04	7027	959534	US524908MP25	INTDEFA	2008/11/19	
INDEF	I	2009/11/04	2009/11/04	7028	1100499	US52517P3H23	INTDEFA	2008/10/31	
INDEF	I	2009/11/04	2009/11/04	7029	260079	US52517PZJ38	INTDEFA	2008/11/11	
INDEF	I	2009/11/04	2009/11/04	7030	983476	US52517P4B44	INTDEFA	2009/02/01	
INDEF	I	2009/11/04	2009/11/04	7031	1517928	US5252M0CZ82	INTDEFA	2008/11/29	
INDEF	I	2009/11/04	2009/11/04	7032	259898	US52517PXW66	INTDEFA	2008/11/22	
INDEF	I	2009/11/04	2009/11/04	7033	259873	US52517PXM84	INTDEFA	2008/10/25	
INDEF	I	2009/11/04	2009/11/04	7034	259945	US52517PYG08	INTDEFA	2008/09/30	
INDEF	I	2009/11/04	2009/11/04	7035	970722	US52517PZY05	INTDEFA	2008/10/15	
INDEF	I	2009/11/04	2009/11/04	7036	987506	US52517PZA29	INTDEFA	2008/09/23	
INDEF	I	2009/11/04	2009/11/04	7037	987431	US52517PYX31	INTDEFA	2008/09/17	
INDEF	I	2009/11/04	2009/11/04	7038	260026	US52517PYW57	INTDEFA	2008/09/23	
INDEF	I	2009/11/04	2009/11/04	7039	987280	US52517PYU91	INTDEFA	2008/11/24	
INDEF	I	2009/11/04	2009/11/04	7040	260001	US52517PYR62	INTDEFA	2008/11/02	
INDEF	I	2009/11/04	2009/11/04	7041	986081	US52517PYM75	INTDEFA	2008/10/28	
INDEF	I	2009/11/04	2009/11/04	7044	259953	US52517PYJ47	INTDEFA	2008/09/30	
INDEF	I	2009/11/04	2009/11/04	7045	259934	US52517PYE59	INTDEFA	2008/09/23	
INDEF	I	2009/11/04	2009/11/04	7047	963905	US524908NY23	INTDEFA	2008/10/28	
INDEF	I	2009/11/04	2009/11/04	7048	956383	US524908NL02	INTDEFA	2008/12/21	
INDEF	I	2009/11/04	2009/11/04	7049	963858	US524908NM84	INTDEFA	2009/12/29	
INDEF	I	2009/11/04	2009/11/04	7050	960784	US524908NF34	INTDEFA	2008/09/23	
INDEF	I	2009/11/04	2009/11/04	7052	960560	US52520WAV37	INTDEFA	2008/11/14	
INDEF	I	2009/11/04	2009/11/04	7054	964080	US524908SH45	INTDEFA	2009/11/14	
INDEF	I	2009/11/04	2009/11/04	7055	964623	US524908UL29	INTDEFA	2008/12/27	
INDEF	I	2009/11/04	2009/11/04	7056	258844	US52517PWD94	INTDEFA	2009/04/14	
INDEF	I	2009/11/04	2009/11/04	7057	964465	US5252M0EZ64	INTDEFA	2009/04/30	
INDEF	I	2009/11/04	2009/11/04	7059	970758	US52517PA685	INTDEFA	2008/11/17	
INDEF	I	2009/11/04	2009/11/04	7061	260090	US52517PZN40	INTDEFA	2008/11/26	
INDEF	I	2009/11/04	2009/11/04	7062	665674	US52517PN647	INTDEFA	2008/11/26	
INDEF	I	2009/11/04	2009/11/04	7064	963732	US52517PB428	INTDEFA	2008/09/20	
INDEF	I	2009/11/04	2009/11/04	7065	988077	US52517PC251	INTDEFA	2008/10/20	
INDEF	I	2009/11/04	2009/11/04	7066	988875	US52517PB592	INTDEFA	2008/09/23	
INDEF	I	2009/11/04	2009/11/04	7067	987502	US52517PZS37	INTDEFA	2008/09/23	
INDEF	I	2009/11/04	2009/11/04	7068	986725	US52517PA438	INTDEFA	2008/11/04	
INDEF	I	2009/11/04	2009/11/04	7069	987813	US52517PZM66	INTDEFA	2008/11/19	
INDEF	I	2009/11/04	2009/11/04	7070	985906	US52517PYH80	INTDEFA	2008/10/06	
INDEF	I	2009/11/04	2009/11/04	7071	259885	US52517PXS54	INTDEFA	2008/10/29	
INDEF	I	2009/11/04	2009/11/04	7072	963857	US52517P3B52	INTDEFA	2008/09/29	
INDEF	I	2009/11/04	2009/11/04	7073	967912	US5252M0EV50	INTDEFA	2008/09/30	
INDEF	I	2009/11/04	2009/11/04	7074	984679	US52517PVN85	INTDEFA	2008/09/17	
INDEF	I	2009/11/04	2009/11/04	7075	1108833	US5252M0AW79	INTDEFA	2008/12/07	
INDEF	I	2009/11/04	2009/11/04	7077	987693	US52517PE315	INTDEFA	2008/11/24	
INDEF	I	2009/11/04	2009/11/04	7078	988020	US52517PZZ79	INTDEFA	2008/10/27	
INDEF	I	2009/11/04	2009/11/04	7084	260086	US52517PZL83	INTDEFA	2008/11/19	
INDEF	I	2009/11/04	2009/11/04	7085	987518	US52517PYZ88	INTDEFA	2008/09/23	
INDEF	I	2009/11/04	2009/11/04	7088	984360	US52517PYV74	INTDEFA	2008/12/15	
INDEF	I	2009/11/04	2009/11/04	7090	986094	US52517PYP07	INTDEFA	2008/10/28	
INDEF	I	2009/11/04	2009/11/04	7092	1100527	US5252M0FX08	INTDEFA	2008/12/02	
INDEF	I	2009/11/04	2009/11/04	7097	963090	US524908PA29	INTDEFA	2008/11/17	
INDEF	I	2009/11/04	2009/11/04	7100	990236	US52517P4N81	INTDEFA	2008/10/30	
INDEF	I	2009/11/04	2009/11/04	7102	966214	US524908WZ96	INTDEFA	2008/08/31	
INDEF	I	2009/11/04	2009/11/04	7142	399556	XS0177758801	INTDEFA	2008/10/08	
INDEF	I	2009/11/05	2009/11/05	7378	1562283	US228231AC04	INTDEFA	2008/09/20	
INDEF	I	2009/11/05	2009/11/05	7379	1587817	USU76219AE12	INTDEFA	2008/09/30	
INDEF	I	2009/11/06	2009/11/06	7457	1562245	US228231AA48	INTDEFA	2008/09/20	
INDEF	I	2009/11/06	2009/11/06	7462	1562328	US228231AL03	INTDEFA	2008/09/20	
INDEF	I	2009/11/06	2009/11/06	7633	1646354	US52519FEX50	INTDEFA	2008/10/25	
INDEF	I	2009/11/06	2009/11/06	7634	1646369	US52519FEP27	INTDEFA	2009/02/16	
INDEF	I	2009/11/07	2009/11/07	7930	1656696	US52519FBD24	INTDEFA	2008/09/15	
INDEF	I	2009/11/07	2009/11/07	7931	1656737	US52519FCD15	INTDEFA	2008/09/15	
INDEF	I	2009/11/09	2009/11/09	8003	1093959	US52519FFM86	INTDEFA	2008/10/29	
INDEF	I	2009/11/09	2009/11/09	8005	1103535	US5252M0GN17	INTDEFA	2008/09/26	
INDEF	I	2009/11/19	2009/11/19	8462	1664315	US52520YAB39	INTDEFA	2008/11/19	
INDEF	I	2009/10/29	2009/10/29	8600	142808	US524908BQ27	REDDEFA	2009/08/15	
INDEF	I	2009/10/29	2009/10/29	8657	258838	US52517PVU29	REDDEFA	2009/03/13	
INDEF	I	2009/10/29	2009/10/29	8658	258849	US52517PWQ08	REDDEFA	2009/06/02	
INDEF	I	2009/08/27	2009/08/27	8842	404692	US5150X0AB77	REDDEFA	2009/08/25	
INDEF	I	2009/10/29	2009/10/29	10642	933137	US52517PE232	REDDEFA	2009/01/23	
INDEF	I	2009/10/29	2009/10/29	10643	933341	US52517P4K43	REDDEFA	2009/08/13	
INDEF	I	2009/10/29	2009/10/29	10647	946660	US5252M0AN70	REDDEFA	2008/09/15	
INDEF	I	2009/10/29	2009/10/29	10648	946904	US52517P5Q04	REDDEFA	2009/09/28	
INDEF	I	2009/10/29	2009/10/29	10651	947759	US52517P7K16	REDDEFA	2008/09/15	
INDEF	I	2009/10/29	2009/10/29	10652	947832	US52517PK833	REDDEFA	2009/08/21	
INDEF	I	2009/10/29	2009/10/29	10653	947856	US5252M0CP01	REDDEFA	2008/09/15	
INDEF	I	2009/10/29	2009/10/29	10655	948120	US524908MY32	REDDEFA	2008/09/15	
INDEF	I	2009/10/29	2009/10/29	10656	948178	US5249086M72	REDDEFA	2008/09/15	
INDEF	I	2009/10/29	2009/10/29	10657	948194	US5252M0ER49	REDDEFA	2008/09/15	
INDEF	I	2009/10/29	2009/10/29	10661	949900	US524908MR80	REDDEFA	2008/09/15	
INDEF	I	2009/10/29	2009/10/29	10662	949930	US5252M0BC07	REDDEFA	2008/09/15	
INDEF	I	2009/10/29	2009/10/29	10663	950131	US524908WU00	REDDEFA	2008/09/15	
INDEF	I	2009/10/29	2009/10/29	10664	950134	US5252M0ED52	REDDEFA	2008/09/15	
INDEF	I	2009/11/05	2009/11/05	10665	950380	US52517P3G40	REDDEFA	2008/09/15	
INDEF	I	2009/10/29	2009/10/29	10666	950406	US5252M0AF47	REDDEFA	2008/09/15	
INDEF	I	2009/10/29	2009/10/29	10673	951238	US5252M0BQ92	REDDEFA	2008/09/15	
INDEF	I	2009/10/29	2009/10/29	10675	951309	US5249083M00	REDDEFA	2008/09/15	
INDEF	I	2009/10/29	2009/10/29	10677	951457	US5252M0ES22	REDDEFA	2008/09/15	
INDEF	I	2009/10/29	2009/10/29	10678	952270	US524908WW65	REDDEFA	2008/09/15	
INDEF	I	2009/10/29	2009/10/29	10679	952477	US5252M0BE62	REDDEFA	2008/09/15	
INDEF	I	2009/10/29	2009/10/29	10680	952488	US5252M0CR66	REDDEFA	2008/09/15	
INDEF	I	2009/11/06	2009/11/06	10681	952579	US52517P2W09	REDDEFA	2008/09/15	
INDEF	I	2009/11/05	2009/11/05	10684	953227	US524908UK46	REDDEFA	2008/09/15	
INDEF	I	2009/11/05	2009/11/05	10689	954108	US52517P4Y47	REDDEFA	2008/09/15	
INDEF	I	2009/10/29	2009/10/29	10690	954260	US524908TY68	REDDEFA	2009/10/25	
INDEF	I	2009/10/29	2009/10/29	10693	954332	US524908UZ15	REDDEFA	2008/09/15	
INDEF	I	2009/10/29	2009/10/29	10694	954378	US52517P7E55	REDDEFA	2009/10/28	
INDEF	I	2009/11/05	2009/11/05	10695	954406	US5249086U98	REDDEFA	2008/09/15	
INDEF	I	2009/10/29	2009/10/29	10696	954547	US52517PG393	REDDEFA	2009/04/03	
INDEF	I	2009/10/29	2009/10/29	10697	954553	US52517PG211	REDDEFA	2009/04/03	
INDEF	I	2009/10/29	2009/10/29	10698	954608	US52523J4123	REDDEFA	2008/09/15	
INDEF	I	2009/10/29	2009/10/29	10699	956183	US52517PE984	REDDEFA	2008/09/15	
INDEF	I	2009/10/29	2009/10/29	10700	956413	US524908FJ48	REDDEFA	2008/09/15	
INDEF	I	2009/10/29	2009/10/29	10701	956416	US52517P5G22	REDDEFA	2008/09/15	
INDEF	I	2009/10/29	2009/10/29	10702	956455	US5252M0BD89	REDDEFA	2008/09/15	
INDEF	I	2009/10/29	2009/10/29	10703	956608	US52517PW317	REDDEFA	2009/03/23	
INDEF	I	2009/10/29	2009/10/29	10704	956635	US52517PW564	REDDEFA	2009/03/23	
INDEF	I	2009/10/29	2009/10/29	10705	956646	US52517PW499	REDDEFA	2009/03/23	
INDEF	I	2009/10/29	2009/10/29	10708	957178	US52517PU410	REDDEFA	2009/03/30	
INDEF	I	2009/10/29	2009/10/29	10713	959045	US5252M0DA23	REDDEFA	2008/09/15	
INDEF	I	2009/10/29	2009/10/29	10714	959189	US5252M0AD98	REDDEFA	2008/09/15	
INDEF	I	2009/10/29	2009/10/29	10717	960407	US524908UH17	REDDEFA	2008/09/15	
INDEF	I	2009/10/29	2009/10/29	10718	960449	US5252M0BH93	REDDEFA	2008/09/15	
INDEF	I	2009/10/29	2009/10/29	10721	962178	US5252M0AP29	REDDEFA	2008/09/15	
INDEF	I	2009/10/29	2009/10/29	10723	963230	US5252M0EQ65	REDDEFA	2008/09/15	
INDEF	I	2009/10/29	2009/10/29	10724	963661	US5252M0CX35	REDDEFA	2008/09/15	
INDEF	I	2009/11/06	2009/11/06	10727	965135	US52517PRF08	REDDEFA	2008/09/15	
INDEF	I	2009/10/29	2009/10/29	10728	966222	US52517PRX14	REDDEFA	2008/09/15	
INDEF	I	2009/10/29	2009/10/29	10730	967548	US52517PRH63	REDDEFA	2008/09/15	
INDEF	I	2009/10/29	2009/10/29	10732	970634	US524908NX40	REDDEFA	2008/09/15	
INDEF	I	2009/10/29	2009/10/29	10830	1093757	US5252M0AV96	REDDEFA	2008/09/15	
INDEF	I	2009/10/29	2009/10/29	10849	1146412	US524908JE15	REDDEFA	2008/09/15	
INDEF	I	2009/10/29	2009/10/29	10900	1296903	US52517P6E64	REDDEFA	2008/09/15	
INDEF	I	2009/10/29	2009/10/29	10901	1296908	US5252M0BR75	REDDEFA	2008/09/15	
INDEF	I	2009/10/29	2009/10/29	10919	1508222	US52517P2Y64	REDDEFA	2008/09/15	
INDEF	I	2009/10/29	2009/10/29	10920	1508501	US524908VB38	REDDEFA	2008/09/15	
INDEF	I	2009/10/29	2009/10/29	10921	1509079	US5252M0GA95	REDDEFA	2008/09/15	
INDEF	I	2009/10/29	2009/10/29	10926	1515743	US52517P3A79	REDDEFA	2008/09/15	
INDEF	I	2009/10/29	2009/10/29	10927	1517034	US5252M0BM88	REDDEFA	2008/09/15	
INDEF	I	2009/10/29	2009/10/29	10928	1517060	US5252M0GP64	REDDEFA	2008/09/15	
INDEF	I	2009/10/29	2009/10/29	10931	1517074	US5252M0GW16	REDDEFA	2008/09/15	
INDEF	I	2009/10/29	2009/10/29	10932	1517076	US5252M0GX98	REDDEFA	2008/09/15	
INDEF	I	2009/10/29	2009/10/29	10934	1522744	US52517P6F30	REDDEFA	2008/09/15	
INDEF	I	2009/10/29	2009/10/29	10935	1522799	US5252M0AB33	REDDEFA	2008/09/15	
INDEF	I	2009/10/29	2009/10/29	10936	1523160	US5252M0GF82	REDDEFA	2008/09/15	
INDEF	I	2009/10/29	2009/10/29	10937	1523161	US5252M0GV33	REDDEFA	2008/09/15	
INDEF	I	2009/10/29	2009/10/29	10938	1523162	US5252M0GJ05	REDDEFA	2008/09/15	
INDEF	I	2009/10/29	2009/10/29	10939	1523188	US52523J5039	REDDEFA	2008/09/15	
INDEF	I	2009/10/29	2009/10/29	10940	1523193	US5252M0GG65	REDDEFA	2008/09/15	
INDEF	I	2009/10/29	2009/10/29	10941	1523200	US52517P4U25	REDDEFA	2008/09/15	
INDEF	I	2009/10/29	2009/10/29	10944	1523217	US5252M0GM34	REDDEFA	2008/09/15	
EDI_ENDOFFILE
